taste-socket-control3/bench.vcd
$date
Sat Jun 17 20:16:34 2017
$end
$version
VCD generator tool version info text.
$end
$comment
This file has been create by polyorb-hi-c runtime of ocarina.
$end
$timescale 1us $end
$scope module tasks $end
$var wire 1 t0 task_0 $end
$var wire 1 t1 task_1 $end
$var wire 1 t2 task_2 $end
$upscope $end
$scope module mutexes $end
$var wire 1 w0 awaited_0 $end
$var wire 1 l0 locked_0 $end
$upscope $end
$scope module ports $end
$var real 1 p1.0 port_1_0 $end
$upscope $end
$enddefinitions $end
$dumpvars
0t0
0t1
0t2
0w0
0l0
r0 p1.0
$end
#4015110
0t2
#4281715
1t2
#4538636
1w0
#4764872
0w0
#4973917
1l0
#5215940
0t0
#5358608
0l0
#5564940
0t2
#5801285
1t2
#5998216
1w0
#6177488
0w0
#6277681
1l0
#6436320
1t0
#6636883
0l0
#6864830
0t2
#7098140
1t2
#7298124
1w0
#7567300
0w0
#7812055
1l0
#7956365
0t0
#8098529
0l0
#8240543
0t2
#8407475
1t2
#8656394
1w0
#8831414
0w0
#9001790
1l0
#9118722
1t0
#9243991
0l0
#9377645
0t2
#9594697
1t2
#9694995
1w0
#9795241
0w0
#9895532
1l0
#9995872
0t0
#10112732
0l0
#10213034
0t2
#10313367
1t2
#10513708
1w0
#10723047
0w0
#10931427
1l0
#11114720
1t0
#11297991
0l0
#11449795
0t2
#11600213
1t2
#11726717
1w0
#11965155
0w0
#12244264
1l0
#12536423
0t0
#12782649
0l0
#13015968
0t2
#13215997
1t2
#13432648
1w0
#13656209
0w0
#13858068
1l0
#14049866
1t0
#14224856
0l0
#14432407
0t2
#14625090
1t2
#14864518
1w0
#15081194
0w0
#15289521
1l0
#15472860
0t0
#15681162
0l0
#15920502
0t2
#16122802
1t2
#16351028
1w0
#16559420
0w0
#16797419
1l0
#17009727
1t0
#17201602
0l0
#17412208
0t2
#17645798
1t2
#17908574
1w0
#18184225
0w0
#18397801
1l0
#18581054
0t0
#18660593
0l0
#18787060
0t2
#18937447
1t2
#19062707
1w0
#19196438
0w0
#19404974
1l0
#19608868
1t0
#19842155
0l0
#20025560
0t2
#20283850
1t2
#20548921
1w0
#20734189
0w0
#20955960
1l0
#21205992
0t0
#21414277
0l0
#21614312
0t2
#21747551
1t2
#21935869
1w0
#22189267
0w0
#22384822
1l0
#22576686
1t0
#22760052
0l0
#22881421
0t2
#22998324
1t2
#23115234
1w0
#23265664
0w0
#23432641
1l0
#23608233
0t0
#23783635
0l0
#23950790
0t2
#24164208
1t2
#24364141
1w0
#24597508
0w0
#24814150
1l0
#25055867
1t0
#25303784
0l0
#25530795
0t2
#25714108
1t2
#25899823
1w0
#26123741
0w0
#26325161
1l0
#26530766
0t0
#26700438
0l0
#26914048
0t2
#27143178
1t2
#27401963
1w0
#27694403
0w0
#27972339
1l0
#28189020
1t0
#28413037
0l0
#28638190
0t2
#28855670
1t2
#29082085
1w0
#29307123
0w0
#29505622
1l0
#29722347
0t0
#29942287
0l0
#30176240
0t2
#30451497
1t2
#30702073
1w0
#30902676
0w0
#31113904
1l0
#31338932
1t0
#31538897
0l0
#31730554
0t2
#31938858
1t2
#32089209
1w0
#32256360
0w0
#32488837
1l0
#32733672
0t0
#32917596
0l0
#33134745
0t2
#33363847
1t2
#33572153
1w0
#33727851
0w0
#33939536
1l0
#34163850
1t0
#34398466
0l0
#34575394
0t2
#34780475
1t2
#35014482
1w0
#35255615
0w0
#35482219
1l0
#35713766
0t0
#35922044
0l0
#36113755
0t2
#36355348
1t2
#36530435
1w0
#36755365
0w0
#36986798
1l0
#37213698
1t0
#37422008
0l0
#37613667
0t2
#37810221
1t2
#38026901
1w0
#38260240
0w0
#38506897
1l0
#38715888
0t0
#38955281
0l0
#39108560
0t2
#39321995
1t2
#39538561
1w0
#39761480
0w0
#39970229
1l0
#40163613
1t0
#40380212
0l0
#40580231
0t2
#40788577
1t2
#40988555
1w0
#41196915
0w0
#41398354
1l0
#41621878
0t0
#41838503
0l0
#42063491
0t2
#42296822
1t2
#42505118
1w0
#42618136
0w0
#42702975
1l0
#42883385
1t0
#43113458
0l0
#43338461
0t2
#43538450
1t2
#43697128
1w0
#43839008
0w0
#43964293
1l0
#44081304
0t0
#44189889
0l0
#44306837
0t2
#44530084
1t2
#44730099
1w0
#44946738
0w0
#45163405
1l0
#45375879
1t0
#45584733
0l0
#45798196
0t2
#46031487
1t2
#46314842
1w0
#46537708
0w0
#46814984
1l0
#47006642
0t0
#47231646
0l0
#47440048
0t2
#47623215
1t2
#47756929
1w0
#47890479
0w0
#48049161
1l0
#48182962
1t0
#48324785
0l0
#48563211
0t2
#48771601
1t2
#48988252
1w0
#49209890
0w0
#49468614
1l0
#49696542
0t0
#49888207
0l0
#50086872
0t2
#50213226
1t2
#50330230
1w0
#50534514
0w0
#50768023
1l0
#50984760
1t0
#51190329
0l0
#51438160
0t2
#51632823
1t2
#51808442
1w0
#51967266
0w0
#52134487
1l0
#52276538
0t0
#52393578
0l0
#52663094
0t2
#52903273
1t2
#53121417
1w0
#53346408
0w0
#53554668
1l0
#53779771
1t0
#53996488
0l0
#54229706
0t2
#54429692
1t2
#54679741
1w0
#54925484
0w0
#55163466
1l0
#55422031
0t0
#55637995
0l0
