progress/FlyingTasters-v3/bench.vcd
$date
Tue Jun 20 15:01:59 2017
$end
$version
VCD generator tool version info text.
$end
$comment
This file has been create by polyorb-hi-c runtime of ocarina.
$end
$timescale 1us $end
$scope module tasks $end
$var wire 1 t0 task_0 $end
$upscope $end
$enddefinitions $end
$dumpvars
0t0
$end
#929260
0t0
#996206
1t0
0
 1 l0 locked_0 $end
$upscope $end
$enddefinitions $end
$dumpvars
0t0
0w0
0l0
$end
#2810068
0t0
#3096091
1t0
#3312936
1w0
#3562774
0w0
#3837674
1l0
#4054512
0l0
#4291397
1w0
#4574701
0w0
#4854308
1l0
#5092243
0l0
#5337771
1w0
#5593031
0w0
#5751961
1l0
#5835785
0l0
#6054373
1w0
#6320599
0w0
#6520563
1l0
#6812762
0l0
#7054219
1w0
#7180976
0w0
#7281268
1l0
#7390104
0l0
#7646025
1w0
#7930176
0w0
#8170715
1l0
#8405684
0l0
#8654260
1w0
#8914303
0w0
#9060177
1l0
#9152279
0l0
#9285977
1w0
#9386172
0w0
#9486499
1l0
#9595258
0l0
#9755098
1w0
#9838610
0w0
#10064051
1l0
#10224289
0l0
#10425826
1w0
#10623952
0w0
#10782624
1l0
#11062619
0l0
#11329131
1w0
#11467409
0w0
#11567707
1l0
#11701563
0l0
#11818379
1w0
#11985597
0w0
#12187408
1l0
#12344997
0l0
#12603953
1w0
#12853998
0w0
#13128985
1l0
#13390321
0l0
#13665215
1w0
#13890218
0w0
#14132404
1l0
#14399559
0l0
#14666633
1w0
#14908522
0w0
#15142464
1l0
#15420793
0l0
#15670686
1w0
#15891304
0w0
#16166489
1l0
#16320239
0l0
#16445507
1w0
#16675428
0w0
#16875593
1l0
#17109280
0l0
#17337215
1w0
#17620485
0w0
#17837164
1l0
#18170018
0l0
#18462199
1w0
#18745106
0w0
#18978763
1l0
#19220790
0l0
#19420987
1w0
#19637064
0w0
#19895401
1l0
#20162219
0l0
#20454641
1w0
#20678691
0w0
#20987053
1l0
#21246731
0l0
#21464917
1w0
#21541313
0w0
#21649944
1l0
#21733821
0l0
#21817334
1w0
#22053677
0w0
#22288475
1l0
#22512130
0l0
#22753719
1w0
#23020273
0w0
#23145227
1l0
#23245667
0l0
#23362467
1w0
#23520262
0w0
#23679888
1l0
#23813836
0l0
#24061778
1w0
#24303499
0w0
#24603579
1l0
#24895381
0l0
#25187177
1w0
#25462307
0w0
#25786841
1l0
#26045927
0l0
#26295274
1w0
#26537722
0w0
#26811845
1l0
#27070280
0l0
#27321693
1w0
#27604982
0w0
#27797027
1l0
#28047017
0l0
#28270161
1w0
#28561751
0w0
#29033437
1l0
#29420259
0l0
#29677973
1w0
#29778201
0w0
#29998998
1l0
#30291251
0l0
#30558224
1w0
#30833336
0w0
#31125241
1l0
#31420079
0l0
#31695008
1w0
#31986629
0w0
#32328303
1l0
#32628391
0l0
#32936221
1w0
#33186295
0w0
#33469675
1l0
#33721593
0l0
#33961601
1w0
#34244853
0w0
#34446291
1l0
#34563409
0l0
#34646926
1w0
#34730488
0w0
#34847393
1l0
#35098098
0l0
#35340287
1w0
#35583627
0w0
#35867183
1l0
#36136560
0l0
#36454646
1w0
#36703088
0w0
#36921287
1l0
#37127079
0l0
#37451201
1w0
#37667755
0w0
#37971292
1l0
#38272350
0l0
#38626535
1w0
#38928027
0w0
#39248324
1l0
#39535294
0l0
#39869738
1w0
#40008116
0w0
#40116733
1l0
#40406613
0l0
#40703053
1w0
#40986255
0w0
#41261503
1l0
#41570499
0l0
#41828998
1w0
#42069552
0w0
#42305601
1l0
#42539715
0l0
#42802940
1w0
#43098744
0w0
#43352871
#36035172
0t0
#36257487
1t0
#36440772
0t0
#36679251
1t0
#36909807
0t0
#37090372
1t0
#37307409
0t0
#37546028
1t0
#37749086
0t0
#37963662
1t0
#38182402
0t0
#38339758
1t0
#38499025
0t0
#38624045
1t0
#38724315
0t0
#38841305
1t0
#38974972
0t0
#39108567
1t0
#39349013
0t0
#39559715
1t0
#39777002
0t0
#39999011
1t0
#40203183
0t0
#40438257
1t0
#40630519
0t0
#40882310
1t0
#41074040
0t0
#41323958
1t0
#41548935
0t0
#41744084
1t0
#41994014
0t0
#42185767
1t0
#42385889
0t0
#42632251
1t0
#42923907
0t0
#43182268
1t0
#43377861
0t0
#43586547
1t0
#43828544
0t0
#44065552
1t0
#44298827
0t0
#44465465
1t0
#44556652
0t0
#44673633
1t0
#44774048
0t0
#44874232
1t0
#45008013
0t0
#45099937
1t0
#45248471
0t0
#45440460
1t0
#45640419
0t0
#45848776
1t0
#46082096
0t0
#46338085
1t0
#46623817
0t0
#46838112
1t0
#47096441
0t0
#47271471
1t0
#47515392
0t0
#47732040
1t0
#47924016
0t0
#48141219
1t0
#48290343
0t0
#48367170
1t0
#48542606
0t0
#48626261
1t0
#48709881
0t0
#48793552
1t0
#48877080
0t0
#48969080
1t0
#49060996
0t0
#49152972
1t0
#49406983
0t0
#49640292
1t0
#49887979
0t0
#50205184
1t0
#50454122
0t0
#50679263
1t0
#50940260
0t0
#51149977
1t0
#51398551
0t0
#51523537
1t0
#51818097
0t0
#52035232
1t0
#52277350
0t0
#52502883
1t0
#52736705
0t0
#52956813
1t0
#53112464
0t0
#53298467
1t0
#53581792
0t0
#53788793
1t0
#54065118
0t0
#54269381
1t0
#54486122
0t0
#54711112
1t0
#54911118
0t0
#55123436
1t0
#55331704
0t0
#55594735
1t0
#55815060
0t0
#56136340
1t0
#56378257
0t0
#56578933
1t0
#56737832
0t0
#56821413
1t0
#56905044
0t0
#56996965
1t0
#57080600
0t0
#57164247
1t0
#57373796
0t0
#57598772
1t0
#57798339
0t0
#57991143
1t0
#58183447
0t0
#58451869
1t0
#58635816
0t0
#58856606
1t0
#59095237
0t0
#59295883
1t0
#59454775
0t0
#59563397
1t0
#59680341
0t0
#59797241
1t0
#59964871
0t0
#60064633
1t0
#60148290
0t0
#60356519
1t0
#60603458
0t0
#60839872
1t0
#61036839
0t0
#61281518
1t0
#61464814
0t0
#61631567
1t0
#61878297
0t0
#62112040
1t0
#62331427
0t0
#62558391
1t0
#62705457
0t0
#62881004
1t0
#63139763
0t0
#63341026
1t0
#63524515
0t0
#63708012
1t0
#63941686
0t0
#64158880
1t0
#64406408
0t0
#64614702
1t0
#64823041
0t0
#65053915
1t0
#65254436
0t0
#65481327
1t0
#65588775
0t0
