demo_1/binary.c/binaries/bench.vcd
$date
Wed May 17 16:18:15 2017
$end
$version
VCD generator tool version info text.
$end
$comment
This file has been create by polyorb-hi-c runtime of ocarina.
$end
$timescale 1us $end
$scope module tasks $end
$var wire 1 t0 task_0 $end
$var wire 1 t1 task_1 $end
$var wire 1 t2 task_2 $end
$var wire 1 t3 task_3 $end
$upscope $end
$scope module mutexes $end
$var wire 1 w0 awaited_0 $end
$var wire 1 w1 awaited_1 $end
$var wire 1 l0 locked_0 $end
$var wire 1 l1 locked_1 $end
$upscope $end
$scope module ports $end
$var real 1 p1.0 port_1_0 $end
$var real 1 p2.0 port_2_0 $end
$upscope $end
$enddefinitions $end
$dumpvars
0t0
0t1
0t2
0t3
0w0
0w1
0l0
0l1
r0 p1.0
r0 p2.0
$end
#39028
0t3
#39760
0t1
#40562
0t0
#41354
0t2
#42547
1t3
#43282
1w1
#44103
0w1
#44898
1l1
#46160
0l1
#46890
0t3
#47631
1t0
#48359
1w0
#49116
0w0
#50309
1l0
#51042
0l0
#51663
0t0
#52385
1t3
#53125
1w1
#54320
0w1
#55135
1l1
#55827
0l1
#56580
0t3
#80777
1t3
#84294
1w1
#85045
0w1
#86382
1l1
#87160
0l1
#89862
0t3
#102385
1t0
#104641
1w0
#105532
0w0
#106721
1l0
#107385
0l0
#108088
0t0
#121099
1t3
#126444
1w1
#129721
0w1
#132657
1l1
#135622
0l1
#137634
0t3
#160808
1t3
#168368
1w1
#172503
0w1
#176431
1l1
#180293
0l1
#184053
0t3
#200903
1t0
#206317
1w0
#210348
0w0
#216045
1l0
#219742
0l0
#223687
0t0
#226168
1t3
#229765
1w1
#233277
0w1
#237091
1l1
#240923
0l1
#244746
0t3
#253687
1t3
#257328
1w1
#261209
0w1
#264590
1l1
#268247
0l1
#272228
0t3
#280193
1t3
#285476
1w1
#289838
0w1
#293598
1l1
#297225
0l1
#301048
1t0
#304820
1w0
#308701
0w0
#312415
1l0
#316090
0l0
#318390
0t0
#322213
0t3
#330072
1t3
#334643
1w1
#338177
0w1
#341713
1l1
#345906
0l1
#349467
0t3
#360507
1t3
#364313
1w1
#368284
0w1
#372537
1l1
#376889
0l1
#380943
0t3
#403923
1t0
#411306
1w0
#417128
0w0
#420883
1l0
#424654
0l0
#428508
0t0
#432114
1t3
#435849
1w1
#439773
0w1
#441956
1l1
#445876
0l1
#448673
0t3
#451135
1t3
#452563
1w1
#455204
0w1
#456672
1l1
#459125
0l1
#460641
0t3
#481141
1t3
#485515
1w1
#488663
0w1
#491541
1l1
#493340
0l1
#496220
0t3
#500629
1t0
#504229
1w0
#505711
0w0
#507704
1l0
#508934
0l0
#511176
0t0
#520242
1t3
#524067
1w1
#525677
0w1
#528008
1l1
#529661
0l1
#532102
0t3
#565620
1t3
#571799
1w1
#573668
0w1
#576476
1l1
#578847
0l1
#580421
0t3
#600931
1t0
#605899
1w0
#608772
0w0
#611618
1l0
#613238
0l0
#615638
0t0
#617252
1t3
#619743
1w1
#621313
0w1
#623768
1l1
#625196
0l1
#627463
0t3
#640077
1t3
#644509
1w1
#647441
0w1
#649392
1l1
#652277
0l1
#653886
0t3
#680502
1t3
#684738
1w1
#686795
0w1
#687723
1l1
#688751
0l1
#690324
0t3
#701116
1t0
#703823
1w0
#704913
0w0
#706607
1l0
#707593
0l0
#708573
0t0
#720728
1t3
#723307
1w1
#724185
0w1
#725139
1l1
#726674
0l1
#727587
0t3
#760133
1t3
#764272
1w1
#765421
0w1
#766966
1l1
#767843
0l1
#768653
0t3
#800664
1t0
#804964
1w0
#806825
0w0
#807913
1l0
#808889
0l0
#810384
0t0
#811359
1t3
#812323
1w1
#814381
0w1
#815211
1l1
#815977
0l1
#816745
0t3
#840987
1t3
#845457
1w1
#846885
0w1
#847730
1l1
#848685
0l1
#849493
0t3
#880444
1t3
#884627
1w1
#886424
0w1
#887224
1l1
#887994
0l1
#888858
0t3
#900150
1t0
#903312
1w0
#904315
0w0
#905436
1l0
#907059
0l0
#908022
0t0
#920667
1t3
#923833
1w1
#924851
0w1
#926480
1l1
#927236
0l1
#928147
0t3
#964098
1t3
#967723
1w1
#972891
0w1
#975512
1l1
#976447
0l1
#977312
0t3
#1000306
1t0
#1004131
1w0
#1005164
0w0
#1006691
1l0
#1007623
0l0
#1008447
0t0
#1009280
1t3
#1010731
1w1
#1011697
0w1
#1012544
1l1
#1013382
0l1
#1014687
0t3
#1040618
1t3
#1045187
1w1
#1046694
0w1
#1047619
1l1
#1048543
0l1
#1049437
0t3
#1082516
1t3
#1086799
1w1
#1088020
0w1
#1089206
1l1
#1090925
0l1
#1091976
0t3
#1100922
1t0
#1103815
1w0
#1104778
0w0
#1106339
1l0
#1107075
0l0
#1107822
0t0
#1122646
1t3
#1125245
1w1
#1126861
0w1
#1127765
1l1
#1128708
0l1
#1130307
0t3
#1162088
1t3
#1165693
1w1
#1167248
0w1
#1168141
1l1
#1168916
0l1
#1170285
0t3
#1200419
1t0
#1204654
1w0
#1205580
0w0
#1206898
1l0
#1207519
0l0
#1208249
0t0
#1208964
1t3
#1210167
1w1
#1210991
0w1
#1211792
1l1
#1212532
0l1
#1213266
0t3
#1240820
1t3
#1244072
1w1
#1245039
0w1
#1246330
1l1
#1247149
0l1
#1247979
0t3
#1280943
1t3
#1284610
1w1
#1285561
0w1
#1286815
1l1
#1287508
0l1
#1288072
0t3
#1300156
1t0
#1306259
1w0
#1307041
0w0
#1307741
1l0
#1308340
0l0
#1309409
0t0
#1320032
1t3
#1323131
1w1
#1324062
0w1
#1324802
1l1
#1326226
0l1
#1326906
0t3
#1360051
1t3
#1363179
1w1
#1363958
0w1
#1364648
1l1
#1365360
0l1
#1366282
0t3
#1400121
1t0
#1403033
1w0
#1403721
0w0
#1404362
1l0
#1404874
0l0
#1405516
0t0
#1406589
1t3
#1407156
1w1
#1407699
0w1
#1408273
1l1
#1408837
0l1
#1409674
0t3
#1442354
1t3
#1445147
1w1
#1447208
0w1
#1448041
1l1
#1448841
0l1
#1450204
0t3
#1480746
1t3
#1484438
1w1
#1485495
0w1
#1486961
1l1
#1487808
0l1
#1488632
0t3
#1501533
1t0
#1503386
1w0
#1504262
0w0
#1505152
1l0
#1506624
0l0
#1507588
0t0
#1520072
1t3
#1522267
1w1
#1523175
0w1
#1524006
1l1
#1524807
0l1
#1526123
0t3
#1560494
1t3
#1564169
1w1
#1565033
0w1
#1566481
1l1
#1567400
0l1
#1568239
0t3
#1600881
1t0
#1605175
1w0
#1606829
0w0
#1607604
1l0
#1608308
0l0
#1609119
0t0
#1610373
1t3
#1611193
1w1
#1611927
0w1
#1612654
1l1
#1613409
0l1
#1614577
0t3
#1640351
1t3
#1644723
1w1
#1645563
0w1
#1646894
1l1
#1647648
0l1
#1648445
0t3
#1680123
1t3
#1684296
1w1
#1685205
0w1
#1686674
1l1
#1687409
0l1
#1688131
0t3
#1700680
1t0
#1704503
1w0
#1705605
0w0
#1707032
1l0
#1707866
0l0
#1708604
0t0
#1723314
1t3
#1727285
1w1
#1728214
0w1
#1729070
1l1
#1730457
0l1
#1731209
0t3
#1761083
1t3
#1765288
1w1
#1766754
0w1
#1767787
1l1
#1768595
0l1
#1769432
0t3
#1800421
1t0
#1804506
1w0
#1805423
0w0
#1806900
1l0
#1807624
0l0
#1808274
0t0
#1809034
1t3
#1810297
1w1
#1811150
0w1
#1812036
1l1
#1812842
0l1
#1814047
0t3
#1840806
1t3
#1844421
1w1
#1845309
0w1
#1846624
1l1
#1847373
0l1
#1848113
0t3
#1882341
1t3
#1885386
1w1
#1887031
0w1
#1887952
1l1
#1888761
0l1
#1890118
0t3
#1900243
1t0
#1903110
1w0
#1903922
0w0
#1904809
1l0
#1906278
0l0
#1907191
0t0
#1920099
1t3
#1922997
1w1
#1923952
0w1
#1924670
1l1
#1925573
0l1
#1926721
0t3
#1964480
1t3
#1971917
1w1
#1973627
0w1
#1974822
1l1
#1975480
0l1
#1976115
0t3
#2004832
1t0
#2008852
1w0
#2010152
0w0
#2011037
1l0
#2011833
0l0
#2012505
0t0
#2013184
1t3
#2014383
1w1
#2015126
0w1
#2015860
1l1
#2017022
0l1
#2018343
0t3
#2040160
1t3
#2044106
1w1
#2045036
0w1
#2046368
1l1
#2047303
0l1
#2048199
0t3
#2080314
1t3
#2084153
1w1
#2085093
0w1
#2086683
1l1
#2087375
0l1
#2088078
0t3
#2101014
1t0
#2103708
1w0
#2104656
0w0
#2105503
1l0
#2106826
0l0
#2107672
0t0
#2121713
1t3
#2124490
1w1
#2125390
0w1
#2126876
1l1
#2127691
0l1
#2128468
0t3
#2160476
1t3
#2164739
1w1
#2165615
0w1
#2166405
1l1
#2167189
0l1
#2168022
0t3
#2201058
1t0
#2204453
1w0
#2205433
0w0
#2207192
1l0
#2208088
0l0
#2208854
0t0
#2209564
1t3
#2210264
1w1
#2211013
0w1
#2211741
1l1
#2212438
0l1
#2213146
0t3
#2240597
1t3
#2244778
1w1
#2245846
0w1
#2246764
1l1
#2247635
0l1
#2248461
0t3
#2281120
1t3
#2285333
1w1
#2286209
0w1
#2286958
1l1
#2287676
0l1
#2288337
0t3
#2305756
1t0
#2308427
1w0
#2309344
0w0
#2310132
1l0
#2311030
0l0
#2311906
0t0
#2320422
1t3
#2322335
1w1
#2323250
0w1
#2324157
1l1
#2324928
0l1
#2326233
0t3
#2365847
1t3
#2369084
1w1
#2370147
0w1
#2370944
1l1
#2371700
0l1
#2372493
0t3
#2403483
1t0
#2407446
1w0
#2408481
0w0
#2409261
1l0
#2409939
0l0
#2410663
0t0
#2411446
1t3
#2412285
1w1
#2413040
0w1
#2414213
1l1
#2414955
0l1
#2415738
0t3
#2441023
1t3
#2444342
1w1
#2445260
0w1
#2446575
1l1
#2447229
0l1
#2447850
0t3
#2480727
1t3
#2484236
1w1
#2485303
0w1
#2486764
1l1
#2487636
0l1
#2488474
0t3
#2502144
1t0
#2504348
1w0
#2505128
0w0
#2505877
1l0
#2506651
0l0
#2507466
0t0
#2523883
1t3
#2527862
1w1
#2528810
0w1
#2529629
1l1
#2530375
0l1
#2531192
0t3
#2560629
1t3
#2564623
1w1
#2565540
0w1
#2566274
1l1
#2567078
0l1
#2567907
0t3
#2600131
1t0
#2603986
1w0
#2604869
0w0
#2605708
1l0
#2606512
0l0
#2607400
0t0
#2608376
1t3
#2609191
1w1
#2610373
0w1
#2611223
1l1
#2612888
0l1
#2614132
0t3
#2640443
1t3
#2644413
1w1
#2645300
0w1
#2646166
1l1
#2647015
0l1
#2647834
0t3
#2681026
1t3
#2683924
1w1
#2684892
0w1
#2686400
1l1
#2687170
0l1
#2688009
0t3
#2702022
1t0
#2705487
1w0
#2706462
0w0
#2707192
1l0
#2708033
0l0
#2708892
0t0
#2720581
1t3
#2723573
1w1
#2724616
0w1
#2725461
1l1
#2726263
0l1
#2727118
0t3
#2760174
1t3
#2764014
1w1
#2765131
0w1
#2765884
1l1
#2766735
0l1
#2767476
0t3
#2800420
1t0
#2804471
1w0
#2805449
0w0
#2806294
1l0
#2807138
0l0
#2808043
0t0
#2808855
1t3
#2810059
1w1
#2810824
0w1
#2811636
1l1
#2812429
0l1
#2813193
0t3
#2840639
1t3
#2844185
1w1
#2845043
0w1
#2845827
1l1
#2846689
0l1
#2847484
0t3
#2880966
1t3
#2884058
1w1
#2885193
0w1
#2886874
1l1
#2887753
0l1
#2888573
0t3
#2900881
1t0
#2903491
1w0
#2904806
0w0
#2905920
1l0
#2906545
0l0
#2907239
0t0
#2923858
1t3
#2928018
1w1
#2929040
0w1
#2929929
1l1
#2930822
0l1
#2931684
0t3
#2960314
1t3
#2964154
1w1
#2965096
0w1
#2965905
1l1
#2966696
0l1
#2967558
0t3
#3000568
1t0
#3003842
1w0
#3004677
0w0
#3005483
1l0
#3006247
0l0
#3006981
0t0
#3007797
1t3
#3008685
1w1
#3009531
0w1
#3010714
1l1
#3011529
0l1
#3012387
0t3
#3040143
1t3
#3042342
1w1
#3043341
0w1
#3044184
1l1
#3045098
0l1
#3046572
0t3
#3080413
1t3
#3084372
1w1
#3085409
0w1
#3086235
1l1
#3087014
0l1
#3087745
0t3
#3100191
1t0
#3103281
1w0
#3104295
0w0
#3105252
1l0
#3106695
0l0
#3107653
0t0
#3121681
1t3
#3124044
1w1
#3125006
0w1
#3126416
1l1
#3127297
0l1
#3128130
0t3
#3161122
1t3
#3164597
1w1
#3166374
0w1
#3167288
1l1
#3168172
0l1
#3168971
0t3
#3201368
1t0
#3204607
1w0
#3205571
0w0
#3206839
1l0
#3207683
0l0
#3208520
0t0
#3209380
1t3
#3210585
1w1
#3211417
0w1
#3212279
1l1
#3213049
0l1
#3214239
0t3
#3245042
1t3
#3248580
1w1
#3249580
0w1
#3250923
1l1
#3251804
0l1
#3252724
0t3
#3282798
1t3
#3286342
1w1
#3287486
0w1
#3288544
1l1
#3289508
0l1
#3290867
0t3
#3300439
1t0
#3302269
1w0
#3303321
0w0
#3304306
1l0
#3305143
0l0
#3306326
0t0
#3320103
1t3
#3322501
1w1
#3323723
0w1
#3325126
1l1
#3326542
0l1
#3327375
0t3
#3364849
1t3
#3368096
1w1
#3369133
0w1
#3370591
1l1
#3371480
0l1
#3372384
0t3
#3400543
1t0
#3404647
1w0
#3405502
0w0
#3406321
1l0
#3407114
0l0
#3407935
0t0
#3408815
1t3
#3410143
1w1
#3410939
0w1
#3411873
1l1
#3412726
0l1
#3413493
0t3
#3441085
1t3
#3444226
1w1
#3445155
0w1
#3446437
1l1
#3447320
0l1
#3448115
0t3
#3480704
1t3
#3484194
1w1
#3485348
0w1
#3486849
1l1
#3487714
0l1
#3488552
0t3
#3502429
1t0
#3505634
1w0
#3506558
0w0
#3507524
1l0
#3508451
0l0
#3509454
0t0
#3523352
1t3
#3525902
1w1
#3526878
0w1
#3527775
1l1
#3528573
0l1
#3529458
0t3
#3560867
1t3
#3564029
1w1
#3565161
0w1
#3566580
1l1
#3567475
0l1
#3568329
0t3
#3600291
1t0
#3604418
1w0
#3605427
0w0
#3606224
1l0
#3606922
0l0
#3607623
0t0
#3608389
1t3
#3609270
1w1
#3610694
0w1
#3611504
1l1
#3612317
0l1
#3613111
0t3
#3640749
1t3
#3643171
1w1
#3644230
0w1
#3645022
1l1
#3646260
0l1
#3647142
0t3
#3680439
1t3
#3684142
1w1
#3685015
0w1
#3685975
1l1
#3686776
0l1
#3687686
0t3
#3700974
1t0
#3703838
1w0
#3704769
0w0
#3706256
1l0
#3707143
0l0
#3707990
0t0
#3722725
1t3
#3726010
1w1
#3727102
0w1
#3727977
1l1
#3728835
0l1
#3730192
0t3
#3760153
1t3
#3763307
1w1
#3764293
0w1
#3765204
1l1
#3766691
0l1
#3767597
0t3
#3804550
1t0
#3808647
1w0
#3809655
0w0
#3810485
1l0
#3811281
0l0
#3812065
0t0
#3813011
1t3
#3814240
1w1
#3815033
0w1
#3815832
1l1
#3816614
0l1
#3817381
0t3
#3840821
1t3
#3844066
1w1
#3844881
0w1
#3846132
1l1
#3846908
0l1
#3847684
0t3
#3881878
1t3
#3885284
1w1
#3887083
0w1
#3887973
1l1
#3888775
0l1
#3890093
0t3
#3903627
1t0
#3907030
1w0
#3907945
0w0
#3908770
1l0
#3910141
0l0
#3910915
0t0
#3920422
1t3
#3922348
1w1
#3923287
0w1
#3924190
1l1
#3925096
0l1
#3926550
0t3
#3960066
1t3
#3964339
1w1
#3965556
0w1
#3967033
1l1
#3967773
0l1
#3968541
0t3
#4002233
1t0
#4005105
1w0
#4005970
0w0
#4006888
1l0
#4007760
0l0
#4008529
0t0
#4009240
1t3
#4010604
1w1
#4011432
0w1
#4012257
1l1
#4013022
0l1
#4014203
0t3
#4040996
1t3
#4043987
1w1
#4044812
0w1
#4046103
1l1
#4046757
0l1
#4047497
0t3
#4083649
1t3
#4086830
1w1
#4087827
0w1
#4088855
1l1
#4090213
0l1
#4091080
0t3
#4100360
1t0
#4102529
1w0
#4103716
0w0
#4104573
1l0
#4105422
0l0
#4106795
0t0
#4120985
1t3
#4123337
1w1
#4124301
0w1
#4125219
1l1
#4126703
0l1
#4127504
0t3
#4164524
1t3
#4168844
1w1
#4169845
0w1
#4170610
1l1
#4171381
0l1
#4172158
0t3
#4200839
1t0
#4204321
1w0
#4205400
0w0
#4206756
1l0
#4207502
0l0
#4208351
0t0
#4209239
1t3
#4210606
1w1
#4211344
0w1
#4212195
1l1
#4213565
0l1
#4214895
0t3
#4240168
1t3
#4243459
1w1
#4244538
0w1
#4245342
1l1
#4246644
0l1
#4247466
0t3
#4281009
1t3
#4284178
1w1
#4284964
0w1
#4286200
1l1
#4287073
0l1
#4287941
0t3
#4303805
1t0
#4307177
1w0
#4308180
0w0
#4309011
1l0
#4310309
0l0
#4310970
0t0
#4320476
1t3
#4322355
1w1
#4323346
0w1
#4324216
1l1
#4324990
0l1
#4326273
0t3
#4360824
1t3
#4363888
1w1
#4364698
0w1
#4365475
1l1
#4366785
0l1
#4367588
0t3
#4400311
1t0
#4404365
1w0
#4405525
0w0
#4406879
1l0
#4407798
0l0
#4408576
0t0
#4409353
1t3
#4410705
1w1
#4411423
0w1
#4412169
1l1
#4413737
0l1
#4414821
0t3
#4440489
1t3
#4444011
1w1
#4444903
0w1
#4445652
1l1
#4446440
0l1
#4447187
0t3
#4480674
1t3
#4484236
1w1
#4484996
0w1
#4486117
1l1
#4486676
0l1
#4487250
0t3
#4500289
1t0
#4503808
1w0
#4504701
0w0
#4505577
1l0
#4506932
0l0
#4507700
0t0
#4521806
1t3
#4524792
1w1
#4526152
0w1
#4527012
1l1
#4527916
0l1
#4528720
0t3
#4560356
1t3
#4563797
1w1
#4564840
0w1
#4566230
1l1
#4567034
0l1
#4567798
0t3
#4604954
1t0
#4608486
1w0
#4609478
0w0
#4611029
1l0
#4611780
0l0
#4612589
0t0
#4613463
1t3
#4614803
1w1
#4615600
0w1
#4616376
1l1
#4617198
0l1
#4618432
0t3
#4640612
1t3
#4644545
1w1
#4645390
0w1
#4646180
1l1
#4647026
0l1
#4647846
0t3
#4680501
1t3
#4684673
1w1
#4685577
0w1
#4686392
1l1
#4687230
0l1
#4688106
0t3
#4701100
1t0
#4703733
1w0
#4704579
0w0
#4705457
1l0
#4706735
0l0
#4707555
0t0
#4722871
1t3
#4726460
1w1
#4727316
0w1
#4728175
1l1
#4729026
0l1
#4730331
0t3
#4761476
1t3
#4764720
1w1
#4766273
0w1
#4767054
1l1
#4767867
0l1
#4768694
0t3
#4800149
1t0
#4803075
1w0
#4803992
0w0
#4804871
1l0
#4806278
0l0
#4807150
0t0
#4807966
1t3
#4808762
1w1
#4809570
0w1
#4810846
1l1
#4811649
0l1
#4812444
0t3
#4840766
1t3
#4844611
1w1
#4845426
0w1
#4846788
1l1
#4847629
0l1
#4848474
0t3
#4880225
1t3
#4883359
1w1
#4884454
0w1
#4885453
1l1
#4886759
0l1
#4887613
0t3
#4902909
1t0
#4906202
1w0
#4907315
0w0
#4908296
1l0
#4909134
0l0
#4910399
0t0
#4924726
1t3
#4927164
1w1
#4928445
0w1
#4929449
1l1
#4930891
0l1
#4931774
0t3
#4964056
1t3
#4967559
1w1
#4968570
0w1
#4969449
1l1
#4970789
0l1
#4971570
0t3
#5000509
1t0
#5002274
1w0
#5003193
0w0
#5004116
1l0
#5004953
0l0
#5006180
0t0
#5006965
1t3
#5007776
1w1
#5009140
0w1
#5012594
1l1
#5016083
0l1
#5017934
0t3
#5045676
1t3
#5053497
1w1
#5057604
0w1
#5062174
1l1
#5066213
0l1
#5070268
0t3
#5081059
1t3
#5086148
1w1
#5089990
0w1
#5093720
1l1
#5097438
0l1
#5101246
1t0
#5105523
1w0
#5109354
0w0
#5113308
1l0
#5117792
0l0
#5122094
0t0
#5126351
0t3
#5130559
1t3
#5136067
1w1
#5140213
0w1
#5144488
1l1
#5148671
0l1
#5153228
0t3
#5160249
1t3
#5164463
1w1
#5169242
0w1
#5173622
1l1
#5178118
0l1
#5182120
0t3
#5202460
1t0
#5210330
1w0
#5214412
0w0
#5218274
1l0
#5221944
0l0
#5225658
0t0
#5230008
1t3
#5233655
1w1
#5237613
0w1
#5241309
1l1
#5245479
0l1
#5249315
0t3
#5253255
1t3
#5256929
1w1
#5260890
0w1
#5264898
1l1
#5268864
0l1
#5272495
0t3
#5280642
1t3
#5284298
1w1
#5288558
0w1
#5292301
1l1
#5296360
0l1
#5300230
1t0
#5304042
1w0
#5307951
0w0
#5310252
1l0
#5314491
0l0
#5320332
0t0
#5324254
0t3
#5330220
1t3
#5336192
1w1
#5339688
0w1
#5341344
1l1
#5343821
0l1
#5345429
0t3
#5361182
1t3
#5364485
1w1
#5367293
0w1
#5369310
1l1
#5372227
0l1
#5373684
0t3
#5400659
1t0
#5405184
1w0
#5408029
0w0
#5409936
1l0
#5412840
0l0
#5415148
0t0
#5416567
1t3
#5420183
1w1
#5421514
0w1
#5424002
1l1
#5425623
0l1
#5428544
0t3
#5442880
1t3
#5448122
1w1
#5449865
0w1
#5452526
1l1
#5455403
0l1
#5457033
0t3
#5480495
1t3
#5485088
1w1
#5488827
0w1
#5492028
1l1
#5493845
0l1
#5497048
0t3
#5500865
1t0
#5503520
1w0
#5505133
0w0
#5507281
1l0
#5508602
0l0
#5510657
0t0
#5520482
1t3
#5523520
1w1
#5525250
0w1
#5528154
1l1
#5530058
0l1
#5532638
0t3
#5561350
1t3
#5565627
1w1
#5568434
0w1
#5569949
1l1
#5572362
0l1
#5573667
0t3
#5601028
1t0
#5605296
1w0
#5608051
0w0
#5609670
1l0
#5612100
0l0
#5613594
0t0
#5615929
1t3
#5617360
1w1
#5619634
0w1
#5621118
1l1
#5623391
0l1
#5624894
0t3
#5640305
1t3
#5644200
1w1
#5646178
0w1
#5649148
1l1
#5652225
0l1
#5653683
0t3
#5680955
1t3
#5685275
1w1
#5688292
0w1
#5690021
1l1
#5693047
0l1
#5696208
0t3
#5700385
1t0
#5704021
1w0
#5705512
0w0
#5708524
1l0
#5710887
0l0
#5712332
0t0
#5721060
1t3
#5723733
1w1
#5725590
0w1
#5728106
1l1
#5729734
0l1
#5732187
0t3
#5760763
1t3
#5765474
1w1
#5768466
0w1
#5771405
1l1
#5773160
0l1
#5775779
0t3
#5800372
1t0
#5804821
1w0
#5807708
0w0
#5809380
1l0
#5811879
0l0
#5813625
0t0
#5816189
1t3
#5817764
1w1
#5820332
0w1
#5821788
1l1
#5824285
0l1
#5825682
0t3
#5840560
1t3
#5845723
1w1
#5848773
0w1
#5851857
1l1
#5853821
0l1
#5856667
0t3
#5880663
1t3
#5884576
1w1
#5887099
0w1
#5888811
1l1
#5891062
0l1
#5892419
0t3
#5900296
1t0
#5903093
1w0
#5905065
0w0
#5907990
1l0
#5909589
0l0
#5912089
0t0
#5923446
1t3
#5928173
1w1
#5931085
0w1
#5932667
1l1
#5935232
0l1
#5936678
0t3
#5960355
1t3
#5964459
1w1
#5967566
0w1
#5969510
1l1
#5972239
0l1
#5973765
0t3
#6000297
1t0
#6010123
1w0
#6011319
0w0
#6012058
1l0
#6012860
0l0
#6013997
0t0
#6014682
1t3
#6015324
1w1
#6015942
0w1
#6016565
1l1
#6017187
0l1
#6018195
0t3
#6040505
1t3
#6042928
1w1
#6043736
0w1
#6044491
1l1
#6045245
0l1
#6046654
0t3
#6080649
1t3
#6085833
1w1
#6088028
0w1
#6089438
1l1
#6090511
0l1
#6091104
0t3
#6100688
1t0
#6102524
1w0
#6103236
0w0
#6103925
1l0
#6104606
0l0
#6105303
0t0
#6120256
1t3
#6124156
1w1
#6124918
0w1
#6126192
1l1
#6126900
0l1
#6127563
0t3
#6160522
1t3
#6162188
1w1
#6163767
0w1
#6164908
1l1
#6166051
0l1
#6166678
0t3
#6200489
1t0
#6203879
1w0
#6205217
0w0
#6206565
1l0
#6207246
0l0
#6208248
0t0
#6209500
1t3
#6210674
1w1
#6211318
0w1
#6211975
1l1
#6212706
0l1
#6213397
0t3
#6240563
1t3
#6242645
1w1
#6243579
0w1
#6244334
1l1
#6244999
0l1
#6246084
0t3
#6280165
1t3
#6282341
1w1
#6283102
0w1
#6283838
1l1
#6284380
0l1
#6284904
0t3
#6300535
1t0
#6302680
1w0
#6303424
0w0
#6304062
1l0
#6304639
0l0
#6305296
0t0
#6320095
1t3
#6322766
1w1
#6323584
0w1
#6324426
1l1
#6325105
0l1
#6326150
0t3
#6360220
1t3
#6362410
1w1
#6363155
0w1
#6363837
1l1
#6364388
0l1
#6364921
0t3
#6400079
1t0
#6402390
1w0
#6403291
0w0
#6404138
1l0
#6404695
0l0
#6405227
0t0
#6406204
1t3
#6406820
1w1
#6407417
0w1
#6408026
1l1
#6408639
0l1
#6409301
0t3
#6440098
1t3
#6442256
1w1
#6442854
0w1
#6443478
1l1
#6444130
0l1
#6444728
0t3
#6480539
1t3
#6482989
1w1
#6483858
0w1
#6484589
1l1
#6485348
0l1
#6486434
0t3
#6500756
1t0
#6503200
1w0
#6503943
0w0
#6504583
1l0
#6505172
0l0
#6506166
0t0
#6520163
1t3
#6522077
1w1
#6522749
0w1
#6523369
1l1
#6524027
0l1
#6524538
0t3
#6560379
1t3
#6563519
1w1
#6564611
0w1
#6565477
1l1
#6566567
0l1
#6567155
0t3
#6600520
1t0
#6602789
1w0
#6603549
0w0
#6604311
1l0
#6605046
0l0
#6606135
0t0
#6606801
1t3
#6607444
1w1
#6608053
0w1
#6608623
1l1
#6609191
0l1
#6610261
0t3
#6640107
1t3
#6643433
1w1
#6644734
0w1
#6646233
1l1
#6647077
0l1
#6647874
0t3
#6680057
1t3
#6683169
1w1
#6684003
0w1
#6684679
1l1
#6685332
0l1
#6687948
0t3
#6700246
1t0
#6702737
1w0
#6703584
0w0
#6704444
1l0
#6705163
0l0
#6706263
0t0
#6720365
1t3
#6722989
1w1
#6723717
0w1
#6724822
1l1
#6725628
0l1
#6726906
0t3
#6760395
1t3
#6763395
1w1
#6764128
0w1
#6764717
1l1
#6765270
0l1
#6766215
0t3
#6800013
1t0
#6803051
1w0
#6803855
0w0
#6804660
1l0
#6805335
0l0
#6806328
0t0
#6806951
1t3
#6807569
1w1
#6808175
0w1
#6808780
1l1
#6809370
0l1
#6810299
0t3
#6840122
1t3
#6843272
1w1
#6844050
0w1
#6844618
1l1
#6845148
0l1
#6846294
0t3
#6880381
1t3
#6884155
1w1
#6885115
0w1
#6886511
1l1
#6887376
0l1
#6888136
0t3
#6900089
1t0
#6902732
1w0
#6903540
0w0
#6904358
1l0
#6905014
0l0
#6906257
0t0
#6920295
1t3
#6922159
1w1
#6922772
0w1
#6923406
1l1
#6924091
0l1
#6924688
0t3
#6960420
1t3
#6963793
1w1
#6964600
0w1
#6965291
1l1
#6966325
0l1
#6966941
0t3
#7000077
1t0
#7003346
1w0
#7004122
0w0
#7004692
1l0
#7005233
0l0
#7006200
0t0
#7006779
1t3
#7007406
1w1
#7008012
0w1
#7008588
1l1
#7009186
0l1
#7010089
0t3
#7040152
1t3
#7043427
1w1
#7044382
0w1
#7045231
1l1
#7046184
0l1
#7046830
0t3
#7080059
1t3
#7083093
1w1
#7083690
0w1
#7084354
1l1
#7085016
0l1
#7085981
0t3
#7100298
1t0
#7102474
1w0
#7103211
0w0
#7103962
1l0
#7104687
0l0
#7105368
0t0
#7125488
1t3
#7128639
1w1
#7129603
0w1
#7131041
1l1
#7131843
0l1
#7132604
0t3
#7163199
1t3
#7167315
1w1
#7168222
0w1
#7168941
1l1
#7170103
0l1
#7170898
0t3
#7202630
1t0
#7207035
1w0
#7207886
0w0
#7208803
1l0
#7210095
0l0
#7210915
0t0
#7211708
1t3
#7212496
1w1
#7213396
0w1
#7214907
1l1
#7215681
0l1
#7216454
0t3
#7245838
1t3
#7248819
1w1
#7250231
0w1
#7251078
1l1
#7251856
0l1
#7252632
0t3
#7282517
1t3
#7286632
1w1
#7287473
0w1
#7288285
1l1
#7289103
0l1
#7290460
0t3
#7301097
1t0
#7303371
1w0
#7304497
0w0
#7305608
1l0
#7307044
0l0
#7307775
0t0
#7323627
1t3
#7327269
1w1
#7328156
0w1
#7328995
1l1
#7330337
0l1
#7331145
0t3
#7360933
1t3
#7364533
1w1
#7365459
0w1
#7366820
1l1
#7367573
0l1
#7368326
0t3
#7400588
1t0
#7404808
1w0
#7406323
0w0
#7407202
1l0
#7408082
0l0
#7409043
0t0
#7410356
1t3
#7411163
1w1
#7411906
0w1
#7412635
1l1
#7413407
0l1
#7414731
0t3
#7440570
1t3
#7443990
1w1
#7444816
0w1
#7445506
1l1
#7446826
0l1
#7447661
0t3
#7480481
1t3
#7484585
1w1
#7485554
0w1
#7486979
1l1
#7487802
0l1
#7488576
0t3
#7501184
1t0
#7503965
1w0
#7505109
0w0
#7506453
1l0
#7507263
0l0
#7508042
0t0
#7522940
1t3
#7526954
1w1
#7527895
0w1
#7528742
1l1
#7529481
0l1
#7530872
0t3
#7560510
1t3
#7564313
1w1
#7565265
0w1
#7566646
1l1
#7567495
0l1
#7568340
0t3
#7600136
1t0
#7604343
1w0
#7605318
0w0
#7606789
1l0
#7607604
0l0
#7608383
0t0
#7609151
1t3
#7610408
1w1
#7611183
0w1
#7611936
1l1
#7612707
0l1
#7613503
0t3
#7641376
1t3
#7644635
1w1
#7645495
0w1
#7646928
1l1
#7647822
0l1
#7648726
0t3
#7680973
1t3
#7684576
1w1
#7685711
0w1
#7687190
1l1
#7688089
0l1
#7689071
0t3
#7702513
1t0
#7705554
1w0
#7707166
0w0
#7707959
1l0
#7708884
0l0
#7710192
0t0
#7720389
1t3
#7722554
1w1
#7723571
0w1
#7724450
1l1
#7725312
0l1
#7726632
0t3
#7765196
1t3
#7768577
1w1
#7769539
0w1
#7770953
1l1
#7771733
0l1
#7772555
0t3
#7803578
1t0
#7806960
1w0
#7807807
0w0
