UseCase1/binary.c/binaries/bench.vcd
$date
Wed May 17 16:00:10 2017
$end
$version
VCD generator tool version info text.
$end
$comment
This file has been create by polyorb-hi-c runtime of ocarina.
$end
$timescale 1us $end
$scope module tasks $end
$var wire 1 t0 task_0 $end
$var wire 1 t1 task_1 $end
$var wire 1 t2 task_2 $end
$var wire 1 t3 task_3 $end
$upscope $end
$scope module mutexes $end
$var wire 1 w0 awaited_0 $end
$var wire 1 w1 awaited_1 $end
$var wire 1 l0 locked_0 $end
$var wire 1 l1 locked_1 $end
$upscope $end
$scope module ports $end
$var real 1 p1.0 port_1_0 $end
$var real 1 p2.0 port_2_0 $end
$upscope $end
$enddefinitions $end
$dumpvars
0t0
0t1
0t2
0t3
0w0
0w1
0l0
0l1
r0 p1.0
r0 p2.0
$end
#27700
0t3
#28569
0t1
#29917
0t0
#30669
0t2
#31394
1t3
#32110
1w1
#33368
0w1
#34141
1l1
#34833
0l1
#35500
0t3
#36181
1t0
#37344
1w0
#38094
0w0
#38883
1l0
#39651
0l0
#40471
0t0
#41680
1t3
#42450
1w1
#43176
0w1
#43907
1l1
#44722
0l1
#46095
0t3
#80530
1t3
#83683
1w1
#84627
0w1
#86122
1l1
#86914
0l1
#87670
0t3
#100285
1t0
#102937
1w0
#104074
0w0
#105495
1l0
#106322
0l0
#107130
0t0
#120904
1t3
#123361
1w1
#124548
0w1
#126031
1l1
#126907
0l1
#127827
0t3
#160268
1t3
#163926
1w1
#165755
0w1
#166704
1l1
#167534
0l1
#168342
0t3
#200943
1t0
#204246
1w0
#205711
0w0
#206556
1l0
#207328
0l0
#208109
0t0
#209376
1t3
#210043
1w1
#210856
0w1
#211760
1l1
#212494
0l1
#214300
0t3
#241152
1t3
#244707
1w1
#246417
0w1
#247338
1l1
#248188
0l1
#249530
0t3
#281654
1t3
#285945
1w1
#286976
0w1
#287713
1l1
#288457
0l1
#289781
0t3
#300417
1t0
#303707
1w0
#304565
0w0
#305872
1l0
#306641
0l0
#307427
0t0
#320880
1t3
#323322
1w1
#324406
0w1
#325901
1l1
#326821
0l1
#327657
0t3
#360595
1t3
#364001
1w1
#365616
0w1
#366405
1l1
#367169
0l1
#367849
0t3
#400641
1t0
#404068
1w0
#405824
0w0
#406651
1l0
#407579
0l0
#408421
0t0
#409728
1t3
#410540
1w1
#411356
0w1
#412189
1l1
#413563
0l1
#414381
0t3
#440151
1t3
#443399
1w1
#444549
0w1
#446174
1l1
#446985
0l1
#447706
0t3
#480753
1t3
#484029
1w1
#485937
0w1
#486866
1l1
#487648
0l1
#488329
0t3
#500581
1t0
#503140
1w0
#504196
0w0
#505542
1l0
#506344
0l0
#507129
0t0
#520192
1t3
#523139
1w1
#524051
0w1
#525544
1l1
#526372
0l1
#527225
0t3
#561426
1t3
#564877
1w1
#566432
0w1
#567358
1l1
#568181
0l1
#569463
0t3
#601011
1t0
#604640
1w0
#606400
0w0
#607236
1l0
#608068
0l0
#608927
0t0
#610242
1t3
#610967
1w1
#611777
0w1
#612847
1l1
#614142
0l1
#614917
0t3
#640675
1t3
#644153
1w1
#645790
0w1
#646579
1l1
#647256
0l1
#647889
0t3
#681331
1t3
#684512
1w1
#685916
0w1
#686702
1l1
#687578
0l1
#688396
0t3
#700705
1t0
#702490
1w0
#703379
0w0
#704349
1l0
#705697
0l0
#706514
0t0
#720474
1t3
#722671
1w1
#723616
0w1
#724505
1l1
#725839
0l1
#726623
0t3
#760976
1t3
#764619
1w1
#766316
0w1
#767205
1l1
#768052
0l1
#768866
0t3
#800191
1t0
#804346
1w0
#809214
0w0
#810209
1l0
#811113
0l0
#811819
0t0
#813746
1t3
#814401
1w1
#815093
0w1
#816395
1l1
#817430
0l1
#818153
0t3
#840440
1t3
#844310
1w1
#846104
0w1
#847090
1l1
#847959
0l1
#848776
0t3
#883939
1t3
#887666
1w1
#888746
0w1
#890342
1l1
#891204
0l1
#892169
0t3
#900131
1t0
#901895
1w0
#902799
0w0
#903623
1l0
#904429
0l0
#905665
0t0
#920365
1t3
#923677
1w1
#924698
0w1
#926169
1l1
#926983
0l1
#927820
0t3
#961740
1t3
#965781
1w1
#966793
0w1
#967685
1l1
#968529
0l1
#969946
0t3
#1000185
1t0
#1004057
1w0
#1005558
0w0
#1006298
1l0
#1007031
0l0
#1007864
0t0
#1008690
1t3
#1010116
1w1
#1010910
0w1
#1011692
1l1
#1012589
0l1
#1013937
0t3
#1040777
1t3
#1043950
1w1
#1045649
0w1
#1046658
1l1
#1047511
0l1
#1048320
0t3
#1082378
1t3
#1085938
1w1
#1087070
0w1
#1088007
1l1
#1088921
0l1
#1090123
0t3
#1100176
1t0
#1103274
1w0
#1104273
0w0
#1106080
1l0
#1106977
0l0
#1107831
0t0
#1120914
1t3
#1123280
1w1
#1124280
0w1
#1125647
1l1
#1126445
0l1
#1127240
0t3
#1160133
1t3
#1164223
1w1
#1165791
0w1
#1166690
1l1
#1167590
0l1
#1168498
0t3
#1200782
1t0
#1204384
1w0
#1206121
0w0
#1207097
1l0
#1207997
0l0
#1208891
0t0
#1210212
1t3
#1210871
1w1
#1211621
0w1
#1212511
1l1
#1214088
0l1
#1214899
0t3
#1241042
1t3
#1244607
1w1
#1246146
0w1
#1246986
1l1
#1247851
0l1
#1248671
0t3
#1282492
1t3
#1285611
1w1
#1286476
0w1
#1287311
1l1
#1288032
0l1
#1288764
0t3
#1303236
1t0
#1306015
1w0
#1307329
0w0
#1308189
1l0
#1309526
0l0
#1310379
0t0
#1320889
1t3
#1323302
1w1
#1324401
0w1
#1325779
1l1
#1326536
0l1
#1327311
0t3
#1360499
1t3
#1363798
1w1
#1364862
0w1
#1366166
1l1
#1366881
0l1
#1367640
0t3
#1400225
1t0
#1403502
1w0
#1404452
0w0
#1405778
1l0
#1406558
0l0
#1407339
0t0
#1408162
1t3
#1409449
1w1
#1410238
0w1
#1411043
1l1
#1411861
0l1
#1413922
0t3
#1444371
1t3
#1447393
1w1
#1448235
0w1
#1449533
1l1
#1450435
0l1
#1451203
0t3
#1481144
1t3
#1484446
1w1
#1485927
0w1
#1486733
1l1
#1487524
0l1
#1488287
0t3
#1500905
1t0
#1503296
1w0
#1504483
0w0
#1505874
1l0
#1506681
0l0
#1507540
0t0
#1520530
1t3
#1522868
1w1
#1523752
0w1
#1524555
1l1
#1525859
0l1
#1526685
0t3
#1561871
1t3
#1566816
1w1
#1567657
0w1
#1568452
1l1
#1569631
0l1
#1570532
0t3
#1600069
1t0
#1603235
1w0
#1604139
0w0
#1605492
1l0
#1606262
0l0
#1606914
0t0
#1607601
1t3
#1608297
1w1
#1609389
0w1
#1610136
1l1
#1610949
0l1
#1611774
0t3
#1640201
1t3
#1643531
1w1
#1644272
0w1
#1645724
1l1
#1646547
0l1
#1647305
0t3
#1680112
1t3
#1683364
1w1
#1684083
0w1
#1685352
1l1
#1686253
0l1
#1687073
0t3
#1700728
1t0
#1703487
1w0
#1704590
0w0
#1705845
1l0
#1706517
0l0
#1707206
0t0
#1720427
1t3
#1723053
1w1
#1723894
0w1
#1724708
1l1
#1726035
0l1
#1726876
0t3
#1760821
1t3
#1764330
1w1
#1765723
0w1
#1766584
1l1
#1767369
0l1
#1768166
0t3
#1800371
1t0
#1805872
1w0
#1806846
0w0
#1807773
1l0
#1808496
0l0
#1809627
0t0
#1810308
1t3
#1811039
1w1
#1811702
0w1
#1813551
1l1
#1814339
0l1
#1814963
0t3
#1840724
1t3
#1843995
1w1
#1845778
0w1
#1846803
1l1
#1847715
0l1
#1848572
0t3
#1880997
1t3
#1883760
1w1
#1884627
0w1
#1886127
1l1
#1887048
0l1
#1887910
0t3
#1900731
1t0
#1903375
1w0
#1904328
0w0
#1905691
1l0
#1906437
0l0
#1907160
0t0
#1920458
1t3
#1923574
1w1
#1924481
0w1
#1925953
1l1
#1926766
0l1
#1927599
0t3
#1961084
1t3
#1964309
1w1
#1966046
0w1
#1966936
1l1
#1967689
0l1
#1968550
0t3
#2000330
1t0
#2004201
1w0
#2005734
0w0
#2006565
1l0
#2007419
0l0
#2008244
0t0
#2009541
1t3
#2010335
1w1
#2011070
0w1
#2011781
1l1
#2012647
0l1
#2014048
0t3
#2040447
1t3
#2044801
1w1
#2046311
0w1
#2047252
1l1
#2048029
0l1
#2048730
0t3
#2080853
1t3
#2083946
1w1
#2084811
0w1
#2086159
1l1
#2086936
0l1
#2087700
0t3
#2100450
1t0
#2103537
1w0
#2104406
0w0
#2105857
1l0
#2106657
0l0
#2107492
0t0
#2121235
1t3
#2123958
1w1
#2124949
0w1
#2126444
1l1
#2127251
0l1
#2128119
0t3
#2160685
1t3
#2164192
1w1
#2165755
0w1
#2166629
1l1
#2167439
0l1
#2168222
0t3
#2200548
1t0
#2203851
1w0
#2204869
0w0
#2206347
1l0
#2207196
0l0
#2208032
0t0
#2208901
1t3
#2210270
1w1
#2211173
0w1
#2211867
1l1
#2212622
0l1
#2214038
0t3
#2240974
1t3
#2244418
1w1
#2245882
0w1
#2246751
1l1
#2247860
0l1
#2248622
0t3
#2281192
1t3
#2284550
1w1
#2286058
0w1
#2286814
1l1
#2287552
0l1
#2288390
0t3
#2300844
1t0
#2303275
1w0
#2304203
0w0
#2305603
1l0
#2306373
0l0
#2307106
0t0
#2320536
1t3
#2323063
1w1
#2324216
0w1
#2325689
1l1
#2326608
0l1
#2327486
0t3
#2360574
1t3
#2363987
1w1
#2365707
0w1
#2366485
1l1
#2367221
0l1
#2368053
0t3
#2402073
1t0
#2405973
1w0
#2406800
0w0
#2407614
1l0
#2408409
0l0
#2409791
0t0
#2410693
1t3
#2411554
1w1
#2412367
0w1
#2413716
1l1
#2414600
0l1
#2415425
0t3
#2440571
1t3
#2442921
1w1
#2443898
0w1
#2444739
1l1
#2446034
0l1
#2446815
0t3
#2482092
1t3
#2485744
1w1
#2486685
0w1
#2487571
1l1
#2488385
0l1
#2489791
0t3
#2503932
1t0
#2507246
1w0
#2508391
0w0
#2509804
1l0
#2510686
0l0
#2511486
0t0
#2520596
1t3
#2522458
1w1
#2523311
0w1
#2524127
1l1
#2525418
0l1
#2526254
0t3
#2560281
1t3
#2563915
1w1
#2565693
0w1
#2566502
1l1
#2567253
0l1
#2568081
0t3
#2600193
1t0
#2603698
1w0
#2604924
0w0
#2606367
1l0
#2607118
0l0
#2608009
0t0
#2608874
1t3
#2610226
1w1
#2611033
0w1
#2611766
1l1
#2612529
0l1
#2613834
0t3
#2640565
1t3
#2643969
1w1
#2644913
0w1
#2646260
1l1
#2647069
0l1
#2647950
0t3
#2681235
1t3
#2684428
1w1
#2685647
0w1
#2686443
1l1
#2687266
0l1
#2688076
0t3
#2700922
1t0
#2703374
1w0
#2704411
0w0
#2705909
1l0
#2706837
0l0
#2707649
0t0
#2720605
1t3
#2723193
1w1
#2724772
0w1
#2726269
1l1
#2727034
0l1
#2727753
0t3
#2760124
1t3
#2763484
1w1
#2764501
0w1
#2766166
1l1
#2767064
0l1
#2767857
0t3
#2803787
1t0
#2810469
1w0
#2812247
0w0
#2813684
1l0
#2814521
0l0
#2815563
0t0
#2816381
1t3
#2817583
1w1
#2818908
0w1
#2819719
1l1
#2820459
0l1
#2821586
0t3
#2841979
1t3
#2848742
1w1
#2852442
0w1
#2856976
1l1
#2861158
0l1
#2865415
0t3
#2880138
1t3
#2886301
1w1
#2892083
0w1
#2896162
1l1
#2900105
1t0
#2903850
1w0
#2907565
0w0
#2910810
1l0
#2913255
0l0
#2917012
0t0
#2920425
0l1
#2924006
0t3
#2931107
1t3
#2934863
1w1
#2937215
0w1
#2940800
1l1
#2944411
0l1
#2948186
0t3
#2960526
1t3
#2964880
1w1
#2969256
0w1
#2973451
1l1
#2980264
0l1
#2984207
0t3
#3000820
1t0
#3005336
1w0
#3009600
0w0
#3013660
1l0
#3019479
0l0
#3023981
0t0
#3027887
1t3
#3033111
1w1
#3037002
0w1
#3045226
1l1
#3051788
0l1
#3056107
0t3
#3061490
1t3
#3067405
1w1
#3071528
0w1
#3076318
1l1
#3081341
0l1
#3087777
0t3
#3093897
1t3
#3099648
1w1
#3103810
1t0
#3108082
1w0
#3111639
0w0
#3113174
1l0
#3115591
0l0
#3117109
0t0
#3119637
0w1
#3121020
1l1
#3123343
0l1
#3124598
0t3
#3128820
1t3
#3131101
1w1
#3132566
0w1
#3134998
1l1
#3136501
0l1
#3138772
0t3
#3160420
1t3
#3166257
1w1
#3169075
0w1
#3171703
1l1
#3174600
0l1
#3176169
0t3
#3203829
1t0
#3208032
1w0
#3210564
0w0
#3212171
1l0
#3215100
0l0
#3216749
0t0
#3219615
1t3
#3221223
1w1
#3224254
0w1
#3226532
1l1
#3227690
0l1
#3229226
0t3
#3241003
1t3
#3244672
1w1
#3247088
0w1
#3248538
1l1
#3250895
0l1
#3252250
0t3
#3280339
1t3
#3285512
1w1
#3288053
0w1
#3290403
1l1
#3291834
0l1
#3294151
0t3
#3300887
1t0
#3302919
1w0
#3303916
0w0
#3305577
1l0
#3306461
0l0
#3307245
0t0
#3321561
1t3
#3324089
1w1
#3325853
0w1
#3326783
1l1
#3327689
0l1
#3328595
0t3
#3360105
1t3
#3363480
1w1
#3364501
0w1
#3366132
1l1
#3366946
0l1
#3367751
0t3
#3400711
1t0
#3404042
1w0
#3405784
0w0
#3406677
1l0
#3407487
0l0
#3408368
0t0
#3409661
1t3
#3410570
1w1
#3411433
0w1
#3412263
1l1
#3413596
0l1
#3414434
0t3
#3440127
1t3
#3443428
1w1
#3444533
0w1
#3445971
1l1
#3446782
0l1
#3447629
0t3
#3480394
1t3
#3484319
1w1
#3485820
0w1
#3486731
1l1
#3487604
0l1
#3488434
0t3
#3500224
1t0
#3503497
1w0
#3504580
0w0
#3506036
1l0
#3506873
0l0
#3507683
0t0
#3522771
1t3
#3527117
1w1
#3528143
0w1
#3529585
1l1
#3530523
0l1
#3531442
0t3
#3560354
1t3
#3563572
1w1
#3564664
0w1
#3566115
1l1
#3566850
0l1
#3567616
0t3
#3600214
1t0
#3603757
1w0
#3604662
0w0
#3606160
1l0
#3606969
0l0
#3607782
0t0
#3608608
1t3
#3610048
1w1
#3610963
0w1
#3611807
1l1
#3613563
0l1
#3614388
0t3
#3641528
1t3
#3644826
1w1
#3646630
0w1
#3647422
1l1
#3648130
0l1
#3648826
0t3
#3680176
1t3
#3684215
1w1
#3685555
0w1
#3686280
1l1
#3687071
0l1
#3687895
0t3
#3700785
1t0
#3703108
1w0
#3704142
0w0
#3705508
1l0
#3706371
0l0
#3707213
0t0
#3720474
1t3
#3723657
1w1
#3724525
0w1
#3725996
1l1
#3726872
0l1
#3727689
0t3
#3760044
1t3
#3763434
1w1
#3764541
0w1
#3766054
1l1
#3766818
0l1
#3767499
0t3
#3803826
1t0
#3807039
1w0
#3808217
0w0
#3813711
1l0
#3815493
0l0
#3816525
0t0
#3818006
1t3
#3818845
1w1
#3819670
0w1
#3820488
1l1
#3821908
0l1
#3822821
0t3
#3840127
1t3
#3843559
1w1
#3844734
0w1
#3846148
1l1
#3847087
0l1
#3847887
0t3
#3880577
1t3
#3884099
1w1
#3885401
0w1
#3886130
1l1
#3886931
0l1
#3887754
0t3
#3900294
1t0
#3902270
1w0
#3903238
0w0
#3904054
1l0
#3904819
0l0
#3906060
0t0
#3921070
1t3
#3923429
1w1
#3924571
0w1
#3926172
1l1
#3927074
0l1
#3927897
0t3
#3960539
1t3
#3963516
1w1
#3964475
0w1
#3965931
1l1
#3966742
0l1
#3967539
0t3
#4001000
1t0
#4004303
1w0
#4006170
0w0
#4007023
1l0
#4007818
0l0
#4008506
0t0
#4009687
1t3
#4010497
1w1
#4011368
0w1
#4012076
1l1
#4012804
0l1
#4014069
0t3
#4041375
1t3
#4044618
1w1
#4046661
0w1
#4047592
1l1
#4048478
0l1
#4049890
0t3
#4081044
1t3
#4084158
1w1
#4085690
0w1
#4086421
1l1
#4087162
0l1
#4087934
0t3
#4100668
1t0
#4103004
1w0
#4103958
0w0
#4104903
1l0
#4106324
0l0
#4107199
0t0
#4120495
1t3
#4122807
1w1
#4123859
0w1
#4124828
1l1
#4126218
0l1
#4127060
0t3
#4160177
1t3
#4163579
1w1
#4164664
0w1
#4166061
1l1
#4166839
0l1
#4167567
0t3
#4200762
1t0
#4203977
1w0
#4205631
0w0
#4206461
1l0
#4207248
0l0
#4208070
0t0
#4209370
1t3
#4210191
1w1
#4211053
0w1
#4211889
1l1
#4212723
0l1
#4213992
0t3
#4240233
1t3
#4243683
1w1
#4244689
0w1
#4246066
1l1
#4246817
0l1
#4247660
0t3
#4281741
1t3
#4285363
1w1
#4286076
0w1
#4286772
1l1
#4287569
0l1
#4288370
0t3
#4301308
1t0
#4303822
1w0
#4305015
0w0
#4306401
1l0
#4307300
0l0
#4308327
0t0
#4320878
1t3
#4323287
1w1
#4325672
0w1
#4326552
1l1
#4327389
0l1
#4328201
0t3
#4362172
1t3
#4364821
1w1
#4366254
0w1
#4367151
1l1
#4367866
0l1
#4368678
0t3
#4400743
1t0
#4404000
1w0
#4405566
0w0
#4406449
1l0
#4407309
0l0
#4408115
0t0
#4409372
1t3
#4410160
1w1
#4410961
0w1
#4411809
1l1
#4412676
0l1
#4413955
0t3
#4440399
1t3
#4443914
1w1
#4445880
0w1
#4446818
1l1
#4447713
0l1
#4448552
0t3
#4480151
1t3
#4484103
1w1
#4485411
0w1
#4486109
1l1
#4486868
0l1
#4487651
0t3
#4500752
1t0
#4503131
1w0
#4504130
0w0
#4505569
1l0
#4506360
0l0
#4507122
0t0
#4521355
1t3
#4524463
1w1
#4526395
0w1
#4527437
1l1
#4528247
0l1
#4529731
0t3
#4564121
1t3
#4567449
1w1
#4568418
0w1
#4569706
1l1
#4570577
0l1
#4571484
0t3
#4600533
1t0
#4603838
1w0
#4604868
0w0
#4606367
1l0
#4607195
0l0
#4607953
0t0
#4608836
1t3
#4610142
1w1
#4611029
0w1
#4611934
1l1
#4613657
0l1
#4614415
0t3
#4640805
1t3
#4644467
1w1
#4646057
0w1
#4647046
1l1
#4647915
0l1
#4648741
0t3
#4680349
1t3
#4684604
1w1
#4685976
0w1
#4686705
1l1
#4687439
0l1
#4688140
0t3
#4701074
1t0
#4703700
1w0
#4704834
0w0
#4706339
1l0
#4707205
0l0
#4707996
0t0
#4720831
1t3
#4723060
1w1
#4724175
0w1
#4725478
1l1
#4726232
0l1
#4726999
0t3
#4760278
1t3
#4764723
1w1
#4766763
0w1
#4767787
1l1
#4768615
0l1
#4769898
0t3
#4800687
1t0
#4803985
1w0
#4809430
0w0
#4811212
1l0
#4812240
0l0
#4813949
0t0
#4814692
1t3
#4815452
1w1
#4816285
0w1
#4818607
1l1
#4819639
0l1
#4820509
0t3
#4840116
1t3
#4843290
1w1
#4844256
0w1
#4845642
1l1
#4846433
0l1
#4847234
0t3
#4881512
1t3
#4884779
1w1
#4886491
0w1
#4887235
1l1
#4887978
0l1
#4888779
0t3
#4903180
1t0
#4907338
1w0
#4908389
0w0
#4909647
1l0
#4910447
0l0
#4911271
0t0
#4921091
1t3
#4923118
1w1
#4924187
0w1
#4925630
1l1
#4926411
0l1
#4927221
0t3
#4960292
1t3
#4963738
1w1
#4964749
0w1
#4966137
1l1
#4967006
0l1
#4967934
0t3
#5001008
1t0
#5004524
1w0
#5006230
0w0
#5007190
1l0
#5008075
0l0
#5009387
0t0
#5010208
1t3
#5011116
1w1
#5012037
0w1
#5012859
1l1
#5014131
0l1
#5014922
0t3
#5040277
1t3
#5044895
1w1
#5046502
0w1
#5047319
1l1
#5048001
0l1
#5048782
0t3
#5080893
1t3
#5084301
1w1
#5085823
0w1
#5086527
1l1
#5087281
0l1
#5088069
0t3
#5100817
1t0
#5102929
1w0
#5104114
0w0
#5105496
1l0
#5106325
0l0
#5107215
0t0
#5120687
1t3
#5122898
1w1
#5123916
0w1
#5124708
1l1
#5126109
0l1
#5126919
0t3
#5161035
1t3
#5164378
1w1
#5165780
0w1
#5166737
1l1
#5167622
0l1
#5168496
0t3
#5200409
1t0
#5203960
1w0
#5204893
0w0
#5206263
1l0
#5207098
0l0
#5207895
0t0
#5208708
1t3
#5209999
1w1
#5210887
0w1
#5211805
1l1
#5212648
0l1
#5213825
0t3
#5241701
1t3
#5245007
1w1
#5246958
0w1
#5247890
1l1
#5248672
0l1
#5250027
0t3
#5280296
1t3
#5283450
1w1
#5284490
0w1
#5285988
1l1
#5286784
0l1
#5287595
0t3
#5302885
1t0
#5307186
1w0
#5308179
0w0
#5309594
1l0
#5310488
0l0
#5311359
0t0
#5320411
1t3
#5322984
1w1
#5323847
0w1
#5324917
1l1
#5326283
0l1
#5327116
0t3
#5361062
1t3
#5364476
1w1
#5366110
0w1
#5367403
1l1
#5368320
0l1
#5369595
0t3
#5401442
1t0
#5404928
1w0
#5406448
0w0
#5407319
1l0
#5408123
0l0
#5409508
0t0
#5410338
1t3
#5411201
1w1
#5412116
0w1
#5413423
1l1
#5414253
0l1
#5415085
0t3
#5440267
1t3
#5443994
1w1
#5445567
0w1
#5446433
1l1
#5447277
0l1
#5448096
0t3
#5480864
1t3
#5484332
1w1
#5486105
0w1
#5486994
1l1
#5487802
0l1
#5488584
0t3
#5500588
1t0
#5502911
1w0
#5504080
0w0
#5505517
1l0
#5506259
0l0
#5507029
0t0
#5523206
1t3
#5526939
1w1
#5527839
0w1
#5528736
1l1
#5529982
0l1
#5530820
0t3
#5560856
1t3
#5564277
1w1
#5565725
0w1
#5566577
1l1
#5567415
0l1
#5568276
0t3
#5600370
1t0
#5603530
1w0
#5604538
0w0
#5605825
1l0
#5606555
0l0
#5607362
0t0
#5608184
1t3
#5609528
1w1
#5610365
0w1
#5611206
1l1
#5612101
0l1
#5613439
0t3
#5640870
1t3
#5643088
1w1
#5644216
0w1
#5645847
1l1
#5646798
0l1
#5647682
0t3
#5680533
1t3
#5683942
1w1
#5684874
0w1
#5686331
1l1
#5687048
0l1
#5687757
0t3
#5700198
1t0
#5703275
1w0
#5704285
0w0
#5705564
1l0
#5706309
0l0
#5707088
0t0
#5720815
1t3
#5723001
1w1
#5723977
0w1
#5724827
1l1
#5726049
0l1
#5726878
0t3
#5760160
1t3
#5764179
1w1
#5765578
0w1
#5766284
1l1
#5767038
0l1
#5767832
0t3
#5800134
1t0
#5804233
1w0
#5805709
0w0
#5806606
1l0
#5807444
0l0
#5808180
0t0
#5813758
1t3
#5815341
1w1
#5816118
0w1
#5817423
1l1
#5818238
0l1
#5819245
0t3
#5841452
1t3
#5844955
1w1
#5846653
0w1
#5847479
1l1
#5848329
0l1
#5849569
0t3
#5880051
1t3
#5884084
1w1
#5885633
0w1
#5886609
1l1
#5887378
0l1
#5888131
0t3
#5903515
1t0
#5907669
1w0
#5908649
0w0
#5910053
1l0
#5910877
0l0
#5911729
0t0
#5920323
1t3
#5922454
1w1
#5923255
0w1
#5924004
1l1
#5924797
0l1
#5926788
0t3
#5960672
1t3
#5963808
1w1
#5964823
0w1
#5965720
1l1
#5966599
0l1
#5967415
0t3
#6000628
1t0
#6003992
1w0
#6005075
0w0
#6006026
1l0
#6006905
0l0
#6007826
0t0
#6008721
1t3
#6010050
1w1
#6010859
0w1
#6011682
1l1
#6012489
0l1
#6013306
0t3
#6041087
1t3
#6044426
1w1
#6046007
0w1
#6046783
1l1
#6047535
0l1
#6048334
0t3
#6081648
1t3
#6085055
1w1
#6086071
0w1
#6087091
1l1
#6087798
0l1
#6088588
0t3
#6101361
1t0
#6103779
1w0
#6104905
0w0
#6105911
1l0
#6106748
0l0
#6107569
0t0
#6121065
1t3
#6123358
1w1
#6124349
0w1
#6125163
1l1
#6125929
0l1
#6126797
0t3
#6160307
1t3
#6163772
1w1
#6164970
0w1
#6166487
1l1
#6167390
0l1
#6168241
0t3
#6200859
1t0
#6204111
1w0
#6205763
0w0
#6206506
1l0
#6207268
0l0
#6208081
0t0
#6208897
1t3
#6209704
1w1
#6210525
0w1
#6211359
1l1
#6212453
0l1
#6214387
0t3
#6240492
1t3
#6243627
1w1
#6244735
0w1
#6246633
1l1
#6247404
0l1
#6248177
0t3
#6282847
1t3
#6286746
1w1
#6287745
0w1
#6288464
1l1
#6289170
0l1
#6289877
0t3
#6300509
1t0
#6302660
1w0
#6303747
0w0
#6304589
1l0
#6306002
0l0
#6306801
0t0
#6321089
1t3
#6323330
1w1
#6324323
0w1
#6325094
1l1
#6325791
0l1
#6326513
0t3
#6360667
1t3
#6364007
1w1
#6365741
0w1
#6366622
1l1
#6367378
0l1
#6368051
0t3
#6400072
1t0
#6403216
1w0
#6404183
0w0
#6405610
1l0
#6406396
0l0
#6407173
0t0
#6407943
1t3
#6408705
1w1
#6409944
0w1
#6410719
1l1
#6411472
0l1
#6412303
0t3
#6440800
1t3
#6444070
1w1
#6445172
0w1
#6446201
1l1
#6447129
0l1
#6448015
0t3
#6480307
1t3
#6483470
1w1
#6484653
0w1
#6486140
1l1
#6487064
0l1
#6487844
0t3
#6500228
1t0
#6502671
1w0
#6503847
0w0
#6504883
1l0
#6506282
0l0
#6507120
0t0
#6520747
1t3
#6523021
1w1
#6524210
0w1
#6525733
1l1
#6526633
0l1
#6527505
0t3
#6560759
1t3
#6564064
1w1
#6565542
0w1
#6566393
1l1
#6567194
0l1
#6568036
0t3
#6601770
1t0
#6605308
1w0
#6606457
0w0
#6607399
1l0
#6608297
0l0
#6609619
0t0
#6610485
1t3
#6611300
1w1
#6612153
0w1
#6613555
1l1
#6614383
0l1
#6615191
0t3
#6641049
1t3
#6644698
1w1
#6645572
0w1
#6647226
1l1
#6648169
0l1
#6649821
0t3
#6680521
1t3
#6683727
1w1
#6684882
0w1
#6686179
1l1
#6686994
0l1
#6687765
0t3
#6700088
1t0
#6702564
1w0
#6703640
0w0
#6704689
1l0
#6706042
0l0
#6706820
0t0
#6720204
1t3
#6723372
1w1
#6724400
0w1
#6725772
1l1
#6726647
0l1
#6727406
0t3
#6761304
1t3
#6764531
1w1
#6765445
0w1
#6766270
1l1
#6767011
0l1
#6767771
0t3
#6800925
1t0
#6804145
1w0
#6809256
0w0
#6810234
1l0
#6811179
0l0
#6812023
0t0
#6813274
1t3
#6814656
1w1
#6815472
0w1
#6816287
1l1
#6818359
0l1
#6819171
0t3
#6840143
1t3
#6843611
1w1
#6844747
0w1
#6846477
1l1
#6847315
0l1
#6848140
0t3
#6883838
1t3
#6888223
1w1
#6889120
0w1
#6889925
1l1
#6890676
0l1
#6891418
0t3
#6900504
1t0
#6902169
1w0
#6903093
0w0
#6904091
1l0
#6905456
0l0
#6906292
0t0
#6921154
1t3
#6923484
1w1
#6924513
0w1
#6925339
1l1
#6926199
0l1
#6927052
0t3
#6960811
1t3
#6964013
1w1
#6965924
0w1
#6966764
1l1
#6967533
0l1
#6968212
0t3
#7000270
1t0
#7003713
1w0
#7005035
0w0
#7006552
1l0
#7007474
0l0
#7008374
0t0
#7009709
1t3
#7010533
1w1
#7011361
0w1
#7012212
1l1
#7013531
0l1
#7014352
0t3
#7040676
1t3
#7044065
1w1
#7045993
0w1
#7046884
1l1
#7047663
0l1
#7048437
0t3
#7080385
1t3
#7083700
1w1
#7084760
0w1
#7086299
1l1
#7087088
0l1
#7087928
0t3
#7100207
1t0
#7102618
1w0
#7104037
0w0
#7105766
1l0
#7106548
0l0
#7107423
0t0
#7121702
1t3
#7124381
1w1
#7125315
0w1
#7126084
1l1
#7126810
0l1
#7127522
0t3
#7160149
1t3
#7163562
1w1
#7164723
0w1
#7166243
1l1
#7166931
0l1
#7167679
0t3
#7200090
1t0
#7203418
1w0
#7204473
0w0
#7205867
1l0
#7206684
0l0
#7207463
0t0
#7208250
1t3
#7209551
1w1
#7210424
0w1
#7211240
1l1
#7212103
0l1
#7213470
0t3
#7240545
1t3
#7242902
1w1
#7243910
0w1
#7244919
1l1
#7246329
0l1
#7247060
0t3
#7280179
1t3
#7283503
1w1
#7284615
0w1
#7286226
1l1
#7287132
0l1
#7288055
0t3
#7300988
1t0
#7303151
1w0
#7304251
0w0
#7305937
1l0
#7306765
0l0
#7307584
0t0
#7320501
1t3
#7322727
1w1
#7323653
0w1
#7324418
1l1
#7325703
0l1
#7326562
0t3
#7360332
1t3
#7363523
1w1
#7364559
0w1
#7365933
1l1
#7366772
0l1
#7367661
0t3
#7400444
1t0
#7404578
1w0
#7406316
0w0
#7407155
1l0
#7407981
0l0
#7408806
0t0
#7410106
1t3
#7410918
1w1
#7411746
0w1
#7412674
1l1
#7413999
0l1
#7414811
0t3
#7440903
1t3
#7444504
1w1
#7446229
0w1
#7447114
1l1
#7447915
0l1
#7448634
0t3
#7480715
1t3
#7483902
1w1
#7484998
0w1
#7486357
1l1
#7487119
0l1
#7487860
0t3
#7500320
1t0
#7503003
1w0
#7504067
0w0
#7505531
1l0
#7506279
0l0
#7506937
0t0
#7521868
1t3
#7525101
1w1
#7526027
0w1
#7526835
1l1
#7527649
0l1
#7528498
0t3
#7560953
1t3
#7564278
1w1
#7566112
0w1
#7567079
1l1
#7567985
0l1
#7568792
0t3
#7600299
1t0
#7603524
1w0
#7604758
0w0
#7606317
1l0
#7607065
0l0
#7607844
0t0
#7608586
1t3
#7609919
1w1
#7610791
0w1
#7611607
1l1
#7612383
0l1
#7613749
0t3
#7644906
1t3
#7648226
1w1
#7650125
0w1
#7650951
1l1
#7651707
0l1
#7652521
0t3
#7680322
1t3
#7683304
1w1
#7684473
0w1
#7685702
1l1
#7686412
0l1
#7687155
0t3
#7703218
1t0
#7707099
1w0
#7707994
0w0
#7708799
1l0
#7709662
0l0
#7710592
0t0
#7725918
1t3
#7729436
1w1
#7730582
0w1
#7731368
1l1
#7732150
0l1
#7733535
0t3
#7761024
1t3
#7764175
1w1
#7765890
0w1
#7766830
1l1
#7767725
0l1
#7768514
0t3
#7800717
1t0
#7804117
1w0
#7805942
0w0
