UseCase1/binary.c/binaries/bench.vcd
$date
Wed May 17 16:11:16 2017
$end
$version
VCD generator tool version info text.
$end
$comment
This file has been create by polyorb-hi-c runtime of ocarina.
$end
$timescale 1us $end
$scope module tasks $end
$var wire 1 t0 task_0 $end
$var wire 1 t1 task_1 $end
$var wire 1 t2 task_2 $end
$var wire 1 t3 task_3 $end
$upscope $end
$scope module mutexes $end
$var wire 1 w0 awaited_0 $end
$var wire 1 w1 awaited_1 $end
$var wire 1 l0 locked_0 $end
$var wire 1 l1 locked_1 $end
$upscope $end
$scope module ports $end
$var real 1 p1.0 port_1_0 $end
$var real 1 p2.0 port_2_0 $end
$upscope $end
$enddefinitions $end
$dumpvars
0t0
0t1
0t2
0t3
0w0
0w1
0l0
0l1
r0 p1.0
r0 p2.0
$end
#166795
0t3
#167577
0t1
#172113
0t0
#173899
0t2
#174880
1t3
#175729
1w1
#176554
0w1
#178275
1l1
#179136
0l1
#180002
0t3
#180868
1t0
#182984
1w0
#183973
0w0
#184926
1l0
#186126
0l0
#186863
0t0
#187593
1t3
#188312
1w1
#189015
0w1
#190219
1l1
#191015
0l1
#191779
0t3
#192539
1t0
#193742
1w0
#194532
0w0
#195348
1l0
#196136
0l0
#196900
0t0
#198170
1t3
#198876
1w1
#199626
0w1
#200490
1l1
#201830
0l1
#202575
0t3
#203316
1t0
#204047
1w0
#204785
0w0
#205951
1l0
#206690
0l0
#207419
0t0
#208170
1t3
#208905
1w1
#210136
0w1
#210957
1l1
#211700
0l1
#212447
0t3
#215644
1t3
#216400
1w1
#217948
0w1
#218780
1l1
#219587
0l1
#220397
0t3
#223453
1t3
#224180
1w1
#224870
0w1
#226153
1l1
#227011
0l1
#227876
0t3
#240298
1t3
#243549
1w1
#244573
0w1
#246098
1l1
#246988
0l1
#247881
0t3
#280643
1t3
#283886
1w1
#285043
0w1
#286385
1l1
#287047
0l1
#287855
0t3
#301219
1t0
#303761
1w0
#304842
0w0
#306128
1l0
#306837
0l0
#307604
0t0
#320937
1t3
#323384
1w1
#324229
0w1
#325031
1l1
#326618
0l1
#327391
0t3
#360349
1t3
#363897
1w1
#364879
0w1
#366401
1l1
#367241
0l1
#368043
0t3
#401652
1t0
#405100
1w0
#406762
0w0
#407728
1l0
#408637
0l0
#410049
0t0
#410951
1t3
#411782
1w1
#412592
0w1
#414322
1l1
#415107
0l1
#415884
0t3
#442977
1t3
#446176
1w1
#447163
0w1
#447984
1l1
#448665
0l1
#449893
0t3
#481104
1t3
#484541
1w1
#486002
0w1
#486819
1l1
#487669
0l1
#488462
0t3
#500755
1t0
#503340
1w0
#504155
0w0
#504935
1l0
#506264
0l0
#506959
0t0
#521350
1t3
#523597
1w1
#524427
0w1
#525757
1l1
#526580
0l1
#527443
0t3
#560622
1t3
#564089
1w1
#565936
0w1
#566808
1l1
#567756
0l1
#568620
0t3
#600146
1t0
#604194
1w0
#605048
0w0
#606382
1l0
#607247
0l0
#608096
0t0
#608845
1t3
#610043
1w1
#610844
0w1
#611625
1l1
#612372
0l1
#613636
0t3
#640608
1t3
#643935
1w1
#645210
0w1
#646594
1l1
#647314
0l1
#648138
0t3
#682133
1t3
#686193
1w1
#687280
0w1
#688189
1l1
#689014
0l1
#690386
0t3
#700756
1t0
#702769
1w0
#703542
0w0
#704834
1l0
#706150
0l0
#706966
0t0
#720335
1t3
#722874
1w1
#723770
0w1
#724579
1l1
#725854
0l1
#726715
0t3
#764962
1t3
#768244
1w1
#769740
0w1
#770572
1l1
#771482
0l1
#772299
0t3
#803551
1t0
#806631
1w0
#807516
0w0
#808406
1l0
#809762
0l0
#810759
0t0
#811657
1t3
#812502
1w1
#813776
0w1
#814562
1l1
#815379
0l1
#816156
0t3
#840837
1t3
#844283
1w1
#846143
0w1
#847038
1l1
#847876
0l1
#848653
0t3
#882547
1t3
#886107
1w1
#886983
0w1
#887890
1l1
#888739
0l1
#890219
0t3
#900157
1t0
#903235
1w0
#904228
0w0
#904953
1l0
#906185
0l0
#906959
0t0
#920722
1t3
#923087
1w1
#924089
0w1
#924995
1l1
#926394
0l1
#927152
0t3
#961162
1t3
#964603
1w1
#966111
0w1
#966934
1l1
#967748
0l1
#968681
0t3
#1001563
1t0
#1005073
1w0
#1006798
0w0
#1007636
1l0
#1008459
0l0
#1009623
0t0
#1010534
1t3
#1011375
1w1
#1012118
0w1
#1012895
1l1
#1014964
0l1
#1015728
0t3
#1041424
1t3
#1044534
1w1
#1045929
0w1
#1046814
1l1
#1047619
0l1
#1048506
0t3
#1080903
1t3
#1084426
1w1
#1086409
0w1
#1087351
1l1
#1088251
0l1
#1089090
0t3
#1101493
1t0
#1103624
1w0
#1104410
0w0
#1105669
1l0
#1106487
0l0
#1107254
0t0
#1123146
1t3
#1126513
1w1
#1127631
0w1
#1128495
1l1
#1129773
0l1
#1130666
0t3
#1160564
1t3
#1163981
1w1
#1164932
0w1
#1170903
1l1
#1171817
0l1
#1172694
0t3
#1200805
1t0
#1204102
1w0
#1204933
0w0
#1206346
1l0
#1207107
0l0
#1207886
0t0
#1208650
1t3
#1209888
1w1
#1210678
0w1
#1211521
1l1
#1212284
0l1
#1213016
0t3
#1240257
1t3
#1244323
1w1
#1245812
0w1
#1246635
1l1
#1247478
0l1
#1248299
0t3
#1283662
1t3
#1286798
1w1
#1288090
0w1
#1288965
1l1
#1290195
0l1
#1290979
0t3
#1300415
1t0
#1302476
1w0
#1303575
0w0
#1304550
1l0
#1305837
0l0
#1306596
0t0
#1320105
1t3
#1322944
1w1
#1323834
0w1
#1324593
1l1
#1325824
0l1
#1326594
0t3
#1360586
1t3
#1364505
1w1
#1366033
0w1
#1366832
1l1
#1367673
0l1
#1368542
0t3
#1400757
1t0
#1403838
1w0
#1404795
0w0
#1406160
1l0
#1407017
0l0
#1407898
0t0
#1408797
1t3
#1410008
1w1
#1410779
0w1
#1411568
1l1
#1412357
0l1
#1414477
0t3
#1440940
1t3
#1444091
1w1
#1445669
0w1
#1446455
1l1
#1447160
0l1
#1447955
0t3
#1480511
1t3
#1484080
1w1
#1486229
0w1
#1487191
1l1
#1488019
0l1
#1488813
0t3
#1500165
1t0
#1503210
1w0
#1504110
0w0
#1504829
1l0
#1505972
0l0
#1506751
0t0
#1521819
1t3
#1526188
1w1
#1527231
0w1
#1528089
1l1
#1528886
0l1
#1530197
0t3
#1560214
1t3
#1564446
1w1
#1565796
0w1
#1566599
1l1
#1567524
0l1
#1568349
0t3
#1600670
1t0
#1604645
1w0
#1606131
0w0
#1606948
1l0
#1607699
0l0
#1608517
0t0
#1609696
1t3
#1610430
1w1
#1611216
0w1
#1612070
1l1
#1612876
0l1
#1614070
0t3
#1641037
1t3
#1644182
1w1
#1645843
0w1
#1646604
1l1
#1647295
0l1
#1648159
0t3
#1680655
1t3
#1684957
1w1
#1686654
0w1
#1687531
1l1
#1688404
0l1
#1689651
0t3
#1701763
1t0
#1704173
1w0
#1704997
0w0
#1706215
1l0
#1706992
0l0
#1707760
0t0
#1722740
1t3
#1726710
1w1
#1727783
0w1
#1728569
1l1
#1729814
0l1
#1730587
0t3
#1760062
1t3
#1764332
1w1
#1766103
0w1
#1766790
1l1
#1767425
0l1
#1768178
0t3
#1804322
1t0
#1807406
1w0
#1808423
0w0
#1809875
1l0
#1810645
0l0
#1811452
0t0
#1812334
1t3
#1813735
1w1
#1814597
0w1
#1815389
1l1
#1816174
0l1
#1816952
0t3
#1840599
1t3
#1844684
1w1
#1846281
0w1
#1847128
1l1
#1847991
0l1
#1848807
0t3
#1881041
1t3
#1884324
1w1
#1885907
0w1
#1886810
1l1
#1887611
0l1
#1888367
0t3
#1900625
1t0
#1903571
1w0
#1904410
0w0
#1905769
1l0
#1906486
0l0
#1907255
0t0
#1920301
1t3
#1923202
1w1
#1924245
0w1
#1925664
1l1
#1926512
0l1
#1927293
0t3
#1964018
1t3
#1967356
1w1
#1968229
0w1
#1969102
1l1
#1970586
0l1
#1971541
0t3
#2000600
1t0
#2003798
1w0
#2004603
0w0
#2005878
1l0
#2006702
0l0
#2007477
0t0
#2008258
1t3
#2009027
1w1
#2010268
0w1
#2011061
1l1
#2011864
0l1
#2013209
0t3
#2040196
1t3
#2043693
1w1
#2044607
0w1
#2046007
1l1
#2046746
0l1
#2047585
0t3
#2083981
1t3
#2087344
1w1
#2088449
0w1
#2089809
1l1
#2090594
0l1
#2091395
0t3
#2100603
1t0
#2102510
1w0
#2103618
0w0
#2104371
1l0
#2105638
0l0
#2106411
0t0
#2121212
1t3
#2123527
1w1
#2124626
0w1
#2126067
1l1
#2126852
0l1
#2127701
0t3
#2160776
1t3
#2164051
1w1
#2165900
0w1
#2166830
1l1
#2167715
0l1
#2172977
0t3
#2200242
1t0
#2204486
1w0
#2205978
0w0
#2206788
1l0
#2207479
0l0
#2208262
0t0
#2209020
1t3
#2210219
1w1
#2211017
0w1
#2211832
1l1
#2212601
0l1
#2213874
0t3
#2240594
1t3
#2244667
1w1
#2246135
0w1
#2246842
1l1
#2247545
0l1
#2248307
0t3
#2280108
1t3
#2283874
1w1
#2284878
0w1
#2286455
1l1
#2287334
0l1
#2288144
0t3
#2303743
1t0
#2307018
1w0
#2308120
0w0
#2309137
1l0
#2310549
0l0
#2311435
0t0
#2320455
1t3
#2322293
1w1
#2323277
0w1
#2324314
1l1
#2325613
0l1
#2326357
0t3
#2360880
1t3
#2364543
1w1
#2366098
0w1
#2366873
1l1
#2367594
0l1
#2368341
0t3
#2402593
1t0
#2406107
1w0
#2406888
0w0
#2407677
1l0
#2408543
0l0
#2409760
0t0
#2410559
1t3
#2411364
1w1
#2412218
0w1
#2413021
1l1
#2414314
0l1
#2415105
0t3
#2440937
1t3
#2443204
1w1
#2444202
0w1
#2445043
1l1
#2446449
0l1
#2447302
0t3
#2480299
1t3
#2483612
1w1
#2484731
0w1
#2486208
1l1
#2486969
0l1
#2487745
0t3
#2500794
1t0
#2502837
1w0
#2503763
0w0
#2504539
1l0
#2505686
0l0
#2506397
0t0
#2520537
1t3
#2522713
1w1
#2523829
0w1
#2524609
1l1
#2525802
0l1
#2526592
0t3
#2560380
1t3
#2563683
1w1
#2564596
0w1
#2566078
1l1
#2566907
0l1
#2567746
0t3
#2600570
1t0
#2604016
1w0
#2605065
0w0
#2606404
1l0
#2607216
0l0
#2608076
0t0
#2608799
1t3
#2610069
1w1
#2610872
0w1
#2611649
1l1
#2612475
0l1
#2613677
0t3
#2643864
1t3
#2647314
1w1
#2648277
0w1
#2649791
1l1
#2650602
0l1
#2651538
0t3
#2680311
1t3
#2683699
1w1
#2684649
0w1
#2686158
1l1
#2686977
0l1
#2687678
0t3
#2700959
1t0
#2702984
1w0
#2703863
0w0
#2704713
1l0
#2705829
0l0
#2706530
0t0
#2720186
1t3
#2723398
1w1
#2724269
0w1
#2725077
1l1
#2726303
0l1
#2727138
0t3
#2760957
1t3
#2763913
1w1
#2764788
0w1
#2766086
1l1
#2766752
0l1
#2767561
0t3
#2800257
1t0
#2803502
1w0
#2804263
0w0
#2805396
1l0
#2806636
0l0
#2807248
0t0
#2807858
1t3
#2808457
1w1
#2809417
0w1
#2810117
1l1
#2810838
0l1
#2811517
0t3
#2840371
1t3
#2843461
1w1
#2844249
0w1
#2845007
1l1
#2846122
0l1
#2846752
0t3
#2881011
1t3
#2883549
1w1
#2884303
0w1
#2884954
1l1
#2885914
0l1
#2886480
0t3
#2900008
1t0
#2902342
1w0
#2903387
0w0
#2904274
1l0
#2905553
0l0
#2906266
0t0
#2920033
1t3
#2922466
1w1
#2923100
0w1
#2923795
1l1
#2924491
0l1
#2925636
0t3
#2960526
1t3
#2963987
1w1
#2964893
0w1
#2966381
1l1
#2967359
0l1
#2968225
0t3
#3000021
1t0
#3003785
1w0
#3004921
0w0
#3006297
1l0
#3007046
0l0
#3007768
0t0
#3008484
1t3
#3009670
1w1
#3010424
0w1
#3011242
1l1
#3012054
0l1
#3012832
0t3
#3040370
1t3
#3044698
1w1
#3046333
0w1
#3047241
1l1
#3048200
0l1
#3049596
0t3
#3080128
1t3
#3083433
1w1
#3084389
0w1
#3085794
1l1
#3086814
0l1
#3088085
0t3
#3100828
1t0
#3103022
1w0
#3104136
0w0
#3105679
1l0
#3106440
0l0
#3107178
0t0
#3121407
1t3
#3124349
1w1
#3125754
0w1
#3126825
1l1
#3127708
0l1
#3128531
0t3
#3163980
1t3
#3170556
1w1
#3172176
0w1
#3173105
1l1
#3174263
0l1
#3174939
0t3
#3201066
1t0
#3204556
1w0
#3206206
0w0
#3207028
1l0
#3207751
0l0
#3208578
0t0
#3209946
1t3
#3210743
1w1
#3211512
0w1
#3212293
1l1
#3213473
0l1
#3214284
0t3
#3240557
1t3
#3244975
1w1
#3246503
0w1
#3247399
1l1
#3248287
0l1
#3249691
0t3
#3280991
1t3
#3284292
1w1
#3286058
0w1
#3287028
1l1
#3287991
0l1
#3288886
0t3
#3305749
1t0
#3308884
1w0
#3310377
0w0
#3311192
1l0
#3312099
0l0
#3312892
0t0
#3320487
1t3
#3322439
1w1
#3323617
0w1
#3324551
1l1
#3325887
0l1
#3326721
0t3
#3360649
1t3
#3364158
1w1
#3365923
0w1
#3366722
1l1
#3367432
0l1
#3368172
0t3
#3404015
1t0
#3407140
1w0
#3407937
0w0
#3408671
1l0
#3409884
0l0
#3410521
0t0
#3411323
1t3
#3412128
1w1
#3412862
0w1
#3413919
1l1
#3414625
0l1
#3415427
0t3
#3440340
1t3
#3443557
1w1
#3444401
0w1
#3445761
1l1
#3446617
0l1
#3447460
0t3
#3480949
1t3
#3484297
1w1
#3485841
0w1
#3486678
1l1
#3487398
0l1
#3488174
0t3
#3500542
1t0
#3503284
1w0
#3504190
0w0
#3505074
1l0
#3506474
0l0
#3507254
0t0
#3520227
1t3
#3522774
1w1
#3523658
0w1
#3524389
1l1
#3525574
0l1
#3526353
0t3
#3560617
1t3
#3564857
1w1
#3566447
0w1
#3567284
1l1
#3568120
0l1
#3568961
0t3
#3600139
1t0
#3603759
1w0
#3604667
0w0
#3606164
1l0
#3607080
0l0
#3607924
0t0
#3608764
1t3
#3610052
1w1
#3610783
0w1
#3611563
1l1
#3612386
0l1
#3613609
0t3
#3640663
1t3
#3643784
1w1
#3644772
0w1
#3646067
1l1
#3646900
0l1
#3647646
0t3
#3682892
1t3
#3687181
1w1
#3688245
0w1
#3689643
1l1
#3690464
0l1
#3691348
0t3
#3700643
1t0
#3702353
1w0
#3703245
0w0
#3704079
1l0
#3704973
0l0
#3706298
0t0
#3721218
1t3
#3723615
1w1
#3724511
0w1
#3726015
1l1
#3726937
0l1
#3727816
0t3
#3760286
1t3
#3764389
1w1
#3765765
0w1
#3766588
1l1
#3767394
0l1
#3768194
0t3
#3800689
1t0
#3804158
1w0
#3805131
0w0
#3806620
1l0
#3807297
0l0
#3808071
0t0
#3808838
1t3
#3810061
1w1
#3810896
0w1
#3811739
1l1
#3812593
0l1
#3813806
0t3
#3840282
1t3
#3843624
1w1
#3844564
0w1
#3845975
1l1
#3846708
0l1
#3847447
0t3
#3880895
1t3
#3884018
1w1
#3885250
0w1
#3886865
1l1
#3887755
0l1
#3888653
0t3
#3900412
1t0
#3903290
1w0
#3904320
0w0
#3905820
1l0
#3906717
0l0
#3907479
0t0
#3921085
1t3
#3923633
1w1
#3924769
0w1
#3926371
1l1
#3927401
0l1
#3928271
0t3
#3960268
1t3
#3963388
1w1
#3964352
0w1
#3965700
1l1
#3966489
0l1
#3967376
0t3
#4000688
1t0
#4003639
1w0
#4004514
0w0
#4006036
1l0
#4006787
0l0
#4007473
0t0
#4008267
1t3
#4009013
1w1
#4010211
0w1
#4010983
1l1
#4011757
0l1
#4012519
0t3
#4040125
1t3
#4044073
1w1
#4045071
0w1
#4046487
1l1
#4047322
0l1
#4048096
0t3
#4080485
1t3
#4083757
1w1
#4084843
0w1
#4086355
1l1
#4087237
0l1
#4088262
0t3
#4100088
1t0
#4102707
1w0
#4103697
0w0
#4104630
1l0
#4106115
0l0
#4106912
0t0
#4121809
1t3
#4124788
1w1
#4126410
0w1
#4127352
1l1
#4128246
0l1
#4128961
0t3
#4160302
1t3
#4163652
1w1
#4164572
0w1
#4166085
1l1
#4166967
0l1
#4167788
0t3
#4200732
1t0
#4204154
1w0
#4206172
0w0
#4207172
1l0
#4207876
0l0
#4208535
0t0
#4209754
1t3
#4210534
1w1
#4211286
0w1
#4212072
1l1
#4213769
0l1
#4214526
0t3
#4240912
1t3
#4244162
1w1
#4245010
0w1
#4246393
1l1
#4247167
0l1
#4247981
0t3
#4280414
1t3
#4283684
1w1
#4284941
0w1
#4286534
1l1
#4287396
0l1
#4288276
0t3
#4300939
1t0
#4303331
1w0
#4304287
0w0
#4305791
1l0
#4306753
0l0
#4307570
0t0
#4320632
1t3
#4323394
1w1
#4324181
0w1
#4324930
1l1
#4326164
0l1
#4326901
0t3
#4361421
1t3
#4365259
1w1
#4367044
0w1
#4367990
1l1
#4368854
0l1
#4370172
0t3
#4402043
1t0
#4406239
1w0
#4407278
0w0
#4408195
1l0
#4408957
0l0
#4410323
0t0
#4411113
1t3
#4411968
1w1
#4412691
0w1
#4413741
1l1
#4414479
0l1
#4415223
0t3
#4441175
1t3
#4444166
1w1
#4445117
0w1
#4446491
1l1
#4447317
0l1
#4448052
0t3
#4480819
1t3
#4483882
1w1
#4485048
0w1
#4486512
1l1
#4487439
0l1
#4488159
0t3
#4500340
1t0
#4503184
1w0
#4503964
0w0
#4504616
1l0
#4505833
0l0
#4506735
0t0
#4520390
1t3
#4523941
1w1
#4525076
0w1
#4526581
1l1
#4527424
0l1
#4528262
0t3
#4560642
1t3
#4564467
1w1
#4565843
0w1
#4566668
1l1
#4567456
0l1
#4568247
0t3
#4603049
1t0
#4606706
1w0
#4607557
0w0
#4608313
1l0
#4609639
0l0
#4610556
0t0
#4611370
1t3
#4612168
1w1
#4612977
0w1
#4614260
1l1
#4615099
0l1
#4615911
0t3
#4640318
1t3
#4643925
1w1
#4644942
0w1
#4646229
1l1
#4646949
0l1
#4647634
0t3
#4681829
1t3
#4685114
1w1
#4687059
0w1
#4688193
1l1
#4689121
0l1
#4690614
0t3
#4702358
1t0
#4704506
1w0
#4705965
0w0
#4706884
1l0
#4707734
0l0
#4708535
0t0
#4720170
1t3
#4723176
1w1
#4724225
0w1
#4725747
1l1
#4726640
0l1
#4727520
0t3
#4762843
1t3
#4766211
1w1
#4766995
0w1
#4767759
1l1
#4768620
0l1
#4769922
0t3
#4800477
1t0
#4804093
1w0
#4805885
0w0
#4806783
1l0
#4807545
0l0
#4808297
0t0
#4809565
1t3
#4810350
1w1
#4811089
0w1
#4811839
1l1
#4813022
0l1
#4814070
0t3
#4842777
1t3
#4846912
1w1
#4847847
0w1
#4848684
1l1
#4849974
0l1
#4850768
0t3
#4883184
1t3
#4887142
1w1
#4888342
0w1
#4889739
1l1
#4890656
0l1
#4891435
0t3
#4900856
1t0
#4903106
1w0
#4904100
0w0
#4905075
1l0
#4906492
0l0
#4907403
0t0
#4920708
1t3
#4922856
1w1
#4924016
0w1
#4924991
1l1
#4926467
0l1
#4927333
0t3
#4960046
1t3
#4963736
1w1
#4964806
0w1
#4966127
1l1
#4966896
0l1
#4967741
0t3
#5000632
1t0
#5004841
1w0
#5006645
0w0
#5007661
1l0
#5008494
0l0
#5009734
0t0
#5010585
1t3
#5011365
1w1
#5012145
0w1
#5013006
1l1
#5014188
0l1
#5014965
0t3
#5040835
1t3
#5044087
1w1
#5045052
0w1
#5046547
1l1
#5047381
0l1
#5048141
0t3
#5080527
1t3
#5084491
1w1
#5086185
0w1
#5087160
1l1
#5088015
0l1
#5088875
0t3
#5100264
1t0
#5103415
1w0
#5104421
0w0
#5105737
1l0
#5106495
0l0
#5107406
0t0
#5120968
1t3
#5123105
1w1
#5124123
0w1
#5125051
1l1
#5126273
0l1
#5127065
0t3
#5160179
1t3
#5164447
1w1
#5166286
0w1
#5167201
1l1
#5168158
0l1
#5168948
0t3
#5201348
1t0
#5204498
1w0
#5205975
0w0
#5206884
1l0
#5207695
0l0
#5208539
0t0
#5209898
1t3
#5210767
1w1
#5211545
0w1
#5212341
1l1
#5213680
0l1
#5214469
0t3
#5240862
1t3
#5244244
1w1
#5246088
0w1
#5247008
1l1
#5247970
0l1
#5248793
0t3
#5280905
1t3
#5284084
1w1
#5285223
0w1
#5286831
1l1
#5287700
0l1
#5288982
0t3
#5301028
1t0
#5303260
1w0
#5304657
0w0
#5306191
1l0
#5307093
0l0
#5307904
0t0
#5320850
1t3
#5323079
1w1
#5324126
0w1
#5325182
1l1
#5326560
0l1
#5327398
0t3
#5360747
1t3
#5363951
1w1
#5365133
0w1
#5366196
1l1
#5367094
0l1
#5368049
0t3
#5400385
1t0
#5404263
1w0
#5405152
0w0
#5406024
1l0
#5406754
0l0
#5407636
0t0
#5408551
1t3
#5410046
1w1
#5410813
0w1
#5411680
1l1
#5412545
0l1
#5413883
0t3
#5440381
1t3
#5443522
1w1
#5444547
0w1
#5446072
1l1
#5446909
0l1
#5447715
0t3
#5480267
1t3
#5483647
1w1
#5484858
0w1
#5486508
1l1
#5487472
0l1
#5488319
0t3
#5500742
1t0
#5503195
1w0
#5504270
0w0
#5505690
1l0
#5506489
0l0
#5507395
0t0
#5520330
1t3
#5523019
1w1
#5524087
0w1
#5525861
1l1
#5526873
0l1
#5527753
0t3
#5560036
1t3
#5563773
1w1
#5564819
0w1
#5565578
1l1
#5566367
0l1
#5567183
0t3
#5600099
1t0
#5602956
1w0
#5603824
0w0
#5604713
1l0
#5605917
0l0
#5606522
0t0
#5607229
1t3
#5608018
1w1
#5608865
0w1
#5609955
1l1
#5610600
0l1
#5611278
0t3
#5640414
1t3
#5643225
1w1
#5643902
0w1
#5644617
1l1
#5645771
0l1
#5646443
0t3
#5681032
1t3
#5683980
1w1
#5684989
0w1
#5686511
1l1
#5687250
0l1
#5687875
0t3
#5700546
1t0
#5702654
1w0
#5703483
0w0
#5704108
1l0
#5704755
0l0
#5705756
0t0
#5720337
1t3
#5722402
1w1
#5723252
0w1
#5724004
1l1
#5724867
0l1
#5725993
0t3
#5760717
1t3
#5763510
1w1
#5764346
0w1
#5765536
1l1
#5766143
0l1
#5766723
0t3
#5800299
1t0
#5803832
1w0
#5804795
0w0
#5805577
1l0
#5806263
0l0
#5806898
0t0
#5807551
1t3
#5808409
1w1
#5809668
0w1
#5810305
1l1
#5811061
0l1
#5811724
0t3
#5840293
1t3
#5843560
1w1
#5844456
0w1
#5845501
1l1
#5846333
0l1
#5847085
0t3
#5880109
1t3
#5882607
1w1
#5883365
0w1
#5884278
1l1
#5885841
0l1
#5886643
0t3
#5900089
1t0
#5902603
1w0
#5903539
0w0
#5904372
1l0
#5905255
0l0
#5905967
0t0
#5920221
1t3
#5922785
1w1
#5923582
0w1
#5924428
1l1
#5925550
0l1
#5926478
0t3
#5960468
1t3
#5963457
1w1
#5964413
0w1
#5965936
1l1
#5966805
0l1
#5967709
0t3
#6000290
1t0
#6003947
1w0
#6005054
0w0
#6006414
1l0
#6007150
0l0
#6007977
0t0
#6008885
1t3
#6010237
1w1
#6011098
0w1
#6011970
1l1
#6012772
0l1
#6013989
0t3
#6040671
1t3
#6043929
1w1
#6045007
0w1
#6046494
1l1
#6047295
0l1
#6048096
0t3
#6081168
1t3
#6083086
1w1
#6084191
0w1
#6084944
1l1
#6085662
0l1
#6086489
0t3
#6100814
1t0
#6104306
1w0
#6106100
0w0
#6107267
1l0
#6108255
0l0
#6109763
0t0
#6121397
1t3
#6123868
1w1
#6124954
0w1
#6125868
1l1
#6126748
0l1
#6127532
0t3
#6161724
1t3
#6165015
1w1
#6166036
0w1
#6167039
1l1
#6167916
0l1
#6168761
0t3
#6200464
1t0
#6203296
1w0
#6204004
0w0
#6204724
1l0
#6205920
0l0
#6206637
0t0
#6207346
1t3
#6208137
1w1
#6209034
0w1
#6210318
1l1
#6211075
0l1
#6211775
0t3
#6240389
1t3
#6243395
1w1
#6244201
0w1
#6245054
1l1
#6246343
0l1
#6247126
0t3
#6280102
1t3
#6284168
1w1
#6285252
0w1
#6286321
1l1
#6287263
0l1
#6288173
0t3
#6300360
1t0
#6302910
1w0
#6304016
0w0
#6304845
1l0
#6306071
0l0
#6306828
0t0
#6320735
1t3
#6323206
1w1
#6324254
0w1
#6325783
1l1
#6326591
0l1
#6327356
0t3
#6360214
1t3
#6363920
1w1
#6364795
0w1
#6365588
1l1
#6366427
0l1
#6367205
0t3
#6400287
1t0
#6404359
1w0
#6405809
0w0
#6406631
1l0
#6407434
0l0
#6408264
0t0
#6409144
1t3
#6410380
1w1
#6411131
0w1
#6411830
1l1
#6412526
0l1
#6413711
0t3
#6440077
1t3
#6443765
1w1
#6444641
0w1
#6445477
1l1
#6446295
0l1
#6447128
0t3
#6480315
1t3
#6483102
1w1
#6484037
0w1
#6485114
1l1
#6486528
0l1
#6487304
0t3
#6500503
1t0
#6503831
1w0
#6504838
0w0
#6506371
1l0
#6507204
0l0
#6508019
0t0
#6520241
1t3
#6522797
1w1
#6523840
0w1
#6524865
1l1
#6526292
0l1
#6527100
0t3
#6560859
1t3
#6564200
1w1
#6565920
0w1
#6566819
1l1
#6567748
0l1
#6568570
0t3
#6600439
1t0
#6603893
1w0
#6605202
0w0
#6607175
1l0
#6607928
0l0
#6608698
0t0
#6610188
1t3
#6611024
1w1
#6611809
0w1
#6613014
1l1
#6614266
0l1
#6614978
0t3
#6640831
1t3
#6643837
1w1
#6644664
0w1
#6646077
1l1
#6646868
0l1
#6647655
0t3
#6680399
1t3
#6683768
1w1
#6684823
0w1
#6686460
1l1
#6687295
0l1
#6688115
0t3
#6701994
1t0
#6705095
1w0
#6705952
0w0
#6706670
1l0
#6707469
0l0
#6708257
0t0
#6723545
1t3
#6727705
1w1
#6728563
0w1
#6729456
1l1
#6730334
0l1
#6731178
0t3
#6760969
1t3
#6764975
1w1
#6766386
0w1
#6767264
1l1
#6768049
0l1
#6768737
0t3
#6800430
1t0
#6803551
1w0
#6804744
0w0
#6806471
1l0
#6807332
0l0
#6808052
0t0
#6808898
1t3
#6810247
1w1
#6810963
0w1
#6811664
1l1
#6812394
0l1
#6813676
0t3
#6840346
1t3
#6843635
1w1
#6844692
0w1
#6846030
1l1
#6846839
0l1
#6847630
0t3
#6880523
1t3
#6883935
1w1
#6885012
0w1
#6886512
1l1
#6887436
0l1
#6888607
0t3
#6900474
1t0
#6903408
1w0
#6904458
0w0
#6905858
1l0
#6906827
0l0
#6907717
0t0
#6922221
1t3
#6925381
1w1
#6926412
0w1
#6927516
1l1
#6928473
0l1
#6929859
0t3
#6960351
1t3
#6964320
1w1
#6965635
0w1
#6966438
1l1
#6967284
0l1
#6968104
0t3
#7000766
1t0
#7004297
1w0
#7005854
0w0
#7006727
1l0
#7007493
0l0
#7008245
0t0
#7009041
1t3
#7010440
1w1
#7011284
0w1
#7012064
1l1
#7012873
0l1
#7014133
0t3
#7041077
1t3
#7044285
1w1
#7045549
0w1
#7046393
1l1
#7047217
0l1
#7047965
0t3
#7080538
1t3
#7083565
1w1
#7084615
0w1
#7086295
1l1
#7087205
0l1
#7087995
0t3
#7100251
1t0
#7103302
1w0
#7104227
0w0
#7105065
1l0
#7106515
0l0
#7107345
0t0
#7120108
1t3
#7122449
1w1
#7123262
0w1
#7124156
1l1
#7125006
0l1
#7126377
0t3
#7160670
1t3
#7164244
1w1
#7165067
0w1
#7166251
1l1
#7166929
0l1
#7167593
0t3
#7200914
1t0
#7203954
1w0
#7204885
0w0
#7206264
1l0
#7207106
0l0
#7208000
0t0
#7208841
1t3
#7210141
1w1
#7211030
0w1
#7211879
1l1
#7212695
0l1
#7213976
0t3
#7240470
1t3
#7243822
1w1
#7244877
0w1
#7246493
1l1
#7247394
0l1
#7248321
0t3
#7280702
1t3
#7284290
1w1
#7285989
0w1
#7287002
1l1
#7287892
0l1
#7288666
0t3
#7301455
1t0
#7303802
1w0
#7304746
0w0
#7305945
1l0
#7306678
0l0
#7307548
0t0
#7320075
1t3
#7323842
1w1
#7324876
0w1
#7326472
1l1
#7327337
0l1
#7328192
0t3
#7360545
1t3
#7363589
1w1
#7364482
0w1
#7365914
1l1
#7366808
0l1
#7367668
0t3
#7400987
1t0
#7404329
1w0
#7406386
0w0
#7407197
1l0
#7407925
0l0
#7408647
0t0
#7409966
1t3
#7410897
1w1
#7411724
0w1
#7412530
1l1
#7413789
0l1
#7414562
0t3
#7441339
1t3
#7444662
1w1
#7446072
0w1
#7446954
1l1
#7447847
0l1
#7448782
0t3
#7480836
1t3
#7484017
1w1
#7484952
0w1
#7486515
1l1
#7487488
0l1
#7488346
0t3
#7500485
1t0
#7503811
1w0
#7504893
0w0
#7506317
1l0
#7507278
0l0
#7508152
0t0
#7520272
1t3
#7523258
1w1
#7524282
0w1
#7525788
1l1
#7526855
0l1
#7527743
0t3
#7560482
1t3
#7562472
1w1
#7563395
0w1
#7564257
1l1
#7565693
0l1
#7566483
0t3
#7602854
1t0
#7606151
1w0
#7607104
0w0
#7607884
1l0
#7608641
0l0
#7610003
0t0
#7610973
1t3
#7611856
1w1
#7612774
0w1
#7614037
1l1
#7614739
0l1
#7615475
0t3
#7640300
1t3
#7642602
1w1
#7643633
0w1
#7644558
1l1
#7645850
0l1
#7646634
0t3
#7680396
1t3
#7684430
1w1
#7685968
0w1
#7686816
1l1
#7687717
0l1
#7688610
0t3
#7700112
1t0
#7702411
1w0
#7703237
0w0
#7704047
1l0
#7704985
0l0
#7706260
0t0
#7720880
1t3
#7723082
1w1
#7724141
0w1
#7724938
1l1
#7726305
0l1
#7727131
0t3
#7761388
1t3
#7765063
1w1
#7766704
0w1
#7767528
1l1
#7768324
0l1
#7769594
0t3
#7800771
1t0
#7804203
1w0
#7805806
0w0
