taste-python-socket-client/binary.c/binaries/bench.vcd
$date
Wed May 31 11:59:53 2017
$end
$version
VCD generator tool version info text.
$end
$comment
This file has been create by polyorb-hi-c runtime of ocarina.
$end
$timescale 1us $end
$scope module tasks $end
$var wire 1 t0 task_0 $end
$var wire 1 t1 task_1 $end
$var wire 1 t2 task_2 $end
$var wire 1 t3 task_3 $end
$upscope $end
$scope module mutexes $end
$var wire 1 w0 awaited_0 $end
$var wire 1 w1 awaited_1 $end
$var wire 1 l0 locked_0 $end
$var wire 1 l1 locked_1 $end
$upscope $end
$scope module ports $end
$var real 1 p1.0 port_1_0 $end
$var real 1 p2.0 port_2_0 $end
$upscope $end
$enddefinitions $end
$dumpvars
0t0
0t1
0t2
0t3
0w0
0w1
0l0
0l1
r0 p1.0
r0 p2.0
$end
#26671
0t1
#31500
0t2
#32491
0t3
#33328
0t0
#34128
1t3
#35387
1w1
#36229
0w1
#36992
1l1
#37758
0l1
#38534
0t3
#39776
1t0
#40686
1w0
#41444
0w0
#42314
1l0
#43505
0l0
#44287
0t0
#45152
1t3
#45987
1w1
#47242
0w1
#48439
1l1
#49260
0l1
#50115
0t3
#51477
1t0
#52275
1w0
#53068
0w0
#54019
1l0
#55322
0l0
#56192
0t0
#57447
1t0
#58296
1w0
#59856
0w0
#60644
1l0
#62125
0l0
#63451
0t0
#64262
1t0
#65105
1w0
#65941
0w0
#67153
1l0
#67981
0l0
#68737
0t0
#70166
1t0
#71484
1w0
#72258
0w0
#73004
1l0
#73824
0l0
#74571
0t0
#75998
1t0
#76785
1w0
#77815
0w0
#78625
1l0
#81266
1t3
#81961
1w1
#83937
0w1
#84698
1l1
#85454
0l1
#86258
0t3
#87532
0l0
#88482
0t0
#89700
1t0
#90545
1w0
#91973
0w0
#92815
1l0
#94354
0l0
#95866
0t0
#98585
1t0
#100192
1w0
#101136
0w0
#102046
1l0
#103429
0l0
#104226
0t0
#106705
1t0
#108217
1w0
#109117
0w0
#110129
1l0
#111782
0l0
#112813
0t0
#114217
1t0
#115752
1w0
#116780
0w0
#117549
1l0
#118487
0l0
#119744
0t0
#120511
1t3
#121286
1w1
#122073
0w1
#123361
1l1
#124145
0l1
#124909
0t3
#125706
1t0
#126520
1w0
#127901
0w0
#128754
1l0
#130809
0l0
#132100
0t0
#133749
1t0
#134550
1w0
#135844
0w0
#136596
1l0
#137354
0l0
#138163
0t0
#141558
1t0
#143501
1w0
#144492
0w0
#145348
1l0
#146159
0l0
#147386
0t0
#148378
1t0
#149126
1w0
#149873
0w0
#150624
1l0
#151849
0l0
#152714
0t0
#154262
1t0
#155532
1w0
#156273
0w0
#157012
1l0
#157821
0l0
#158562
0t0
#160108
1t3
#160887
1w1
#162260
0w1
#163592
1l1
#164334
0l1
#169127
0t3
#170060
1t0
#174460
1w0
#176031
0w0
#176732
1l0
#178621
0l0
#181018
0t0
#188850
1t0
#190533
1w0
#191915
0w0
#192814
1l0
#193541
0l0
#194447
0t0
#196567
1t0
#197445
1w0
#198264
0w0
#199651
1l0
#200430
1t3
#201184
1w1
#201921
0w1
#203257
1l1
#204072
0l1
#204940
0t3
#205746
0l0
#206519
0t0
#209253
1t0
#210178
1w0
#211651
0w0
#212479
1l0
#213342
0l0
#214007
0t0
#216217
1t0
#217029
1w0
#217864
0w0
#219167
1l0
#219886
0l0
#220597
0t0
#221949
1t0
#223599
1w0
#224413
0w0
#225251
1l0
#226034
0l0
#227336
0t0
#229778
1t0
#230651
1w0
#232192
0w0
#233057
1l0
#233973
0l0
#235177
0t0
#237592
1t0
#238444
1w0
#239744
0w0
#240601
1t3
#241478
1w1
#242314
0w1
#243569
1l1
#244340
0l1
#245037
0t3
#246079
1l0
#247346
0l0
#248236
0t0
#249320
1t0
#250281
1w0
#251496
0w0
#252176
1l0
#252957
0l0
#253693
0t0
#255180
1t0
#256708
1w0
#257789
0w0
#258573
1l0
#259878
0l0
#260739
0t0
#262999
1t0
#264416
1w0
#265161
0w0
#265845
1l0
#267526
0l0
#268300
0t0
#269841
1t0
#270584
1w0
#271813
0w0
#272504
1l0
#273241
0l0
#274153
0t0
#276698
1t0
#277701
1w0
#278536
0w0
#279841
1l0
#280589
1t3
#281441
1w1
#282267
0w1
#283444
1l1
#284149
0l1
#284963
0t3
#285806
0l0
#286679
0t0
#288436
1t0
#289244
1w0
#290088
0w0
#291340
1l0
#292079
0l0
#293086
0t0
#294299
1t0
#295803
1w0
#296649
0w0
#297421
1l0
#298389
0l0
#299628
0t0
#302108
1t0
#303802
1w0
#304738
0w0
#305450
1l0
#306236
0l0
#307494
0t0
#310076
1t0
#311421
1w0
#312220
0w0
#312943
1l0
#313667
0l0
#314449
0t0
#315730
1t0
#316834
1w0
#317638
0w0
#318581
1l0
#319707
0l0
#320395
1t3
#321041
1w1
#321841
0w1
#322620
1l1
#323930
0l1
#324712
0t3
#325438
0t0
#327980
1t0
#329579
1w0
#330390
0w0
#332004
1l0
#332772
0l0
#333665
0t0
#335339
1t0
#336684
1w0
#337596
0w0
#338371
1l0
#340187
0l0
#341032
0t0
#341899
1t0
#343086
1w0
#343859
0w0
#344681
1l0
#345579
0l0
#346366
0t0
#349207
1t0
#350419
1w0
#352039
0w0
#353036
1l0
#353947
0l0
#355258
0t0
#357166
1t0
#358387
1w0
#359761
0w0
#360668
1t3
#362116
1w1
#363564
0w1
#364385
1l1
#365175
0l1
#365935
0t3
#367194
1l0
#367994
0l0
#369105
0t0
#369929
1t0
#371170
1w0
#371917
0w0
#372648
1l0
#373382
0l0
#374121
0t0
#376427
1t0
#377220
1w0
#378069
0w0
#379346
1l0
#380191
0l0
#380989
0t0
#382275
1t0
#383499
1w0
#384264
0w0
#384959
1l0
#385637
0l0
#386503
0t0
#388153
1t0
#388972
1w0
#389738
0w0
#390555
1l0
#391781
0l0
#392591
0t0
#394058
1t0
#395434
1w0
#396313
0w0
#397082
1l0
#398225
0l0
#399497
0t0
#400272
1t3
#401098
1w1
#401856
0w1
#402617
1l1
#403961
0l1
#404758
0t3
#405509
1t0
#406257
1w0
#407490
0w0
#408248
1l0
#408969
0l0
#409938
0t0
#411620
1t0
#412364
1w0
#413183
0w0
#413969
1l0
#415208
0l0
#416066
0t0
#417498
1t0
#418280
1w0
#419498
0w0
#420276
1l0
#421018
0l0
#422131
0t0
#425337
1t0
#426224
1w0
#427700
0w0
#428612
1l0
#429365
0l0
#430126
0t0
#432220
1t0
#433091
1w0
#434150
0w0
#435193
1l0
#435923
0l0
#436715
0t0
#438044
1t0
#439336
1w0
#440083
1t3
#440872
1w1
#441649
0w1
#442412
1l1
#443658
0l1
#444399
0t3
#445200
0w0
#445974
1l0
#447228
0l0
#448010
0t0
#450765
1t0
#452273
1w0
#453050
0w0
#453724
1l0
#454380
0l0
#455599
0t0
#456635
1t0
#457660
1w0
#458458
0w0
#459696
1l0
#460445
0l0
#461733
0t0
#463529
1t0
#464876
1w0
#465644
0w0
#466280
1l0
#467575
0l0
#468344
0t0
#470330
1t0
#471655
1w0
#472471
0w0
#473243
1l0
#474197
0l0
#475459
0t0
#478163
1t0
#479442
1w0
#479969
0w0
#480787
1t3
#481337
1w1
#481970
0w1
#483043
1l1
#483736
0l1
#487014
0t3
#488268
1l0
#488879
0l0
#489474
0t0
#490611
1t0
#491627
1w0
#492229
0w0
#492806
1l0
#493379
0l0
#494028
0t0
#495076
1t0
#496091
1w0
#496682
0w0
#497333
1l0
#498235
0l0
#499266
0t0
#500329
1t0
#500931
1w0
#501562
0w0
#502217
1l0
#503305
0l0
#504002
0t0
#504719
1t0
#505360
1w0
#506015
0w0
#507047
1l0
#507746
0l0
#508352
0t0
#509398
1t0
#510013
1w0
#511401
0w0
#512097
1l0
#512813
0l0
#513560
0t0
#514338
1t0
#515624
1w0
#516380
0w0
#517109
1l0
#517942
0l0
#519235
0t0
#520046
1t3
#520873
1w1
#521667
0w1
#522521
1l1
#523814
0l1
#524604
0t3
#525453
1t0
#526277
1w0
#527692
0w0
#528553
1l0
#529448
0l0
#530238
0t0
#532898
1t0
#533674
1w0
#534541
0w0
#535818
1l0
#536556
0l0
#537304
0t0
#538754
1t0
#540095
1w0
#540843
0w0
#541587
1l0
#542334
0l0
#543644
0t0
#544471
1t0
#545234
1w0
#546028
0w0
#547279
1l0
#548023
0l0
#548727
0t0
#550563
1t0
#552109
1w0
#552773
0w0
#553379
1l0
#554003
0l0
#555201
0t0
#556346
1t0
#557151
1w0
#557929
0w0
#559172
1l0
#559984
0l0
#560966
1t3
#562589
1w1
#564116
0w1
#564994
1l1
#565779
0l1
#566588
0t3
#567902
0t0
#570039
1t0
#571341
1w0
#572144
0w0
#572912
1l0
#573663
0l0
#574485
0t0
#575881
1t0
#576661
1w0
#577580
0w0
#578470
1l0
#579719
0l0
#580458
0t0
#581769
1t0
#582499
1w0
#583903
0w0
#584709
1l0
#585478
0l0
#586281
0t0
#587640
1t0
#588421
1w0
#589164
0w0
#589935
1l0
#591366
0l0
#592343
0t0
#593526
1t0
#594478
1w0
#595939
0w0
#596769
1l0
#597614
0l0
#598457
0t0
#600325
1t3
#601060
1w1
#601806
0w1
#602745
1l1
#604134
0l1
#605041
0t3
#605953
1t0
#607384
1w0
#608128
0w0
#608837
1l0
#609662
0l0
#610495
0t0
#612073
1t0
#612803
1w0
#613599
0w0
#614358
1l0
#615608
0l0
#616352
0t0
#617937
1t0
#619215
1w0
#619971
0w0
#620700
1l0
#621485
0l0
#622265
0t0
#623578
1t0
#624349
1w0
#625160
0w0
#625986
1l0
#627170
0l0
#628145
0t0
#630646
1t0
#631910
1w0
#632718
0w0
#633556
1l0
#634348
0l0
#635576
0t0
#637524
1t0
#638308
1w0
#639604
0w0
#640359
1t3
#641137
1w1
#641887
0w1
#642623
1l1
#643913
0l1
#644785
0t3
#645551
1l0
#646355
0l0
#647621
0t0
#649220
1t0
#650007
1w0
#651218
0w0
#652022
1l0
#652792
0l0
#653629
0t0
#655086
1t0
#656366
1w0
#657100
0w0
#657907
1l0
#659238
0l0
#660013
0t0
#665354
1t0
#666196
1w0
#666905
0w0
#667552
1l0
#668207
0l0
#668821
0t0
#669736
1t0
#671252
1w0
#672522
0w0
#673306
1l0
#674068
0l0
#675400
0t0
#677604
1t0
#678523
1w0
#679786
0w0
#680556
1t3
#681338
1w1
#682149
0w1
#683378
1l1
#684237
0l1
#684890
0t3
#685528
1l0
#686230
0l0
#687629
0t0
#689323
1t0
#690095
1w0
#691386
0w0
#692171
1l0
#692925
0l0
#693784
0t0
#695203
1t0
#696461
1w0
#697299
0w0
#698114
1l0
#699399
0l0
#700144
0t0
#701034
1t0
#701783
1w0
#703210
0w0
#703884
1l0
#704594
0l0
#705450
0t0
#706921
1t0
#708255
1w0
#709051
0w0
#709824
1l0
#710623
0l0
#711967
0t0
#712783
1t0
#713618
1w0
#714365
0w0
#715600
1l0
#716592
0l0
#717383
0t0
#718655
1t0
#720197
1t3
#720963
1w1
#721699
0w1
#722434
1l1
#723775
0l1
#724567
0t3
#725317
1w0
#726124
0w0
#727507
1l0
#728490
0l0
#729283
0t0
#730410
1t0
#731630
1w0
#732396
0w0
#733189
1l0
#733938
0l0
#735183
0t0
#736248
1t0
#736972
1w0
#737753
0w0
#738550
1l0
#739774
0l0
#740595
0t0
#742131
1t0
#743724
1w0
#744593
0w0
#745368
1l0
#746111
0l0
#747328
0t0
#748953
1t0
#749686
1w0
#750311
0w0
#751552
1l0
#752352
0l0
#753118
0t0
#753815
1t0
#754439
1w0
#755551
0w0
#756280
1l0
#756992
0l0
#757818
0t0
#758707
1t0
#759950
1w0
#760745
1t3
#762115
1w1
#763359
0w1
#764190
1l1
#764973
0l1
#765704
0t3
#766416
0w0
#768560
1l0
#770616
0l0
#772151
0t0
#774379
1t0
#776323
1w0
#777273
0w0
#778250
1l0
#779588
0l0
#780387
0t0
#781404
1t0
#782217
1w0
#783481
0w0
#784258
1l0
#785028
0l0
#785839
0t0
#787072
1t0
#788537
1w0
#789317
0w0
#790096
1l0
#791596
0l0
#792381
0t0
#794900
1t0
#796237
1w0
#797044
0w0
#797846
1l0
#798592
0l0
#799895
0t0
#800635
1t3
#801410
1w1
#802221
0w1
#803710
1l1
#804414
0l1
#805038
0t3
#805664
1t0
#806315
1w0
#807812
0w0
#808673
1l0
#809503
0l0
#810300
0t0
#811992
1t0
#812760
1w0
#813531
0w0
#814275
1l0
#815566
0l0
#816452
0t0
#818385
1t0
#819675
1w0
#820447
0w0
#821229
1l0
#822091
0l0
#823465
0t0
#825204
1t0
#826040
1w0
#827419
0w0
#828341
1l0
#829143
0l0
#829932
0t0
#832074
1t0
#832901
1w0
#833705
0w0
#834522
1l0
#835743
0l0
#836485
0t0
#837961
1t0
#839226
1w0
#839995
0w0
#840749
1t3
#841496
1w1
#842364
0w1
#843739
1l1
#844547
0l1
#845316
0t3
#846375
1l0
#847795
0l0
#848555
0t0
#849665
1t0
#850448
1w0
#851791
0w0
#852685
1l0
#853725
0l0
#854759
0t0
#857628
1t0
#859227
1w0
#859963
0w0
#860809
1l0
#862014
0l0
#863303
0t0
#865343
1t0
#866137
1w0
#867454
0w0
#868250
1l0
#869041
0l0
#869850
0t0
#871226
1t0
#872463
1w0
#873218
0w0
#873988
1l0
#875271
0l0
#876053
0t0
#876984
1t0
#877965
1w0
#879261
0w0
#880027
1l0
#880797
1t3
#881564
1w1
#882323
0w1
#883549
1l1
#884282
0l1
#885162
0t3
#885957
0l0
#887240
0t0
#888810
1t0
#889550
1w0
#890310
0w0
#891569
1l0
#892301
0l0
#893093
0t0
#894671
1t0
#896042
1w0
#896796
0w0
#897599
1l0
#898352
0l0
#899589
0t0
#900518
1t0
#901359
1w0
#902095
0w0
#903315
1l0
#904079
0l0
#905132
0t0
#905830
1t0
#906611
1w0
#907841
0w0
#908576
1l0
#909884
0l0
#911329
0t0
#912285
1t0
#913055
1w0
#913853
0w0
#914676
1l0
#915906
0l0
#916712
0t0
#917692
1t0
#918354
1w0
#919501
0w0
#920224
1t3
#920964
1w1
#921758
0w1
#922507
1l1
#923754
0l1
#924467
0t3
#925341
1l0
#926134
0l0
#927351
0t0
#928370
1t0
#929125
1w0
#929824
0w0
#930596
1l0
#931871
0l0
#932623
0t0
#933654
1t0
#934509
1w0
#935547
0w0
#936223
1l0
#936989
0l0
#937791
0t0
#939672
1t0
#941319
1w0
#942086
0w0
#943290
1l0
#944111
0l0
#944903
0t0
#945739
1t0
#946460
1w0
#947800
0w0
#948556
1l0
#949374
0l0
#950147
0t0
#951413
1t0
#952216
1w0
#952907
0w0
#953717
1l0
#954437
0l0
#955428
0t0
#956276
1t0
#957028
1w0
#957838
0w0
#958594
1l0
#959806
0l0
#960538
1t3
#961928
1w1
#963223
0w1
#964121
1l1
#964910
0l1
#965735
0t3
#966478
0t0
#968023
1t0
#968770
1w0
#969495
0w0
#983910
1l0
#985210
0l0
#985963
0t0
#987559
1t0
#988210
1w0
#988893
0w0
#989518
1l0
#990101
0l0
#991287
0t0
#992482
1t0
#993148
1w0
#993838
0w0
#994619
1l0
#995832
0l0
#996458
0t0
#997332
1t0
#997980
1w0
#999162
0w0
#999764
1l0
#1000341
0l0
#1000915
0t0
#1001494
1t3
#1002079
1w1
#1003062
0w1
#1003688
1l1
#1004301
0l1
#1004917
0t3
#1005502
1t0
#1006089
1w0
#1007094
0w0
#1007730
1l0
#1008348
0l0
#1008944
0t0
#1010040
1t0
#1011127
1w0
#1011734
0w0
#1012337
1l0
#1012900
0l0
#1013467
0t0
#1014956
1t0
#1016025
1w0
#1016614
0w0
#1017215
1l0
#1017820
0l0
#1018419
0t0
#1019817
1t0
#1020443
1w0
#1021014
0w0
#1021579
1l0
#1022166
0l0
#1023126
0t0
#1023737
1t0
#1024307
1w0
#1024872
0w0
#1025452
1l0
#1026077
0l0
#1027024
0t0
#1027852
1t0
#1028494
1w0
#1029061
0w0
#1029676
1l0
#1030253
0l0
#1031295
0t0
#1032549
1t0
#1033331
1w0
#1034070
0w0
#1035241
1l0
#1036042
0l0
#1036784
0t0
#1038420
1t0
#1039688
1w0
#1040456
0w0
#1041190
1l0
#1041911
0l0
#1043104
0t0
#1043846
1t3
#1044635
1w1
#1045349
0w1
#1046079
1l1
#1047343
0l1
#1048132
0t3
#1048919
1t0
#1049662
1w0
#1050423
0w0
#1051660
1l0
#1052596
0l0
#1053322
0t0
#1054615
1t0
#1055721
1w0
#1056367
0w0
#1057194
1l0
#1057997
0l0
#1059206
0t0
#1060518
1t0
#1061401
1w0
#1062281
0w0
#1064167
1l0
#1064951
0l0
#1065734
0t0
#1066574
1t0
#1068017
1w0
#1068845
0w0
#1069637
1l0
#1070417
0l0
#1071725
0t0
#1072699
1t0
#1073576
1w0
#1074305
0w0
#1075508
1l0
#1076510
0l0
#1077482
0t0
#1078534
1t0
#1079854
1w0
#1080594
1t3
#1081465
1w1
#1082391
0w1
#1083859
1l1
#1084680
0l1
#1085499
0t3
#1086283
0w0
#1087584
1l0
#1088375
0l0
#1089173
0t0
#1090285
1t0
#1091590
1w0
#1092339
0w0
#1093132
1l0
#1094239
0l0
#1095755
0t0
#1096711
1t0
#1097567
1w0
#1098363
0w0
#1099637
1l0
#1100478
0l0
#1101273
0t0
#1102306
1t0
#1103682
1w0
#1104486
0w0
#1105417
1l0
#1106199
0l0
#1107666
0t0
#1108861
1t0
#1109845
1w0
#1111280
0w0
#1112099
1l0
#1112926
0l0
#1113737
0t0
#1115734
1t0
#1117291
1w0
#1118302
0w0
#1119717
1l0
#1120531
1t3
#1121297
1w1
#1122048
0w1
#1123245
1l1
#1124037
0l1
#1124853
0t3
#1125627
0l0
#1126370
0t0
#1128422
1t0
#1129229
1w0
#1130077
0w0
#1131292
1l0
#1132104
0l0
#1132862
0t0
#1134276
1t0
#1135593
1w0
#1136361
0w0
#1137102
1l0
#1137982
0l0
#1139260
0t0
#1140763
1t0
#1141522
1w0
#1142318
0w0
#1143597
1l0
#1144551
0l0
#1145315
0t0
#1148761
1t0
#1150186
1w0
#1150963
0w0
#1151710
1l0
#1152481
0l0
#1153230
0t0
#1154886
1t0
#1156216
1w0
#1156890
0w0
#1157597
1l0
#1158374
0l0
#1159614
0t0
#1160466
1t3
#1161261
1w1
#1162107
0w1
#1164035
1l1
#1164901
0l1
#1165657
0t3
#1166481
1t0
#1167788
1w0
#1168575
0w0
#1169332
1l0
#1170091
0l0
#1171432
0t0
#1172411
1t0
#1173177
1w0
#1173834
0w0
#1174536
1l0
#1175765
0l0
#1176484
0t0
#1178298
1t0
#1179644
1w0
#1180374
0w0
#1181163
1l0
#1181888
0l0
#1183173
0t0
#1184142
1t0
#1184948
1w0
#1185697
0w0
#1186512
1l0
#1187757
0l0
#1188549
0t0
#1190012
1t0
#1191289
1w0
#1192085
0w0
#1192854
1l0
#1193603
0l0
#1194596
0t0
#1196074
1t0
#1196890
1w0
#1197751
0w0
#1198534
1l0
#1199761
0l0
#1200549
1t3
#1201310
1w1
#1202035
0w1
#1203258
1l1
#1203979
0l1
#1204787
0t3
#1205559
0t0
#1206620
1t0
#1207745
1w0
#1208421
0w0
#1209121
1l0
#1209845
0l0
#1210585
0t0
#1211920
1t0
#1212701
1w0
#1213558
0w0
#1214310
1l0
#1215597
0l0
#1216322
0t0
#1217115
1t0
#1217931
1w0
#1219182
0w0
#1219932
1l0
#1220690
0l0
#1221454
0t0
#1222206
1t0
#1223465
1w0
#1224223
0w0
#1224944
1l0
#1225685
0l0
#1226423
0t0
#1228154
1t0
#1228989
1w0
#1229807
0w0
#1230563
1l0
#1231837
0l0
#1232544
0t0
#1234008
1t0
#1235271
1w0
#1236096
0w0
#1236919
1l0
#1237716
0l0
#1238355
0t0
#1239851
1t0
#1240629
1t3
#1241459
1w1
#1242261
0w1
#1243569
1l1
#1244443
0l1
#1245329
0t3
#1246163
1w0
#1247410
0w0
#1248179
1l0
#1248967
0l0
#1249748
0t0
#1250634
1t0
#1251861
1w0
#1252627
0w0
#1253436
1l0
#1254289
0l0
#1255633
0t0
#1256480
1t0
#1257255
1w0
#1258015
0w0
#1259083
1l0
#1259882
0l0
#1260788
0t0
#1262389
1t0
#1264372
1w0
#1265135
0w0
#1265907
1l0
#1267538
0l0
#1268450
0t0
#1269383
1t0
#1270143
1w0
#1271506
0w0
#1272311
1l0
#1273135
0l0
#1273895
0t0
#1276069
1t0
#1276968
1w0
#1277942
0w0
#1278552
1l0
#1279573
0l0
#1280253
1t3
#1280902
1w1
#1281538
0w1
#1282143
1l1
#1283793
0l1
#1284387
0t3
#1285075
0t0
#1285812
1t0
#1286429
1w0
#1287467
0w0
#1288110
1l0
#1288693
0l0
#1289294
0t0
#1290405
1t0
#1291395
1w0
#1292021
0w0
#1292610
1l0
#1293258
0l0
#1293908
0t0
#1295590
1t0
#1296247
1w0
#1296856
0w0
#1297511
1l0
#1298145
0l0
#1299207
0t0
#1300284
1t0
#1300891
1w0
#1301518
0w0
#1302114
1l0
#1303216
0l0
#1303802
0t0
#1304658
1t0
#1305251
1w0
#1305885
0w0
#1306464
1l0
#1318513
0l0
#1319867
0t0
#1320504
1t3
#1321113
1w1
#1321683
0w1
#1322287
1l1
#1323298
0l1
#1323914
0t3
#1324574
1t0
#1325443
1w0
#1326300
0w0
#1327790
1l0
#1328650
0l0
#1329534
0t0
#1330827
1t0
#1332353
1w0
#1333114
0w0
#1333815
1l0
#1334535
0l0
#1335749
0t0
#1336635
1t0
#1337368
1w0
#1338162
0w0
#1339419
1l0
#1340192
0l0
#1340958
0t0
#1342562
1t0
#1344096
1w0
#1344962
0w0
#1345865
1l0
#1347325
0l0
#1348118
0t0
#1350372
1t0
#1351796
1w0
#1352660
0w0
#1353411
1l0
#1354381
0l0
#1355930
0t0
#1357197
1t0
#1358052
1w0
#1359477
0w0
#1360379
1t3
#1361294
1w1
#1362363
0w1
#1364557
1l1
#1365580
0l1
#1366648
0t3
#1368097
1l0
#1369010
0l0
#1369821
0t0
#1370890
1t0
#1372581
1w0
#1373350
0w0
#1374127
1l0
#1383737
0l0
#1385646
0t0
#1388542
1t0
#1390106
1w0
#1391564
0w0
#1392374
1l0
#1393239
0l0
#1394352
0t0
#1396390
1t0
#1397135
1w0
#1397941
0w0
#1399145
1l0
#1399852
0l0
#1400595
1t3
#1401326
1w1
#1402020
0w1
#1403167
1l1
#1403883
0l1
#1404591
0t3
#1405278
0t0
#1406155
1t0
#1409495
1w0
#1410273
0w0
#1411838
1l0
#1412631
0l0
#1413407
0t0
#1415960
1t0
#1417195
1w0
#1418004
0w0
#1418798
1l0
#1419550
0l0
#1420330
0t0
#1421132
1t0
#1421916
1w0
#1423157
0w0
#1423850
1l0
#1424597
0l0
#1425313
0t0
#1426710
1t0
#1428438
1w0
#1429243
0w0
#1430031
1l0
#1431304
0l0
#1432054
0t0
#1433525
1t0
#1434215
1w0
#1435350
0w0
#1436088
1l0
#1436787
0l0
#1437589
0t0
#1438332
1t0
#1439477
1w0
#1440178
1t3
#1440898
1w1
#1441598
0w1
#1442335
1l1
#1443477
0l1
#1444290
0t3
#1445124
0w0
#1445942
1l0
#1446961
0l0
#1447831
0t0
#1448654
1t0
#1449274
1w0
#1449948
0w0
#1450929
1l0
#1452205
0l0
#1453984
0t0
#1455279
1t0
#1455831
1w0
#1456480
0w0
#1457223
1l0
#1458072
0l0
#1459337
0t0
#1461948
1t0
#1463981
1w0
#1464945
0w0
#1465739
1l0
#1466624
0l0
#1467980
0t0
#1469705
1t0
#1470493
1w0
#1471709
0w0
#1472474
1l0
#1473181
0l0
#1473927
0t0
#1475610
1t0
#1476401
1w0
#1477177
0w0
#1478154
1l0
#1479514
0l0
#1480256
1t3
#1481065
1w1
#1481912
0w1
#1483078
1l1
#1483849
0l1
#1484587
0t3
#1485356
0t0
#1487344
1t0
#1488544
1w0
#1489252
0w0
#1489993
1l0
#1491258
0l0
#1492055
0t0
#1493231
1t0
#1494086
1w0
#1495348
0w0
#1496095
1l0
#1496831
0l0
#1497682
0t0
#1498627
1t0
#1499949
1w0
#1500650
0w0
#1501413
1l0
#1502188
0l0
#1503403
0t0
#1504961
1t0
#1505778
1w0
#1506562
0w0
#1507760
1l0
#1508399
0l0
#1509065
0t0
#1509822
1t0
#1510402
1w0
#1511585
0w0
#1512221
1l0
#1512850
0l0
#1513513
0t0
#1514789
1t0
#1516140
1w0
#1516859
0w0
#1517626
1l0
#1518346
0l0
#1519480
0t0
#1520205
1t3
#1520963
1w1
#1521719
0w1
#1522477
1l1
#1523707
0l1
#1524318
0t3
#1524920
1t0
#1525552
1w0
#1526236
0w0
#1527406
1l0
#1528243
0l0
#1528956
0t0
#1530389
1t0
#1531529
1w0
#1532172
0w0
#1532807
1l0
#1533438
0l0
#1534066
0t0
#1535250
1t0
#1536003
1w0
#1536835
0w0
#1537606
1l0
#1538367
0l0
#1539495
0t0
#1541142
1t0
#1541961
1w0
#1543237
0w0
#1543891
1l0
#1544596
0l0
#1545232
0t0
#1545999
1t0
#1547034
1w0
#1547728
0w0
#1548374
1l0
#1549004
0l0
#1549622
0t0
#1550877
1t0
#1551938
1w0
#1552562
0w0
#1553197
1l0
#1553773
0l0
#1554516
0t0
#1555819
1t0
#1556613
1w0
#1557381
0w0
#1558200
1l0
#1559315
0l0
#1560102
1t3
#1560745
1w1
#1561494
0w1
#1562228
1l1
#1564088
0l1
#1564814
0t3
#1565530
0t0
#1566524
1t0
#1567754
1w0
#1568540
0w0
#1569281
1l0
#1569976
0l0
#1571625
0t0
#1572382
1t0
#1572940
1w0
#1573546
0w0
#1574125
1l0
#1575065
0l0
#1575714
0t0
#1577170
1t0
#1577905
1w0
#1578969
0w0
#1579999
1l0
#1580583
0l0
#1581172
0t0
#1582173
1t0
#1583136
1w0
#1583767
0w0
#1584376
1l0
#1584989
0l0
#1585667
0t0
#1587070
1t0
#1588344
1w0
#1589049
0w0
#1589774
1l0
#1590502
0l0
#1591632
0t0
#1593061
1t0
#1593834
1w0
#1595260
0w0
#1596030
1l0
#1596955
0l0
#1597918
0t0
#1599773
1t0
#1600744
1t3
#1601559
1w1
#1602330
0w1
#1603549
1l1
#1604297
0l1
#1605133
0t3
#1606090
1w0
#1607674
0w0
#1608563
1l0
#1609561
0l0
#1610627
0t0
#1612527
1t0
#1613663
1w0
#1614560
0w0
#1615963
1l0
#1616745
0l0
#1617517
0t0
#1618256
1t0
#1619371
1w0
#1620224
0w0
#1621028
1l0
#1621775
0l0
#1622536
0t0
#1625232
1t0
#1626063
1w0
#1627357
0w0
#1628044
1l0
#1628874
0l0
#1629661
0t0
#1631065
1t0
#1632352
1w0
#1633110
0w0
#1633847
1l0
#1634600
0l0
#1635785
0t0
#1636930
1t0
#1637756
1w0
#1638562
0w0
#1639742
1l0
#1640464
1t3
#1641204
1w1
#1641945
0w1
#1643112
1l1
#1643826
0l1
#1644603
0t3
#1645293
0l0
#1646077
0t0
#1647369
1t0
#1648188
1w0
#1648831
0w0
#1649488
1l0
#1650344
0l0
#1651788
0t0
#1652553
1t0
#1653211
1w0
#1653924
0w0
#1654565
1l0
#1655591
0l0
#1656193
0t0
#1657484
1t0
#1663844
1w0
#1664554
0w0
#1665185
1l0
#1665849
0l0
#1666496
0t0
#1668202
1t0
#1669459
1w0
#1670098
0w0
#1671216
1l0
#1672044
0l0
#1672846
0t0
#1674104
1t0
#1675445
1w0
#1676206
0w0
#1676949
1l0
#1677950
0l0
#1679097
0t0
#1679936
1t0
#1680680
1t3
#1681420
1w1
#1682130
0w1
#1683313
1l1
#1684017
0l1
#1684708
0t3
#1685532
1w0
#1686351
0w0
#1687648
1l0
#1688634
0l0
#1689414
0t0
#1690722
1t0
#1692000
1w0
#1692775
0w0
#1693564
1l0
#1694397
0l0
#1695720
0t0
#1697582
1t0
#1698377
1w0
#1699546
0w0
#1700453
1l0
#1701364
0l0
#1702112
0t0
#1703420
1t0
#1704213
1w0
#1704906
0w0
#1705638
1l0
#1706391
0l0
#1707640
0t0
#1708398
1t0
#1709124
1w0
#1709849
0w0
#1710607
1l0
#1711967
0l0
#1713820
0t0
#1719106
1t0
#1720829
1t3
#1721769
1w1
#1722553
0w1
#1723778
1l1
#1724560
0l1
#1725426
0t3
#1726230
1w0
#1727488
0w0
#1728366
1l0
#1729124
0l0
#1729867
0t0
#1730585
1t0
#1731750
1w0
#1732448
0w0
#1733211
1l0
#1733947
0l0
#1735130
0t0
#1736725
1t0
#1737540
1w0
#1738309
0w0
#1739443
1l0
#1740147
0l0
#1740900
0t0
#1742595
1t0
#1743832
1w0
#1744620
0w0
#1745366
1l0
#1746046
0l0
#1747236
0t0
#1748464
1t0
#1749265
1w0
#1750025
0w0
#1751235
1l0
#1751969
0l0
#1752704
0t0
#1754320
1t0
#1755562
1w0
#1756344
0w0
#1757062
1l0
#1757870
0l0
#1758624
0t0
#1760171
1t3
#1760941
1w1
#1761805
0w1
#1762579
1l1
#1764560
0l1
#1765298
0t3
#1766021
1t0
#1767249
1w0
#1768067
0w0
#1768777
1l0
#1769485
0l0
#1770261
0t0
#1771447
1t0
#1776545
1w0
#1780318
0w0
#1781370
1l0
#1782265
0l0
#1783624
0t0
#1784596
1t0
#1785362
1w0
#1786181
0w0
#1787383
1l0
#1788178
0l0
#1788947
0t0
#1789787
1t0
#1790531
1w0
#1791693
0w0
#1792377
1l0
#1793079
0l0
#1793860
0t0
#1795376
1t0
#1796216
1w0
#1796971
0w0
#1797821
1l0
#1798602
0l0
#1799813
0t0
#1800528
1t3
#1801284
1w1
#1802000
0w1
#1803123
1l1
#1803907
0l1
#1804633
0t3
#1805330
1t0
#1806042
1w0
#1807338
0w0
#1808133
1l0
#1808850
0l0
#1809610
0t0
#1812988
1t0
#1815484
1w0
#1816391
0w0
#1817285
1l0
#1818219
0l0
#1819531
0t0
#1820852
1t0
