taste-python-socket-client/binary.c/binaries/bench.vcd
$date
Tue May 23 14:41:21 2017
$end
$version
VCD generator tool version info text.
$end
$comment
This file has been create by polyorb-hi-c runtime of ocarina.
$end
$timescale 1us $end
$scope module tasks $end
$var wire 1 t0 task_0 $end
$upscope $end
$enddefinitions $end
$dumpvars
0t0
$end
#16640
0t0
#17760
1t0
#19149
0t0
#500063
1t0
#503089
0t0
#1000683
1t0
#1003168
0t0
#1500217
1t0
#1503323
0t0
#2001805
1t0
#2003975
0t0
#2503434
1t0
#2505808
0t0
#3000218
1t0
#3002632
0t0
#3500230
1t0
#3502591
0t0
#4001736
1t0
#4003839
0t0
#4500238
1t0
#4502599
0t0
#5000999
1t0
#5003460
0t0
#5501788
1t0
#5505655
0t0
#6000430
1t0
#6004820
0t0
#6500161
1t0
#6504900
0t0
#7000614
1t0
#7006193
0t0
#7500034
1t0
#7503429
0t0
#8000450
1t0
#8005538
0t0
#8500231
1t0
#8504742
0t0
#9000782
1t0
#9005271
0t0
#9501515
1t0
#9506522
0t0
#10001030
1t0
#10011818
0t0
#10500504
1t0
#10503879
0t0
#11000060
1t0
#11005070
0t0
#11500650
1t0
#11505021
0t0
#12000060
1t0
#12005351
0t0
