taste-python-socket-client/binary.c/binaries/bench.vcd
$date
Wed May 31 12:26:55 2017
$end
$version
VCD generator tool version info text.
$end
$comment
This file has been create by polyorb-hi-c runtime of ocarina.
$end
$timescale 1us $end
$scope module tasks $end
$var wire 1 t0 task_0 $end
$var wire 1 t1 task_1 $end
$var wire 1 t2 task_2 $end
$var wire 1 t3 task_3 $end
$upscope $end
$scope module mutexes $end
$var wire 1 w0 awaited_0 $end
$var wire 1 w1 awaited_1 $end
$var wire 1 l0 locked_0 $end
$var wire 1 l1 locked_1 $end
$upscope $end
$scope module ports $end
$var real 1 p1.0 port_1_0 $end
$var real 1 p2.0 port_2_0 $end
$upscope $end
$enddefinitions $end
$dumpvars
0t0
0t1
0t2
0t3
0w0
0w1
0l0
0l1
r0 p1.0
r0 p2.0
$end
#35652
0t2
#36557
0t0
#37978
0t1
#38890
0t3
#39642
1t0
#40378
1w0
#41139
0w0
#42399
1l0
#43152
0l0
#43910
0t0
#44687
1t3
#45883
1t0
#46617
1w0
#47515
0w0
#48887
1l0
#50875
0l0
#52197
0t0
#54446
1w1
#55346
1t0
#56318
1w0
#57264
0w0
#58478
1l0
#59197
0l0
#60058
0t0
#60902
0w1
#62236
1t0
#63067
1w0
#64093
0w0
#65177
1l0
#66428
0l0
#67124
0t0
#68027
1l1
#68802
1t0
#70241
1w0
#70972
0w0
#71664
1l0
#72507
0l0
#73314
0t0
#74587
0l1
#75329
1t0
#76105
1w0
#76831
0w0
#78112
1l0
#78841
0l0
#79608
0t0
#80410
0t3
#81350
1t0
#82648
1w0
#83375
0w0
#84108
1l0
#84855
0l0
#87244
0t0
#88089
1t3
#88925
1w1
#90206
0w1
#91729
1t0
#92634
1w0
#94001
0w0
#94799
1l0
#95637
0l0
#96440
0t0
#97316
1l1
#98687
0l1
#99546
0t3
#100307
1t0
#101126
1w0
#102365
0w0
#103182
1l0
#103957
0l0
#104710
0t0
#105946
1t3
#106774
1w1
#107513
0w1
#108344
1l1
#109156
0l1
#110427
0t3
#111254
1t0
#112024
1w0
#112778
0w0
#114171
1l0
#115681
0l0
#116452
0t0
#118543
1t0
#119805
1w0
#120653
0w0
#121894
1l0
#122685
0l0
#123435
0t0
#124203
1t3
#125117
1w1
#126706
0w1
#127481
1l1
#128305
0l1
#129242
0t3
#130589
1t0
#131511
1w0
#132355
0w0
#133128
1l0
#134399
0l0
#135285
0t0
#136984
1t0
#138307
1w0
#139307
0w0
#140083
1l0
#140885
0l0
#142165
0t0
#144819
1t0
#146236
1w0
#147106
0w0
#147900
1l0
#148589
0l0
#149793
0t0
#151667
1t0
#152531
1w0
#153312
0w0
#154555
1l0
#155263
0l0
#155932
0t0
#157520
1t0
#158788
1w0
#159653
0w0
#160363
1l0
#161069
0l0
#162296
0t0
#163090
1t3
#175146
1w1
#176049
0w1
#177062
1l1
#178154
0l1
#178812
0t3
#179465
1t0
#180085
1w0
#180863
0w0
#182178
1l0
#182812
0l0
#183408
0t0
#184859
1t0
#186480
1w0
#187139
0w0
#187730
1l0
#188373
0l0
#188967
0t0
#190766
1t0
#191547
1w0
#192319
0w0
#192940
1l0
#193980
0l0
#194596
0t0
#195649
1t0
#197019
1w0
#198126
0w0
#198709
1l0
#199283
0l0
#199909
0t0
#200502
1t3
#201117
1w1
#202282
0w1
#202902
1l1
#203515
0l1
#204122
0t3
#204716
1t0
#205747
1w0
#206325
0w0
#206912
1l0
#207491
0l0
#208081
0t0
#209173
1t0
#210150
1w0
#210726
0w0
#211338
1l0
#211962
0l0
#212725
0t0
#214222
1t0
#214847
1w0
#215448
0w0
#216042
1l0
#216618
0l0
#217227
0t0
#219126
1t0
#219726
1w0
#220393
0w0
#220990
1l0
#222008
0l0
#222629
0t0
#223374
1t0
#223984
1w0
#224581
0w0
#225187
1l0
#226171
0l0
#226743
0t0
#227836
1t0
#228458
1w0
#229066
0w0
#230023
1l0
#230688
0l0
#231358
0t0
#232807
1t0
#233928
1w0
#234521
0w0
#235124
1l0
#235701
0l0
#238257
0t0
#239012
1t0
#239690
1w0
#240409
1t3
#241143
1w1
#242413
0w1
#243146
1l1
#243991
0l1
#244813
0t3
#246097
0w0
#247025
1l0
#247897
0l0
#248687
0t0
#250415
1t0
#251215
1w0
#251979
0w0
#252893
1l0
#254184
0l0
#254964
0t0
#256267
1t0
#257075
1w0
#258333
0w0
#259117
1l0
#259869
0l0
#260650
0t0
#263126
1t0
#264228
1w0
#265155
0w0
#266546
1l0
#267368
0l0
#268177
0t0
#269991
1t0
#271727
1w0
#272508
0w0
#273272
1l0
#274556
0l0
#275346
0t0
#276809
1t0
#278023
1w0
#278770
0w0
#279494
1l0
#280292
1t3
#281185
1w1
#282555
0w1
#283306
1l1
#284205
0l1
#284964
0t3
#287448
0l0
#288186
0t0
#289562
1t0
#291448
1w0
#292313
0w0
#293101
1l0
#294433
0l0
#295236
0t0
#296098
1t0
#296889
1w0
#298295
0w0
#299163
1l0
#299974
0l0
#300724
0t0
#302211
1t0
#302972
1w0
#303728
0w0
#304457
1l0
#305907
0l0
#306735
0t0
#307568
1t0
#308335
1w0
#309117
0w0
#310341
1l0
#311121
0l0
#311913
0t0
#312972
1t0
#314281
1w0
#315136
0w0
#315893
1l0
#316694
0l0
#317990
0t0
#318783
1t0
#319617
1w0
#320391
1t3
#321174
1w1
#322369
0w1
#323019
1l1
#323627
0l1
#324347
0t3
#325263
0w0
#326484
1l0
#327227
0l0
#327997
0t0
#328945
1t0
#330203
1w0
#331105
0w0
#331877
1l0
#332743
0l0
#333959
0t0
#335597
1t0
#336324
1w0
#338264
0w0
#339032
1l0
#339767
0l0
#340490
0t0
#342326
1t0
#343566
1w0
#344314
0w0
#345106
1l0
#346415
0l0
#347329
0t0
#348229
1t0
#349015
1w0
#350343
0w0
#351144
1l0
#351905
0l0
#352744
0t0
#354029
1t0
#354793
1w0
#355611
0w0
#356431
1l0
#357129
0l0
#358340
0t0
#359922
1t0
#360689
1t3
#361888
1w1
#362683
0w1
#363410
1l1
#364357
0l1
#365187
0t3
#366543
1w0
#367257
0w0
#367979
1l0
#368750
0l0
#369998
0t0
#377263
1t0
#379170
1w0
#385630
0w0
#387432
1l0
#388368
0l0
#390895
0t0
#392168
1t0
#393042
1w0
#394544
0w0
#395443
1l0
#396414
0l0
#397339
0t0
#399017
1t0
#399941
1w0
#400891
1t3
#402259
1w1
#403191
0w1
#403929
1l1
#404611
0l1
#405944
0t3
#406730
0w0
#407517
1l0
#408337
0l0
#409201
0t0
#410756
1t0
#411543
1w0
#412372
0w0
#413207
1l0
#414441
0l0
#415238
0t0
#416653
1t0
#417856
1w0
#418673
0w0
#419464
1l0
#420240
0l0
#420964
0t0
#422538
1t0
#423310
1w0
#424019
0w0
#424737
1l0
#425950
0l0
#426691
0t0
#427444
1t0
#428156
1w0
#428986
0w0
#430201
1l0
#431105
0l0
#431908
0t0
#433311
1t0
#434815
1w0
#435568
0w0
#436282
1l0
#436984
0l0
#438192
0t0
#439274
1t0
#440090
1t3
#440879
1w1
#442111
0w1
#442743
1l1
#443467
0l1
#444200
0t3
#444939
1w0
#446193
0w0
#446932
1l0
#447858
0l0
#448697
0t0
#450924
1t0
#451753
1w0
#452554
0w0
#453933
1l0
#454756
0l0
#455681
0t0
#460276
1t0
#461446
1w0
#462143
0w0
#462787
1l0
#463408
0l0
#464255
0t0
#465108
1t0
#466951
1w0
#467840
0w0
#468682
1l0
#469880
0l0
#470538
0t0
#471416
1t0
#472232
1w0
#472989
0w0
#474202
1l0
#474948
0l0
#475711
0t0
#476520
1t0
#477262
1w0
#478443
0w0
#479165
1l0
#479876
0l0
#480888
1t3
#482303
1w1
#483076
0w1
#483814
1l1
#484573
0l1
#486059
0t3
#486824
0t0
#488068
1t0
#488764
1w0
#489933
0w0
#491146
1l0
#491944
0l0
#492677
0t0
#493930
1t0
#494617
1w0
#495417
0w0
#496273
1l0
#497105
0l0
#498502
0t0
#499407
1t0
#500232
1w0
#501237
0w0
#502607
1l0
#503434
0l0
#504171
0t0
#506692
1t0
#508032
1w0
#509004
0w0
#510294
1l0
#511057
0l0
#511977
0t0
#514479
1t0
#515790
1w0
#516619
0w0
#517409
1l0
#518187
0l0
#518928
0t0
#520340
1t3
#521132
1w1
#522482
0w1
#523264
1l1
#524028
0l1
#524777
0t3
#525987
1t0
#526782
1w0
#527562
0w0
#528358
1l0
#529177
0l0
#532154
0t0
#534057
1t0
#535356
1w0
#536120
0w0
#536874
1l0
#538076
0l0
#538833
0t0
#539956
1t0
#540769
1w0
#542446
0w0
#543229
1l0
#543983
0l0
#544733
0t0
#546183
1t0
#546957
1w0
#547857
0w0
#548780
1l0
#550357
0l0
#551119
0t0
#551901
1t0
#552902
1w0
#554212
0w0
#554982
1l0
#555754
0l0
#556554
0t0
#558049
1t0
#558785
1w0
#559573
0w0
#560338
1t3
#561039
1w1
#562326
0w1
#563177
1l1
#564046
0l1
#565058
0t3
#566318
1l0
#567046
0l0
#567805
0t0
#569263
1t0
#570489
1w0
#571135
0w0
#571864
1l0
#572730
0l0
#574174
0t0
#575125
1t0
#575935
1w0
#576810
0w0
#578033
1l0
#578811
0l0
#579590
0t0
#580686
1t0
#582847
1w0
#583522
0w0
#584170
1l0
#584850
0l0
#586068
0t0
#587835
1t0
#588916
1w0
#590219
0w0
#591608
1l0
#592430
0l0
#593140
0t0
#595663
1t0
#596497
1w0
#598472
0w0
#599328
1l0
#600078
1t3
#600854
1w1
#602112
0w1
#602904
1l1
#603789
0l1
#604585
0t3
#605909
0l0
#606565
0t0
#608395
1t0
#609189
1w0
#610485
0w0
#611229
1l0
#612056
0l0
#612925
0t0
#617195
1t0
#618756
1w0
#619488
0w0
#620331
1l0
#621316
0l0
#622627
0t0
#624169
1t0
#624993
1w0
#626268
0w0
#627039
1l0
#627846
0l0
#628773
0t0
#631860
1t0
#632990
1w0
#634542
0w0
#635420
1l0
#636201
0l0
#637161
0t0
#638666
1t0
#639517
1w0
#640478
1t3
#641891
1w1
#642735
0w1
#643549
1l1
#644451
0l1
#646400
0t3
#647303
0w0
#648236
1l0
#649111
0l0
#650766
0t0
#652354
1t0
#653129
1w0
#654428
0w0
#655135
1l0
#655923
0l0
#656685
0t0
#658634
1t0
#659401
1w0
#660132
0w0
#660996
1l0
#662259
0l0
#662833
0t0
#664119
1t0
#664993
1w0
#666521
0w0
#667269
1l0
#667998
0l0
#668758
0t0
#670145
1t0
#670771
1w0
#671448
0w0
#672244
1l0
#673006
0l0
#674262
0t0
#675002
1t0
#675905
1w0
#676720
0w0
#678930
1l0
#679677
0l0
#680550
1t3
#684268
1w1
#685309
0w1
#686495
1l1
#687212
0l1
#687932
0t3
#688646
0t0
#689827
1t0
#691506
1w0
#693578
0w0
#694826
1l0
#695608
0l0
#696375
0t0
#697350
1t0
#698781
1w0
#699576
0w0
#700324
1l0
#702001
0l0
#703166
0t0
#705163
1t0
#706554
1w0
#707302
0w0
#708005
1l0
#709071
0l0
#710392
0t0
#712003
1t0
#712849
1w0
#714182
0w0
#715028
1l0
#715699
0l0
#716552
0t0
#718838
1t0
#719642
1w0
#720450
1t3
#721290
1w1
#722522
0w1
#723341
1l1
#724112
0l1
#725024
0t3
#726488
0w0
#727300
1l0
#728063
0l0
#728887
0t0
#730573
1t0
#731380
1w0
#732196
0w0
#733170
1l0
#734546
0l0
#735307
0t0
#736438
1t0
#737325
1w0
#738552
0w0
#739282
1l0
#740035
0l0
#740947
0t0
#742298
1t0
#743037
1w0
#743781
0w0
#744962
1l0
#746310
0l0
#747174
0t0
#748115
1t0
#748941
1w0
#750192
0w0
#750932
1l0
#751728
0l0
#752564
0t0
#754042
1t0
#754804
1w0
#755556
0w0
#756332
1l0
#757111
0l0
#758484
0t0
#759907
1t0
#760685
1t3
#761900
1w1
#762743
0w1
#763547
1l1
#764541
0l1
#765902
0t3
#766670
1w0
#767513
0w0
#768693
1l0
#770010
0l0
#770776
0t0
#771667
1t0
#772487
1w0
#773290
0w0
#774541
1l0
#775308
0l0
#776100
0t0
#777666
1t0
#778945
1w0
#779723
0w0
#780580
1l0
#781870
0l0
#782675
0t0
#784367
1t0
#785120
1w0
#786433
0w0
#787177
1l0
#788201
0l0
#789027
0t0
#791202
1t0
#791998
1w0
#792838
0w0
#794143
1l0
#794900
0l0
#795606
0t0
#797087
1t0
#798490
1w0
#799269
0w0
#800038
1t3
#800808
1w1
#802046
0w1
#802818
1l1
#803634
0l1
#804546
0t3
#805985
1l0
#806745
0l0
#807527
0t0
#808834
1t0
#810065
1w0
#810865
0w0
#811627
1l0
#812350
0l0
#813442
0t0
#816685
1t0
#818025
1w0
#818844
0w0
#819603
1l0
#820366
0l0
#821374
0t0
#822716
1t0
#823462
1w0
#824208
0w0
#824974
1l0
#826172
0l0
#826920
0t0
#828599
1t0
#829919
1w0
#830732
0w0
#831639
1l0
#832517
0l0
#833807
0t0
#835228
1t0
#835985
1w0
#836744
0w0
#838296
1l0
#839189
0l0
#839931
0t0
#840761
1t3
#841971
1w1
#842729
0w1
#843462
1l1
#844231
0l1
#845073
0t3
#846181
1t0
#846897
1w0
#847716
0w0
#848431
1l0
#849182
0l0
#850730
0t0
#851852
1t0
#852722
1w0
#854258
0w0
#854963
1l0
#855661
0l0
#856486
0t0
#857735
1t0
#859030
1w0
#859886
0w0
#860701
1l0
#862209
0l0
#862967
0t0
#864099
1t0
#865063
1w0
#866403
0w0
#867204
1l0
#868025
0l0
#869044
0t0
#871424
1t0
#872344
1w0
#872986
0w0
#874217
1l0
#874959
0l0
#875855
0t0
#876876
1t0
#878206
1w0
#878982
0w0
#879887
1l0
#880979
1t3
#882370
1w1
#883223
0w1
#884058
1l1
#885096
0l1
#886488
0t3
#887245
0l0
#888025
0t0
#889000
1t0
#891221
1w0
#892069
0w0
#893163
1l0
#894504
0l0
#895284
0t0
#896041
1t0
#896750
1w0
#898190
0w0
#898974
1l0
#899718
0l0
#900646
0t0
#902683
1t0
#903514
1w0
#904329
0w0
#905109
1l0
#906447
0l0
#907245
0t0
#909201
1t0
#910435
1w0
#911174
0w0
#912036
1l0
#912860
0l0
#914139
0t0
#916390
1t0
#917535
1w0
#918846
0w0
#919601
1l0
#920374
1t3
#921193
1w1
#922431
0w1
#923179
1l1
#923933
0l1
#924702
0t3
#926212
0l0
#927000
0t0
#928149
1t0
#928911
1w0
#930222
0w0
#931194
1l0
#932187
0l0
#933044
0t0
#934436
1t0
#935173
1w0
#935909
0w0
#936643
1l0
#937872
0l0
#938624
0t0
#939379
1t0
#940149
1w0
#941013
0w0
#942273
1l0
#943015
0l0
#943740
0t0
#944793
1t0
#950425
1w0
#952386
0w0
#953141
1l0
#954229
0l0
#954848
0t0
#955528
1t0
#956151
1w0
#956726
0w0
#957725
1l0
#958306
0l0
#958917
0t0
#961469
1t3
#963893
1w1
#964614
0w1
#965204
1l1
#966355
0l1
#967201
0t3
#967807
1t0
#968409
1w0
#970252
0w0
#970864
1l0
#972165
0l0
#972904
0t0
#974125
1t0
#974769
1w0
#975431
0w0
#976036
1l0
#976659
0l0
#977740
0t0
#979061
1t0
#979818
1w0
#980656
0w0
#982533
1l0
#983608
0l0
#984337
0t0
#987827
1t0
#989249
1w0
#990768
0w0
#991546
1l0
#992269
0l0
#993124
0t0
#994668
1t0
#995636
1w0
#996388
0w0
#997374
1l0
#998919
0l0
#999673
0t0
#1000463
1t3
#1001954
1w1
#1002911
0w1
#1003667
1l1
#1004416
0l1
#1005192
0t3
#1006617
1t0
#1007373
1w0
#1008111
0w0
#1008859
1l0
#1010059
0l0
#1010849
0t0
#1012392
1t0
#1013217
1w0
#1014541
0w0
#1015313
1l0
#1016078
0l0
#1016852
0t0
#1018372
1t0
#1019147
1w0
#1019879
0w0
#1020625
1l0
#1021884
0l0
#1022785
0t0
#1023999
1t0
#1024838
1w0
#1026067
0w0
#1026812
1l0
#1027548
0l0
#1028326
0t0
#1030161
1t0
#1031572
1w0
#1032413
0w0
#1033206
1l0
#1034535
0l0
#1035279
0t0
#1037744
1t0
#1038969
1w0
#1039716
0w0
#1040510
1t3
#1041268
1w1
#1042616
0w1
#1043353
1l1
#1044132
0l1
#1044936
0t3
#1046523
1l0
#1047240
0l0
#1048030
0t0
#1049495
1t0
#1051047
1w0
#1051863
0w0
#1052754
1l0
#1064110
0l0
#1067290
0t0
#1068519
1t0
#1070267
1w0
#1071120
0w0
#1071814
1l0
#1072675
0l0
#1074037
0t0
#1076840
1t0
#1078617
1w0
#1079332
0w0
#1080073
1t3
#1080910
1w1
#1082157
0w1
#1083230
1l1
#1083999
0l1
#1084781
0t3
#1086011
1l0
#1086870
0l0
#1087650
0t0
#1088563
1t0
#1090021
1w0
#1091505
0w0
#1092306
1l0
#1093120
0l0
#1094348
0t0
#1095226
1t0
#1096551
1w0
#1098009
0w0
#1098849
1l0
#1099613
0l0
#1100632
0t0
#1102275
1t0
#1103037
1w0
#1103786
0w0
#1104581
1l0
#1105795
0l0
#1106697
0t0
#1108145
1t0
#1108900
1w0
#1110141
0w0
#1110906
1l0
#1111654
0l0
#1112713
0t0
#1114982
1t0
#1115917
1w0
#1116712
0w0
#1118083
1l0
#1118857
0l0
#1119720
0t0
#1120554
1t3
#1121755
1w1
#1122510
0w1
#1123228
1l1
#1124039
0l1
#1124829
0t3
#1126107
1t0
#1126877
1w0
#1127602
0w0
#1128386
1l0
#1129147
0l0
#1130560
0t0
#1131728
1t0
#1132617
1w0
#1134643
0w0
#1135964
1l0
#1136723
0l0
#1137831
0t0
#1139466
1t0
#1140330
1w0
#1141125
0w0
#1142524
1l0
#1143304
0l0
#1143995
0t0
#1145272
1t0
#1146933
1w0
#1148042
0w0
#1148812
1l0
#1150211
0l0
#1151052
0t0
#1152115
1t0
#1152925
1w0
#1154376
0w0
#1155308
1l0
#1156117
0l0
#1157059
0t0
#1159274
1t0
#1160093
1t3
#1160858
1w1
#1162216
0w1
#1163011
1l1
#1163917
0l1
#1164832
0t3
#1166171
1w0
#1166921
0w0
#1167653
1l0
#1168403
0l0
#1169153
0t0
#1170700
1t0
#1171646
1w0
#1172489
0w0
#1173287
1l0
#1174522
0l0
#1175331
0t0
#1187817
1t0
#1192709
1w0
#1194426
0w0
#1195188
1l0
#1196081
0l0
#1196858
0t0
#1199142
1t0
#1200396
1t3
#1201296
1w1
#1202786
0w1
#1203580
1l1
#1204590
0l1
#1205890
0t3
#1207000
1w0
#1207843
0w0
#1208630
1l0
#1209877
0l0
#1210664
0t0
#1211426
1t0
#1212342
1w0
#1213119
0w0
#1214437
1l0
#1215189
0l0
#1215898
0t0
#1216717
1t0
#1218168
1w0
#1218980
0w0
#1219779
1l0
#1220613
0l0
#1221927
0t0
#1223635
1t0
#1224430
1w0
#1225189
0w0
#1226443
1l0
#1227174
0l0
#1227986
0t0
#1229378
1t0
#1231028
1w0
#1231843
0w0
#1232664
1l0
#1233952
0l0
#1234792
0t0
#1237205
1t0
#1238456
1w0
#1239195
0w0
#1239891
1l0
#1240747
1t3
#1242010
1w1
#1242755
0w1
#1243528
1l1
#1244289
0l1
#1245046
0t3
#1246330
0l0
#1247455
0t0
#1248932
1t0
#1250134
1w0
#1251048
0w0
#1251813
1l0
#1252620
0l0
#1254033
0t0
#1254859
1t0
#1255612
1w0
#1256360
0w0
#1257127
1l0
#1258359
0l0
#1259227
0t0
#1260803
1t0
#1262032
1w0
#1262791
0w0
#1263590
1l0
#1264539
0l0
#1266058
0t0
#1268500
1t0
#1269827
1w0
#1270607
0w0
#1271481
1l0
#1272310
0l0
#1273110
0t0
#1275351
1t0
#1276136
1w0
#1277011
0w0
#1278626
1l0
#1279450
0l0
#1280235
1t3
#1281219
1w1
#1282497
0w1
#1283239
1l1
#1283990
0l1
#1284765
0t3
#1286029
0t0
#1288287
1t0
#1289067
1w0
#1290695
0w0
#1291628
1l0
#1292409
0l0
#1293180
0t0
#1295888
1t0
#1298112
1w0
#1298876
0w0
#1299646
1l0
#1300419
0l0
#1301153
0t0
#1303693
1t0
#1304421
1w0
#1305145
0w0
#1306400
1l0
#1307137
0l0
#1307864
0t0
#1309573
1t0
#1310832
1w0
#1311896
0w0
#1312775
1l0
#1314143
0l0
#1314959
0t0
#1317390
1t0
#1318800
1w0
#1319636
0w0
#1320453
1t3
#1321233
1w1
#1322607
0w1
#1323519
1l1
#1324303
0l1
#1325103
0t3
#1326399
1l0
#1327200
0l0
#1327997
0t0
#1329097
1t0
#1330441
1w0
#1331377
0w0
#1332372
1l0
#1333157
0l0
#1334402
0t0
#1335341
1t0
#1336080
1w0
#1336806
0w0
#1338006
1l0
#1338745
0l0
#1339548
0t0
#1341003
1t0
#1342229
1w0
#1343014
0w0
#1343771
1l0
#1344532
0l0
#1345289
0t0
#1348721
1t0
#1350135
1w0
#1350897
0w0
#1351655
1l0
#1352461
0l0
#1353972
0t0
#1355532
1t0
#1356330
1w0
#1357117
0w0
#1358343
1l0
#1359182
0l0
#1359926
0t0
#1360712
1t3
#1361891
1w1
#1362676
0w1
#1363554
1l1
#1364534
0l1
#1365923
0t3
#1366759
1t0
#1367527
1w0
#1368282
0w0
#1369106
1l0
#1370481
0l0
#1371249
0t0
#1372169
1t0
#1372952
1w0
#1374218
0w0
#1374995
1l0
#1375736
0l0
#1376640
0t0
#1377967
1t0
#1378805
1w0
#1379578
0w0
#1380403
1l0
#1381346
0l0
#1382949
0t0
#1383912
1t0
#1384656
1w0
#1385839
0w0
#1386616
1l0
#1387418
0l0
#1388250
0t0
#1389769
1t0
#1391807
1w0
#1392732
0w0
#1394670
1l0
#1395539
0l0
#1396426
0t0
#1399532
1t0
#1400493
1t3
#1401873
1w1
#1402665
0w1
#1403424
1l1
#1404264
0l1
#1404992
0t3
#1406276
1w0
#1407046
0w0
#1407779
1l0
#1408527
0l0
#1409226
0t0
#1411268
1t0
#1412191
1w0
#1413026
0w0
#1414514
1l0
#1415294
0l0
#1416048
0t0
#1417386
1t0
#1418667
1w0
#1419444
0w0
#1420195
1l0
#1420941
0l0
#1422159
0t0
#1423105
1t0
#1423847
1w0
#1424662
0w0
#1425836
1l0
#1426595
0l0
#1427350
0t0
#1429138
1t0
#1430405
1w0
#1431275
0w0
#1432062
1l0
#1432846
0l0
#1434088
0t0
#1436706
1t0
#1438056
1w0
#1438901
0w0
#1439673
1l0
#1440426
1t3
#1441190
1w1
#1442456
0w1
#1443195
1l1
#1443939
0l1
#1444697
0t3
#1445928
0l0
#1446706
0t0
#1448386
1t0
#1449173
1w0
#1450439
0w0
#1451199
1l0
#1451933
0l0
#1452931
0t0
#1454275
1t0
#1455034
1w0
#1455813
0w0
#1456589
1l0
#1457827
0l0
#1458713
0t0
#1463169
1t0
#1465154
1w0
#1465988
0w0
#1466728
1l0
#1467376
0l0
#1468025
0t0
#1468932
1t0
#1473802
1w0
#1479903
0w0
#1480650
1t3
#1482038
1w1
#1482644
0w1
#1483287
1l1
#1483997
0l1
#1484817
0t3
#1486220
1l0
#1487134
0l0
#1488289
0t0
#1489344
1t0
#1491183
1w0
#1492056
0w0
#1492885
1l0
#1494150
0l0
#1494908
0t0
#1496327
1t0
#1497401
1w0
#1498951
0w0
#1499947
1l0
#1500701
0l0
#1501956
0t0
#1502882
1t0
#1503626
1w0
#1504330
0w0
#1505034
1l0
#1506268
0l0
#1507044
0t0
#1507811
1t0
#1508518
1w0
#1509217
0w0
#1510417
1l0
#1511234
0l0
#1512002
0t0
#1512925
1t0
#1514260
1w0
#1515062
0w0
#1515799
1l0
#1516554
0l0
#1517966
0t0
#1518814
1t0
#1519513
1w0
#1520236
1t3
#1520952
1w1
#1522125
0w1
#1522914
1l1
#1523638
0l1
#1524347
0t3
#1525127
0w0
#1526302
1l0
#1527034
0l0
#1527804
0t0
#1528666
1t0
#1529825
1w0
#1530659
0w0
#1531485
1l0
#1532233
0l0
#1533028
0t0
#1534676
1t0
#1535409
1w0
#1536105
0w0
#1536870
1l0
#1538075
0l0
#1538837
0t0
#1540446
1t0
#1541176
1w0
#1542371
0w0
#1543094
1l0
#1543791
0l0
#1544521
0t0
#1546213
1t0
#1548335
1w0
#1549156
0w0
#1550241
1l0
#1550911
0l0
#1551628
0t0
#1553063
1t0
#1554270
1w0
#1555016
0w0
#1555793
1l0
#1556577
0l0
#1557833
0t0
#1558907
1t0
#1559682
1w0
#1560564
1t3
#1561792
1w1
#1562609
0w1
#1563354
1l1
#1564211
0l1
#1564989
0t3
#1566364
0w0
#1567148
1l0
#1567989
0l0
#1568762
0t0
#1571643
1t0
#1572437
1w0
#1573202
0w0
#1574406
1l0
#1575178
0l0
#1576015
0t0
#1577539
1t0
#1578769
1w0
#1579598
0w0
#1580397
1l0
#1581289
0l0
#1582676
0t0
#1585324
1t0
#1586601
1w0
#1587465
0w0
#1588222
1l0
#1588987
0l0
#1591108
0t0
#1593404
1t0
#1594679
1w0
#1595452
0w0
#1596191
1l0
#1596969
0l0
#1599195
0t0
#1600057
1t3
#1600821
1w1
#1602110
0w1
#1602865
1l1
#1603618
0l1
#1604371
0t3
#1605187
1t0
#1606424
1w0
#1607198
0w0
#1607943
1l0
#1608688
0l0
#1609983
0t0
#1610850
1t0
#1611605
1w0
#1612433
0w0
#1613211
1l0
#1614553
0l0
#1615325
0t0
#1616887
1t0
#1618106
1w0
#1618869
0w0
#1619663
1l0
#1620622
0l0
#1621821
0t0
#1624466
1t0
#1625818
1w0
#1626526
0w0
#1627265
1l0
#1628034
0l0
#1629055
0t0
#1630604
1t0
#1631510
1w0
#1632374
0w0
#1633121
1l0
#1634514
0l0
#1635300
0t0
#1636163
1t0
#1637034
1w0
#1638433
0w0
#1639304
1l0
#1640440
1t3
#1641247
1w1
#1642575
0w1
#1643365
1l1
#1644126
0l1
#1644896
0t3
#1646195
0l0
#1647193
0t0
#1648055
1t0
#1650448
1w0
#1651692
0w0
#1652482
1l0
#1653225
0l0
#1654551
0t0
#1657693
1t0
#1659518
1w0
#1660613
0w0
#1662204
1l0
#1663047
0l0
#1663958
0t0
#1665538
1t0
#1666862
1w0
#1667665
0w0
#1668459
1l0
#1669255
0l0
#1670668
0t0
#1671705
1t0
#1672548
1w0
#1673781
0w0
#1674530
1l0
#1675510
0l0
#1676295
0t0
#1677222
1t0
#1678460
1w0
#1679196
0w0
#1679936
1l0
#1680819
1t3
#1682181
1w1
#1682955
0w1
#1683722
1l1
#1684482
0l1
#1685265
0t3
#1686493
0l0
#1687280
0t0
#1688989
1t0
#1690986
1w0
#1691741
0w0
#1692614
1l0
#1693866
0l0
#1694616
0t0
#1695810
1t0
#1696585
1w0
#1697918
0w0
#1699651
1l0
#1700438
0l0
#1701200
0t0
#1702516
1t0
#1703367
1w0
#1704122
0w0
#1704893
1l0
#1706094
0l0
#1706859
0t0
#1708539
1t0
#1709768
1w0
#1710742
0w0
#1711522
1l0
#1712312
0l0
#1713111
0t0
#1716440
1t0
#1717266
1w0
#1718583
0w0
#1719318
1l0
#1720061
1t3
#1720872
1w1
#1722127
0w1
#1723057
1l1
#1723831
0l1
#1724623
0t3
#1725836
0l0
#1726619
0t0
#1728092
1t0
#1728958
1w0
#1730223
0w0
#1730996
1l0
#1732089
0l0
#1732870
0t0
#1735916
1t0
#1736704
1w0
#1737942
0w0
#1738733
1l0
#1739475
0l0
#1740358
0t0
#1741783
1t0
#1743084
1w0
#1743878
0w0
#1744637
1l0
#1745941
0l0
#1746686
0t0
#1747609
1t0
#1748462
1w0
#1749884
0w0
#1751152
1l0
#1752269
0l0
#1753162
0t0
#1756432
1t0
#1757223
1w0
#1758624
0w0
#1759367
1l0
#1760113
1t3
#1760877
1w1
#1762151
0w1
#1762902
1l1
#1763945
0l1
#1764853
0t3
#1766143
0l0
#1766902
0t0
#1767945
1t0
#1768713
1w0
#1769956
0w0
#1770713
1l0
#1771492
0l0
#1772291
0t0
#1773064
1t0
#1774315
1w0
#1779011
0w0
#1784708
1l0
#1786195
0l0
#1786941
0t0
#1789220
1t0
#1791234
1w0
#1792186
0w0
#1793286
1l0
#1794523
0l0
#1795347
0t0
#1796941
1t0
#1798428
1w0
#1799064
0w0
#1799967
1l0
#1800721
1t3
#1801837
1w1
#1802584
0w1
#1803441
1l1
#1804195
0l1
#1805100
0t3
#1806337
0l0
#1807107
0t0
#1809574
1t0
#1810973
1w0
#1811719
0w0
#1812581
1l0
#1813739
0l0
#1814538
0t0
#1815368
1t0
#1816116
1w0
#1817212
0w0
#1818549
1l0
#1819376
0l0
#1820126
0t0
#1822286
1t0
#1823714
1w0
#1824474
0w0
#1825213
1l0
#1826533
0l0
#1827297
0t0
#1828399
1t0
#1829192
1w0
#1830420
0w0
#1831273
1l0
#1832180
0l0
#1832924
0t0
#1834995
1t0
#1835778
1w0
#1836553
0w0
#1837985
1l0
#1839625
0l0
#1840657
1t3
#1841984
1w1
#1842756
0w1
#1843510
1l1
#1844286
0l1
#1845041
0t3
#1846312
0t0
#1847694
1t0
#1848509
1w0
#1849343
0w0
#1850644
1l0
#1851460
0l0
#1852303
0t0
#1853579
1t0
#1854784
1w0
#1855495
0w0
#1856243
1l0
#1856968
0l0
#1858299
0t0
#1859479
1t0
#1860270
1w0
#1861087
0w0
#1862384
1l0
#1863135
0l0
#1864133
0t0
#1865351
1t0
#1866637
1w0
#1867421
0w0
#1868181
1l0
#1868924
0l0
#1870174
0t0
#1871178
1t0
#1871951
1w0
#1872758
0w0
#1874000
1l0
#1874800
0l0
#1875783
0t0
#1876580
1t0
#1877800
1w0
#1878654
0w0
#1879560
1l0
#1880313
1t3
#1881134
1w1
#1882356
0w1
#1883075
1l1
#1883811
0l1
#1884585
0t3
#1886029
0l0
#1886803
0t0
#1888794
1t0
#1890914
1w0
#1891948
0w0
#1892936
1l0
#1894366
0l0
#1895246
0t0
#1896603
1t0
#1897979
1w0
#1898932
0w0
