taste-python-socket-client/binary.c/binaries/bench.vcd
$date
Wed May 24 17:20:26 2017
$end
$version
VCD generator tool version info text.
$end
$comment
This file has been create by polyorb-hi-c runtime of ocarina.
$end
$timescale 1us $end
$scope module tasks $end
$var wire 1 t0 task_0 $end
$var wire 1 t1 task_1 $end
$var wire 1 t2 task_2 $end
$upscope $end
$scope module mutexes $end
$var wire 1 w0 awaited_0 $end
$var wire 1 l0 locked_0 $end
$upscope $end
$scope module ports $end
$var real 1 p2.0 port_2_0 $end
$upscope $end
$enddefinitions $end
$dumpvars
0t0
0t1
0t2
0w0
0l0
r0 p2.0
$end
#48698
0t2
#51783
0t1
#53957
0t0
#55882
1t1
#57843
1w0
#59659
0w0
#61618
1l0
#63513
0l0
#65367
0t1
#67300
1t0
#69072
0t0
#71023
1t1
#72813
1w0
#74594
0w0
#76356
1l0
#78323
0l0
#80065
0t1
#81867
1t0
#83674
0t0
#85420
1t1
#88653
1w0
#90716
0w0
#92534
1l0
#94368
0l0
#95995
0t1
#98429
1t0
#100191
0t0
#101862
1t1
#103536
1w0
#105186
0w0
#107603
1l0
#109198
0l0
#110918
0t1
#113430
1t1
#115102
1w0
#116816
0w0
#118531
1l0
#124194
1t0
#125970
0t0
#127478
0l0
#129677
0t1
#133111
1t1
#135081
1w0
#136880
0w0
#138737
1l0
#140431
0l0
#142142
0t1
#144690
1t1
#146531
1w0
#148564
0w0
#150334
1l0
#151996
0l0
#153685
0t1
#156406
1t1
#158178
1w0
#159846
0w0
#161838
1t0
#163616
0t0
#165305
1l0
#167082
0l0
#168763
0t1
#172068
1t1
#173955
1w0
#175706
0w0
#177380
1l0
#179242
0l0
#180913
0t1
#183800
1t1
#185808
1w0
#187445
0w0
#189104
1l0
#190835
0l0
#192531
0t1
#194271
1t1
#196261
1w0
#198009
0w0
#199639
1l0
#201309
1t0
#202942
0t0
#204575
0l0
#206762
0t1
#211219
1t1
#213444
1w0
#215221
0w0
#216873
1l0
#218602
0l0
#220289
0t1
#222974
1t1
#224806
1w0
#226591
0w0
#228350
1l0
#230047
0l0
#231683
0t1
#233692
1t1
#235438
1w0
#237104
0w0
#238818
1l0
#240428
1t0
#242177
0t0
#243904
0l0
#245783
0t1
#248773
1t1
#250625
1w0
#252738
0w0
#254494
1l0
#259223
0l0
#261132
0t1
#263328
1t1
#265171
1w0
#266878
0w0
#268536
1l0
#270335
0l0
#272031
0t1
#273772
1t1
#275584
1w0
#277292
0w0
#279054
1l0
#280783
1t0
#282572
0t0
#284418
0l0
#286126
0t1
#288418
1t1
#290137
1w0
#291829
0w0
#293521
1l0
#295383
0l0
#297040
0t1
#299180
1t1
#301246
1w0
#302901
0w0
#304537
1l0
#306396
0l0
#308262
0t1
#311341
1t1
#313259
1w0
#314992
0w0
#316746
1l0
#318570
0l0
#320255
1t0
#322120
0t0
#323838
0t1
#325579
1t1
#327482
1w0
#329416
0w0
#331094
1l0
#332850
0l0
#334484
0t1
#336332
1t1
#338029
1w0
#339709
0w0
#341408
1l0
#343164
0l0
#344916
0t1
#347203
1t1
#349131
1w0
#350834
0w0
#352667
1l0
#354483
0l0
#356298
0t1
#358848
1t1
#360493
1t0
#362224
0t0
#363866
1w0
#365542
0w0
#367239
1l0
#368924
0l0
#370588
0t1
#372321
1t1
#373959
1w0
#375622
0w0
#377233
1l0
#379095
0l0
#380845
0t1
#384264
1t1
#386005
1w0
#387592
0w0
#389148
1l0
#390832
0l0
#392634
0t1
#395045
1t1
#396785
1w0
#398558
0w0
#400251
1t0
#401910
0t0
#403815
1l0
#405488
0l0
#407570
0t1
#409661
1t1
#411397
1w0
#413234
0w0
#414987
1l0
#416676
0l0
#418412
0t1
#420440
1t1
#422231
1w0
#424008
0w0
#425724
1l0
#427397
0l0
#429324
0t1
#432283
1t1
#434039
1w0
#435787
0w0
#437456
1l0
#439238
0l0
#440958
1t0
#442612
0t0
#444371
0t1
#448937
1t1
#451264
1w0
#453003
0w0
#454821
1l0
#456708
0l0
#463105
0t1
#465418
1t1
#467351
1w0
#469215
0w0
#471057
1l0
#472858
0l0
#474726
0t1
#478134
1t1
#480198
1t0
#482034
0t0
#483944
1w0
#485850
0w0
#487697
1l0
#489460
0l0
#491265
0t1
#493767
1t1
#495621
1w0
#497402
0w0
#499170
1l0
#502852
0l0
#504714
0t1
#507442
1t1
#509493
1w0
#511591
0w0
#513511
1l0
#515358
0l0
#517110
0t1
#519164
1t1
#520977
1t0
#522736
0t0
#524476
1w0
#526256
0w0
#528045
1l0
#529930
0l0
#531702
0t1
#533826
1t1
#535557
1w0
#537415
0w0
#539206
1l0
#540956
0l0
#542668
0t1
#545693
1t1
#547562
1w0
#549304
0w0
#551085
1l0
#552735
0l0
#554491
0t1
#556269
1t1
#558015
1w0
#559674
0w0
#561445
1t0
#563262
0t0
#565027
1l0
#566753
0l0
#568408
0t1
#571102
1t1
#572850
1w0
#574655
0w0
#576537
1l0
#578282
0l0
#580071
0t1
#583802
1t1
#585626
1w0
#587415
0w0
#589016
1l0
#590688
0l0
#592357
0t1
#594638
1t1
#596365
1w0
#598305
0w0
#600309
1l0
#601987
1t0
#603611
0t0
#605241
0l0
#607681
0t1
#610210
1t1
#611902
1w0
#613619
0w0
#615355
1l0
#616993
0l0
#618669
0t1
#621932
1t1
#623579
1w0
#625306
0w0
#627063
1l0
#628872
0l0
#630546
0t1
#632698
1t1
#634477
1w0
#636170
0w0
#637997
1l0
#639646
0l0
#641290
1t0
#642983
0t0
#644688
0t1
#647356
1t1
#649753
1w0
#651443
0w0
#653079
1l0
#654781
0l0
#656796
0t1
#658673
1t1
#660398
1w0
#662268
0w0
#663996
1l0
#665651
0l0
#667320
0t1
#669853
1t1
#672658
1w0
#674724
0w0
#676411
1l0
#678282
0l0
#680753
1t0
#682684
0t0
#684282
0t1
#686592
1t1
#688592
1w0
#690575
0w0
#692272
1l0
#694070
0l0
#696658
0t1
#699168
1t1
#700981
1w0
#702754
0w0
#704667
1l0
#706709
0l0
#708410
0t1
#710910
1t1
#713498
1w0
#715235
0w0
#716923
1l0
#718597
0l0
#720993
1t0
#722751
0t0
#724406
0t1
#726560
1t1
#728444
1w0
#730261
0w0
#732045
1l0
#733741
0l0
#735387
0t1
#737278
1t1
#739048
1w0
#740826
0w0
#742490
1l0
#744443
0l0
#746173
0t1
#748044
1t1
#749942
1w0
#752446
0w0
#754229
1l0
#756226
0l0
#757894
0t1
#760290
1t1
#768443
1t0
#770428
0t0
#772414
1w0
#774249
0w0
#776202
1l0
#778189
0l0
#780002
0t1
#782259
1t1
#784381
1w0
#786163
0w0
#788437
1l0
#790433
0l0
#792363
0t1
#796121
1t1
#797882
1w0
#799799
0w0
#802136
1t0
#803883
0t0
#805589
1l0
#807950
0l0
#809791
0t1
#813562
1t1
#816198
1w0
#817990
0w0
#819813
1l0
#821578
0l0
#823265
0t1
#825558
1t1
#827321
1w0
#829130
0w0
#830876
1l0
#832723
0l0
#834443
0t1
#837032
1t1
#839066
1w0
#840862
1t0
#842631
0t0
#844412
0w0
#846322
1l0
#848065
0l0
#850100
0t1
#852438
1t1
#854200
1w0
#856285
0w0
#858093
1l0
#859844
0l0
#861839
0t1
#863849
1t1
#865577
1w0
#867369
0w0
#869324
1l0
#871033
0l0
#872737
0t1
#874504
1t1
#875876
1w0
#877368
0w0
#879123
1l0
#880808
1t0
#882275
0t0
#883732
0l0
#885231
0t1
#887567
1t1
#889244
1w0
#890640
0w0
#892080
1l0
#893516
0l0
#894993
0t1
#897627
1t1
#899034
1w0
#900395
0w0
#902013
1l0
#903857
0l0
#905600
0t1
#908360
1t1
#910048
1w0
#912233
0w0
#914020
1l0
#915712
0l0
#917377
0t1
#919114
1t1
#921260
1t0
#922941
0t0
#924689
1w0
#926440
0w0
#928318
1l0
#930009
0l0
#931963
0t1
#933778
1t1
#935787
1w0
#937490
0w0
#939180
1l0
#940819
0l0
#942492
0t1
#944547
1t1
#946400
1w0
#948178
0w0
#949924
1l0
#951798
0l0
#953627
0t1
#956306
1t1
#958021
1w0
#959850
0w0
#961660
1t0
#963381
0t0
#965141
1l0
#966848
0l0
#969280
0t1
#972072
1t1
#973908
1w0
#975729
0w0
#977393
1l0
#979289
0l0
#981135
0t1
#982904
1t1
#984784
1w0
#986478
0w0
#988151
1l0
#989888
0l0
#991567
0t1
#993231
1t1
#995051
1w0
#996746
0w0
#998405
1l0
#1000080
1t0
#1001732
0t0
#1003434
0l0
#1005263
0t1
#1008127
1t1
#1009970
1w0
#1011723
0w0
#1013443
1l0
#1015117
0l0
#1016946
0t1
#1018831
1t1
#1020569
1w0
#1022247
0w0
#1023914
1l0
#1025897
0l0
#1027566
0t1
#1029587
1t1
#1031351
1w0
#1033012
0w0
#1034869
1l0
#1036759
0l0
#1038481
0t1
#1040237
1t0
#1041937
0t0
#1043578
1t1
#1045367
1w0
#1047123
0w0
#1048736
1l0
#1050459
0l0
#1052513
0t1
#1058947
1t1
#1061419
1w0
#1063318
0w0
#1065023
1l0
#1067823
0l0
#1069498
0t1
#1071946
1t1
#1073701
1w0
#1075366
0w0
#1076977
1l0
#1078871
0l0
#1080764
1t0
#1082489
0t0
#1084266
0t1
#1087296
1t1
#1089078
1w0
#1090786
0w0
#1092424
1l0
#1094135
0l0
#1096203
0t1
#1098334
1t1
#1099955
1w0
#1101670
0w0
#1103600
1l0
#1105348
0l0
#1107330
0t1
#1111720
1t1
#1118899
1w0
#1120349
1t0
#1121903
0t0
#1123318
0w0
#1125361
1l0
#1127037
0l0
#1129031
0t1
#1132584
1t1
#1134441
1w0
#1136107
0w0
#1137770
1l0
#1139499
0l0
#1141210
0t1
#1142987
1t1
#1144948
1w0
#1146729
0w0
#1148357
1l0
#1150262
0l0
#1151905
0t1
#1154766
1t1
#1156459
1w0
#1158139
0w0
#1160067
1t0
#1161956
0t0
#1163713
1l0
#1165412
0l0
#1167083
0t1
#1169400
1t1
#1171133
1w0
#1172817
0w0
#1174534
1l0
#1177110
0l0
#1178876
0t1
#1181241
1t1
#1182908
1w0
#1184872
0w0
#1186613
1l0
#1188282
0l0
#1189933
0t1
#1192888
1t1
#1194617
1w0
#1196453
0w0
#1198287
1l0
#1200048
1t0
#1201823
0t0
#1203837
0l0
#1205503
0t1
#1208622
1t1
#1210320
1w0
#1212441
0w0
#1214122
1l0
#1217565
0l0
#1219166
0t1
#1221216
1t1
#1222992
1w0
#1225044
0w0
#1226857
1l0
#1228593
0l0
#1230361
0t1
#1232699
1t1
#1234391
1w0
#1236069
0w0
#1237706
1l0
#1240212
0l0
#1241963
1t0
#1243672
0t0
#1245750
0t1
#1247616
1t1
#1249497
1w0
#1251639
0w0
#1253671
1l0
#1255377
0l0
#1257488
0t1
#1260336
1t1
#1262639
1w0
#1264601
0w0
#1266316
1l0
#1268025
0l0
#1269715
0t1
#1271519
1t1
#1273400
1w0
#1275062
0w0
#1276686
1l0
#1279375
0l0
#1281242
1t0
#1282999
0t0
#1284637
0t1
#1286735
1t1
#1288604
1w0
#1290552
0w0
#1292274
1l0
#1293949
0l0
#1295764
0t1
#1298465
1t1
#1300089
1w0
#1301743
0w0
#1303993
1l0
#1305796
0l0
#1308078
0t1
#1309844
1t1
#1311663
1w0
#1313557
0w0
#1315378
1l0
#1317063
0l0
#1318786
0t1
#1320759
1t0
#1322468
0t0
#1324148
1t1
#1325784
1w0
#1327713
0w0
#1329607
1l0
#1331340
0l0
#1333023
0t1
#1335599
1t1
#1337663
1w0
#1339313
0w0
#1341004
1l0
#1342745
0l0
#1345110
0t1
#1349299
1t1
#1351101
1w0
#1353301
0w0
#1355118
1l0
#1357315
0l0
#1359107
0t1
#1368679
1t0
#1374429
0t0
#1376386
1t1
#1378261
1w0
#1380262
0w0
#1381929
1l0
#1383904
0l0
#1385871
0t1
#1389507
1t1
#1391160
1w0
#1393125
0w0
#1395019
1l0
#1396901
0l0
#1398665
0t1
#1400381
1t0
#1402101
0t0
#1404251
1t1
#1406025
1w0
#1408322
0w0
#1410167
1l0
#1412092
0l0
#1414056
0t1
#1416751
1t1
#1418519
1w0
#1420382
0w0
#1422112
1l0
#1424014
0l0
#1425910
0t1
#1428481
1t1
#1430396
1w0
#1432350
0w0
#1434103
1l0
#1435913
0l0
#1437628
0t1
#1440218
1t0
#1441972
0t0
#1443816
1t1
#1445862
1w0
#1447641
0w0
#1449438
1l0
#1451172
0l0
#1452964
0t1
#1455863
1t1
#1457637
1w0
#1459484
0w0
#1461342
1l0
#1463188
0l0
#1465207
0t1
#1467601
1t1
#1469286
1w0
#1471108
0w0
#1473152
1l0
#1475070
0l0
#1476780
0t1
#1479321
1t1
#1481382
1t0
#1483062
0t0
#1484824
1w0
#1486485
0w0
#1488228
1l0
#1490133
0l0
#1491977
0t1
#1493955
1t1
#1496175
1w0
#1497902
0w0
#1499534
1l0
#1501288
0l0
#1503091
0t1
#1505817
1t1
#1508301
1w0
#1509945
0w0
#1511726
1l0
#1513724
0l0
#1515419
0t1
#1517434
1t1
#1519121
1w0
#1521167
1t0
#1522933
0t0
#1524580
0w0
#1526299
1l0
#1528216
0l0
#1529995
0t1
#1532098
1t1
#1533778
1w0
#1535410
0w0
#1537485
1l0
#1539186
0l0
#1540906
0t1
#1542832
1t1
#1545076
1w0
#1546879
0w0
#1549019
1l0
#1550651
0l0
#1552689
0t1
#1555813
1t1
#1557242
1w0
#1559006
0w0
#1564270
1t0
#1566354
0t0
#1568586
1l0
#1570440
0l0
#1572448
0t1
#1575790
1t1
#1577952
1w0
#1580182
0w0
#1581925
1l0
#1583834
0l0
#1585734
0t1
#1587957
1t1
#1589749
1w0
#1591462
0w0
#1593453
1l0
#1595232
0l0
#1597003
0t1
#1599588
1t1
#1601534
1t0
#1603234
0t0
#1604975
1w0
#1607524
0w0
#1609400
1l0
#1611102
0l0
#1613080
0t1
#1615200
1t1
#1617210
1w0
#1618922
0w0
#1620561
1l0
#1622254
0l0
#1624337
0t1
#1626942
1t1
#1629014
1w0
#1631053
0w0
#1633182
1l0
#1634886
0l0
#1636704
0t1
#1638639
1t1
#1642192
1t0
#1643794
0t0
#1645645
1w0
#1647523
0w0
#1649412
1l0
#1651079
0l0
#1652775
0t1
#1655604
1t1
#1659785
1w0
#1663441
0w0
#1665485
1l0
#1667479
0l0
#1669279
0t1
#1671670
1t1
#1673813
1w0
#1676142
0w0
#1677787
1l0
#1679594
0l0
#1681356
1t0
#1683102
0t0
#1684793
0t1
#1686555
1t1
#1688319
1w0
#1690025
0w0
#1692789
1l0
#1694299
0l0
#1696271
0t1
#1698320
1t1
#1700096
1w0
#1701880
0w0
#1703582
1l0
#1705305
0l0
#1707422
0t1
#1710046
1t1
#1712217
1w0
#1713965
0w0
#1715721
1l0
#1717367
0l0
#1719181
0t1
#1720909
1t0
#1722561
0t0
#1724403
1t1
#1726234
1w0
#1728015
0w0
#1729822
1l0
#1731522
0l0
#1733230
0t1
#1735448
1t1
#1737206
1w0
#1738867
0w0
#1740692
1l0
#1742420
0l0
#1744142
0t1
#1746202
1t1
#1748395
1w0
#1750175
0w0
#1752041
1l0
#1753861
0l0
#1755573
0t1
#1757929
1t1
#1759745
1w0
#1761679
1t0
#1763413
0t0
#1765124
0w0
#1766783
1l0
#1768485
0l0
#1770166
0t1
#1771925
1t1
#1773583
1w0
#1775336
0w0
#1777039
1l0
#1778899
0l0
#1780580
0t1
#1783375
1t1
#1785133
1w0
#1786825
0w0
#1788472
1l0
#1790153
0l0
#1792975
0t1
#1795093
1t1
#1796834
1w0
#1798537
0w0
#1800216
1t0
#1801908
0t0
#1803579
1l0
#1805278
0l0
#1807710
0t1
#1810743
1t1
#1812807
1w0
#1814455
0w0
#1816073
1l0
#1818009
0l0
#1819706
0t1
#1821460
1t1
#1823204
1w0
#1824834
0w0
#1826500
1l0
#1828247
0l0
#1830016
0t1
#1832245
1t1
#1834007
1w0
#1835739
0w0
#1837358
1l0
#1839002
0l0
#1840708
1t0
#1842408
0t0
#1844076
0t1
#1847947
1t1
#1849787
1w0
#1851553
0w0
#1853499
1l0
#1855458
0l0
#1857166
0t1
#1859712
1t1
#1861416
1w0
#1863169
0w0
#1864930
1l0
#1866629
0l0
#1868428
0t1
#1870422
1t1
#1872189
1w0
#1873952
0w0
#1875677
1l0
#1877377
0l0
#1879203
0t1
#1880952
1t0
#1882872
0t0
#1884641
1t1
#1886453
1w0
#1888195
0w0
#1889867
1l0
#1891511
0l0
#1893188
0t1
#1895865
1t1
#1897594
1w0
#1899249
0w0
#1900830
1l0
#1902491
0l0
#1905746
0t1
#1909547
1t1
#1911302
1w0
#1913147
0w0
#1914825
1l0
#1916540
0l0
#1918277
0t1
#1922329
1t0
#1924125
0t0
#1925966
1t1
#1927754
1w0
#1929573
0w0
#1931296
1l0
#1932953
0l0
#1934797
0t1
#1937918
1t1
#1939679
1w0
#1941409
0w0
#1943187
1l0
#1945027
0l0
#1947089
0t1
#1955470
1t1
#1958751
1w0
#1960638
1t0
#1962526
0t0
#1964572
0w0
#1966332
1l0
#1968091
0l0
#1969983
0t1
#1973102
1t1
#1975024
1w0
#1977033
0w0
#1979020
1l0
#1980885
0l0
#1983013
0t1
#1984822
1t1
#1986574
1w0
#1988331
0w0
#1990056
1l0
#1991781
0l0
#1993731
0t1
#1995571
1t1
#1997514
1w0
#1999271
0w0
#2000963
1t0
#2002730
0t0
#2004743
1l0
#2007054
0l0
#2008803
0t1
#2010676
1t1
#2012614
1w0
#2014345
0w0
#2016034
1l0
#2017953
0l0
#2019684
0t1
#2022121
1t1
#2023824
1w0
#2025539
0w0
#2028266
1l0
#2030098
0l0
#2039450
0t1
#2041980
1t0
#2043850
0t0
#2046196
1t1
#2048204
1w0
#2049764
0w0
#2051781
1l0
#2053732
0l0
#2055734
0t1
#2058857
1t1
#2060821
1w0
#2063026
0w0
#2068734
1l0
#2071652
0l0
#2073498
0t1
#2076740
1t1
#2078445
1w0
#2080346
1t0
#2082043
0t0
#2083829
0w0
#2085500
1l0
#2087220
0l0
#2088935
0t1
#2092376
1t1
#2094155
1w0
#2096014
0w0
#2097651
1l0
#2099514
0l0
#2101325
0t1
#2104103
1t1
#2105927
1w0
#2107989
0w0
#2109714
1l0
#2115236
0l0
#2116950
0t1
#2119726
1t1
#2121272
1t0
#2123209
0t0
#2124867
1w0
#2126529
0w0
#2128380
1l0
#2130256
0l0
#2132006
0t1
#2137662
1t1
#2139671
1w0
#2141449
0w0
#2143292
1l0
#2145019
0l0
#2146880
0t1
#2149078
1t1
#2150901
1w0
#2152748
0w0
#2154558
1l0
#2156388
0l0
#2158177
0t1
#2160344
1t0
#2162264
0t0
#2164070
1t1
#2165825
1w0
#2167587
0w0
#2169427
1l0
#2171181
0l0
#2172939
0t1
#2175471
1t1
#2177249
1w0
#2179183
0w0
#2180917
1l0
#2182848
0l0
#2184622
0t1
#2187207
1t1
#2189037
1w0
#2190776
0w0
#2192510
1l0
#2194391
0l0
#2196193
0t1
#2197946
1t1
#2199677
1w0
#2201556
1t0
#2203376
0t0
#2205142
0w0
#2208416
1l0
#2210230
0l0
#2212152
0t1
#2214580
1t1
#2216572
1w0
#2218582
0w0
#2220308
1l0
#2222141
0l0
#2224090
0t1
#2226315
1t1
#2228044
1w0
#2230116
0w0
#2232058
1l0
#2233903
0l0
#2235817
0t1
#2239039
1t1
#2240875
1t0
#2242711
0t0
#2244464
1w0
#2246405
0w0
#2248198
1l0
#2250148
0l0
#2251976
0t1
#2257831
1t1
#2260241
1w0
#2262108
0w0
#2264155
1l0
#2265932
0l0
#2267719
0t1
#2270332
1t1
#2272255
1w0
#2274219
0w0
#2276007
1l0
#2277781
0l0
#2280008
0t1
#2281815
1t0
#2283729
0t0
#2285474
1t1
#2287408
1w0
#2289219
0w0
#2290940
1l0
#2293061
0l0
#2294905
0t1
#2296789
1t1
#2299979
1w0
#2301552
0w0
#2303304
1l0
#2305214
0l0
#2307260
0t1
#2309861
1t1
#2311954
1w0
#2313826
0w0
#2315636
1l0
#2317602
0l0
#2319392
0t1
#2321213
1t0
#2323004
0t0
#2324804
1t1
#2326450
1w0
#2328286
0w0
#2330261
1l0
#2331893
0l0
#2336297
0t1
#2338887
1t1
#2340748
1w0
#2342455
0w0
#2344159
1l0
#2346249
0l0
#2348027
0t1
#2350719
1t1
#2352467
1w0
#2354227
0w0
#2355977
1l0
#2357740
0l0
#2359510
0t1
#2361782
1t0
#2363472
0t0
#2365088
1t1
#2366852
1w0
#2368506
0w0
#2370345
1l0
#2372023
0l0
#2373612
0t1
#2376029
1t1
#2378563
1w0
#2380317
0w0
#2382013
1l0
#2383663
0l0
#2385330
0t1
#2386982
1t1
#2388651
1w0
#2390350
0w0
#2392027
1l0
#2393713
0l0
#2395393
0t1
#2397635
1t1
#2399399
1w0
#2401143
1t0
#2402838
0t0
#2404632
0w0
#2406991
1l0
#2408736
0l0
#2410533
0t1
#2414186
1t1
#2416051
1w0
#2417793
0w0
#2419457
1l0
#2421195
0l0
#2422887
0t1
#2424948
1t1
#2426717
1w0
#2428486
0w0
#2430292
1l0
#2432102
0l0
#2433804
0t1
#2435659
1t1
#2437305
1w0
#2439021
0w0
#2440767
1t0
#2442494
0t0
#2444213
1l0
#2446032
0l0
#2447683
0t1
#2450346
1t1
#2452112
1w0
#2453753
0w0
#2455386
1l0
#2461954
0l0
#2464497
0t1
#2466989
1t1
#2468756
1w0
#2470585
0w0
#2472515
1l0
#2474440
0l0
#2476332
0t1
#2478867
1t1
#2480975
1t0
#2482717
0t0
#2484458
1w0
#2486182
0w0
#2487961
1l0
#2489657
0l0
#2491489
0t1
#2493297
1t1
#2495143
1w0
#2496893
0w0
#2498602
1l0
#2500250
0l0
#2501914
0t1
#2504116
1t1
#2505779
1w0
#2508313
0w0
#2510020
1l0
#2512174
0l0
#2514049
0t1
#2515844
1t1
#2517476
1w0
#2519126
0w0
#2520873
1t0
#2522597
0t0
#2524277
1l0
#2525998
0l0
#2527624
0t1
#2530507
1t1
#2532250
1w0
#2533977
0w0
#2535884
1l0
#2537588
0l0
#2539238
0t1
#2541370
1t1
#2543007
1w0
#2544749
0w0
#2546575
1l0
#2548198
0l0
#2550071
0t1
#2552988
1t1
#2554792
1w0
#2556657
0w0
#2558522
1l0
#2560315
1t0
#2562384
0t0
#2563977
0l0
#2565836
0t1
#2568641
1t1
#2570277
1w0
#2572077
0w0
#2573830
1l0
#2575531
0l0
#2577590
0t1
#2580400
1t1
#2582165
1w0
#2583996
0w0
#2585747
1l0
#2587440
0l0
#2589095
0t1
#2591121
1t1
#2592924
1w0
#2594669
0w0
#2596559
1l0
#2598307
0l0
#2600048
1t0
#2601729
0t0
#2603427
0t1
#2605790
1t1
#2608010
1w0
#2609664
0w0
#2611815
1l0
#2613573
0l0
#2615459
0t1
#2617330
1t1
#2619005
1w0
#2620671
0w0
#2622375
1l0
#2624041
0l0
#2625747
0t1
#2627413
1t1
#2629162
1w0
#2630891
0w0
#2632629
1l0
#2634392
0l0
#2636056
0t1
#2637868
1t1
#2639527
1w0
#2641163
1t0
#2642853
0t0
#2644818
0w0
#2646620
1l0
#2648408
0l0
#2650142
0t1
#2652765
1t1
#2654439
1w0
#2656168
0w0
#2657891
1l0
#2659618
0l0
#2661344
0t1
#2663565
1t1
#2665279
1w0
#2667001
0w0
#2668650
1l0
#2670427
0l0
#2672048
0t1
#2674001
1t1
#2675731
1w0
#2677381
0w0
#2679288
1l0
#2681135
1t0
#2682823
0t0
#2684522
0l0
#2686165
0t1
#2688878
1t1
#2690590
1w0
#2692234
0w0
#2694038
1l0
#2696047
0l0
#2697773
0t1
#2699436
1t1
#2701152
1w0
#2702843
0w0
#2704891
1l0
#2707216
0l0
#2708889
0t1
#2711649
1t1
#2713871
1w0
#2715664
0w0
#2717328
1l0
#2718968
0l0
#2720913
1t0
#2722595
0t0
#2724214
0t1
#2727024
1t1
#2729171
1w0
#2730897
0w0
#2732874
1l0
#2734694
0l0
#2736520
0t1
#2738301
1t1
#2739925
1w0
#2741618
0w0
#2743334
1l0
#2745050
0l0
#2746806
0t1
#2748648
1t1
#2750311
1w0
#2752157
0w0
#2753928
1l0
#2755797
0l0
#2757514
0t1
#2764356
1t0
#2767798
0t0
#2769910
1t1
#2771844
1w0
#2773684
0w0
#2775592
1l0
#2777522
0l0
#2779413
0t1
#2781753
1t1
#2783650
1w0
#2785419
0w0
#2787199
1l0
#2788948
0l0
#2790715
0t1
#2792462
1t1
#2794201
1w0
#2796135
0w0
#2797773
1l0
#2799423
0l0
#2801256
1t0
#2803037
0t0
#2804692
0t1
#2808172
1t1
#2810010
1w0
#2811895
0w0
#2813841
1l0
#2815941
0l0
#2817945
0t1
#2819871
1t1
#2821635
1w0
#2823495
0w0
#2825305
1l0
#2827109
0l0
#2829078
0t1
#2831624
1t1
#2835941
1w0
#2837903
0w0
#2839710
1l0
#2841522
1t0
#2843378
0t0
#2845362
0l0
#2847829
0t1
#2849725
1t1
#2851577
1w0
#2853423
0w0
#2855314
1l0
#2857215
0l0
#2859207
0t1
#2861974
1t1
#2863853
1w0
#2866268
0w0
#2868535
1l0
#2870469
0l0
#2872296
0t1
#2875921
1t1
#2877678
1w0
#2879716
0w0
#2881814
1t0
#2883634
0t0
#2885397
1l0
#2887272
0l0
#2889138
0t1
#2891263
1t1
#2893059
1w0
#2894883
0w0
#2896840
1l0
#2898705
0l0
#2900390
0t1
#2905251
1t1
#2908285
1w0
#2910373
0w0
#2912432
1l0
#2914361
0l0
#2916502
0t1
#2918688
1t1
#2920564
1t0
#2922340
0t0
#2924219
1w0
#2926022
0w0
#2927890
1l0
#2929774
0l0
#2931522
0t1
#2934351
1t1
#2936194
1w0
#2938020
0w0
#2939992
1l0
#2941838
0l0
#2943617
0t1
#2946072
1t1
#2947944
1w0
#2949909
0w0
#2951743
1l0
#2953562
0l0
#2955369
0t1
#2957817
1t1
#2959734
1w0
#2961636
1t0
#2963539
0t0
#2965833
0w0
#2967627
1l0
#2969833
0l0
#2971614
0t1
#2974577
1t1
#2976451
1w0
#2978206
0w0
#2980642
1l0
#2982487
0l0
#2984247
0t1
#2986168
1t1
#2988029
1w0
#2989837
0w0
#2991669
1l0
#2993459
0l0
#2995353
0t1
#2998030
1t1
#2999961
1w0
#3001793
1t0
#3003625
0t0
#3005497
0w0
#3008136
1l0
#3010009
0l0
#3012011
0t1
#3015552
1t1
#3018363
1w0
#3020519
0w0
#3022644
1l0
#3024567
0l0
#3026454
0t1
#3029225
1t1
#3031366
1w0
#3033294
0w0
#3035162
1l0
#3036956
0l0
#3038807
0t1
#3040664
1t0
#3042556
0t0
#3044339
1t1
#3046342
1w0
#3048148
0w0
#3052889
1l0
#3055755
0l0
#3058047
0t1
#3060105
1t1
#3062041
1w0
#3064578
0w0
#3066686
1l0
#3068562
0l0
#3070440
0t1
#3073204
1t1
#3075330
1w0
#3077203
0w0
#3079180
1l0
#3081120
1t0
#3083020
0t0
#3084930
0l0
#3086772
0t1
#3089822
1t1
#3091658
1w0
#3093683
0w0
#3095883
1l0
#3097954
0l0
#3099755
0t1
#3102633
1t1
#3104898
1w0
#3107597
0w0
#3109346
1l0
#3111451
0l0
#3116776
0t1
#3119599
1t1
#3121661
1t0
#3123517
0t0
#3125060
1w0
#3126913
0w0
#3129085
1l0
#3130962
0l0
#3132761
0t1
#3135587
1t1
#3138012
1w0
#3139811
0w0
#3141604
1l0
#3143405
0l0
#3145558
0t1
#3148505
1t1
#3150343
1w0
#3152279
0w0
#3154123
1l0
#3155865
0l0
#3157945
0t1
#3160252
1t0
#3162144
0t0
#3164099
1t1
#3166055
1w0
#3168352
0w0
#3170119
1l0
#3171881
0l0
#3173705
0t1
#3175930
1t1
#3177764
1w0
#3180129
0w0
#3181954
1l0
#3183939
0l0
#3185815
0t1
#3187907
1t1
#3189737
1w0
#3191848
0w0
#3193673
1l0
#3195572
0l0
#3197341
0t1
#3199373
1t1
#3201295
1t0
#3203079
0t0
#3204961
1w0
#3207654
0w0
#3210379
1l0
#3212169
0l0
#3214042
0t1
#3216974
1t1
#3218971
1w0
#3220812
0w0
#3222739
1l0
#3224565
0l0
#3226473
0t1
#3228907
1t1
#3230729
1w0
#3232536
0w0
#3234535
1l0
#3236294
0l0
#3238050
0t1
#3240068
1t0
#3241892
0t0
#3243658
1t1
#3245501
1w0
#3247274
0w0
#3249122
1l0
#3254425
0l0
#3256494
0t1
#3258995
1t1
#3260927
1w0
#3263099
0w0
#3264918
1l0
#3266716
0l0
#3268557
0t1
#3273912
1t1
#3275933
1w0
#3277919
0w0
#3279908
1l0
#3281761
1t0
#3283660
0t0
#3285745
0l0
#3287633
0t1
#3290415
1t1
#3292338
1w0
#3294744
0w0
#3296622
1l0
#3298449
0l0
#3300187
0t1
#3303023
1t1
#3305060
1w0
#3307709
0w0
#3309575
1l0
#3311595
0l0
#3313769
0t1
#3316736
1t1
#3318567
1w0
#3320382
1t0
#3322396
0t0
#3324199
0w0
#3325946
1l0
#3327950
0l0
#3329793
0t1
#3332357
1t1
#3334676
1w0
#3336503
0w0
#3338384
1l0
#3340228
0l0
#3342096
0t1
#3344299
1t1
#3346294
1w0
#3348379
0w0
#3350171
1l0
#3352061
0l0
#3353927
0t1
#3355804
1t1
#3357997
1w0
#3361841
1t0
#3363728
0t0
#3365566
0w0
#3367432
1l0
#3369297
0l0
#3371102
0t1
#3373515
1t1
#3375451
1w0
#3377246
0w0
#3379237
1l0
#3381338
0l0
#3383150
0t1
#3385161
1t1
#3387083
1w0
#3388896
0w0
#3390709
1l0
#3392531
0l0
#3394341
0t1
#3397016
1t1
#3398812
1w0
#3400560
1t0
#3402423
0t0
#3404192
0w0
#3406880
1l0
#3408730
0l0
#3410657
0t1
#3412734
1t1
#3414894
1w0
#3416686
0w0
#3418472
1l0
#3420272
0l0
