json_parse/binary.c/binaries/bench.vcd
$date
Wed May 31 11:27:18 2017
$end
$version
VCD generator tool version info text.
$end
$comment
This file has been create by polyorb-hi-c runtime of ocarina.
$end
$timescale 1us $end
$scope module tasks $end
$var wire 1 t0 task_0 $end
$upscope $end
$enddefinitions $end
$dumpvars
0t0
$end
#11206
0t0
#13103
1t0
#13791
0t0
#17607
1t0
#19161
0t0
#21924
1t0
#23434
0t0
#24828
1t0
#25605
0t0
#27596
1t0
#28436
0t0
#29725
1t0
#31054
0t0
#33617
1t0
#34693
0t0
#38877
1t0
#40395
0t0
#41853
1t0
#43025
0t0
#43748
1t0
#44502
0t0
#45772
1t0
#46787
0t0
#48878
1t0
#49545
0t0
#51969
1t0
#52683
0t0
#53354
1t0
#54345
0t0
#56306
1t0
#56921
0t0
#58042
1t0
#59075
0t0
#60150
1t0
#60986
0t0
#61599
1t0
#62737
0t0
#64639
1t0
#65267
0t0
#69687
1t0
#71643
0t0
#74650
1t0
#76245
0t0
#77557
1t0
#78844
0t0
#80409
1t0
#81089
0t0
#86906
1t0
#88351
0t0
#94702
1t0
#96560
0t0
#100255
1t0
#101913
0t0
#105095
1t0
#105864
0t0
#107053
1t0
#107780
0t0
#109984
1t0
#111674
0t0
#115735
1t0
#118114
0t0
#119619
1t0
#120229
0t0
#121235
1t0
#121915
0t0
#125575
1t0
#127040
0t0
#128016
1t0
#128842
0t0
#130618
1t0
#131860
0t0
#133578
1t0
#134701
0t0
#135523
1t0
#136155
0t0
#136871
1t0
#137526
0t0
#140948
1t0
#141691
0t0
#146047
1t0
#147352
0t0
#148966
1t0
#149835
0t0
#151893
1t0
#152647
0t0
#153887
1t0
#155019
0t0
#156863
1t0
#157554
0t0
#161232
1t0
#162503
0t0
#166884
1t0
#168785
0t0
#171626
1t0
#173074
0t0
#176912
1t0
#179280
0t0
#180302
1t0
#180994
0t0
#181785
1t0
#182876
0t0
#183656
1t0
#184362
0t0
#185503
1t0
#186509
0t0
#189217
1t0
#189953
0t0
#192470
1t0
#193388
0t0
#197439
1t0
#198932
0t0
#203523
1t0
#205486
0t0
#207835
1t0
#208543
0t0
#209816
1t0
#211148
0t0
#212747
1t0
#213598
0t0
#218482
1t0
#220217
0t0
#223895
1t0
#225417
0t0
#228573
1t0
#229327
0t0
#233933
1t0
#235713
0t0
#239437
1t0
#240944
0t0
#241700
1t0
#242914
0t0
#244317
1t0
#245363
0t0
#249317
1t0
#250780
0t0
#252792
1t0
#253662
0t0
#255738
1t0
#256420
0t0
#259379
1t0
#261111
0t0
#264750
1t0
#266507
0t0
#269611
1t0
#270967
0t0
#271969
1t0
#272732
0t0
#273937
1t0
#275484
0t0
#276453
1t0
#277211
0t0
#277849
1t0
#278849
0t0
#279777
1t0
#280378
0t0
#281719
1t0
#282712
0t0
#284686
1t0
#285369
0t0
#286610
1t0
#287259
0t0
#289600
1t0
#290618
0t0
#294359
1t0
#295843
0t0
#297338
1t0
#298539
0t0
#299738
1t0
#300415
0t0
#301310
1t0
#301951
0t0
#303639
1t0
#304316
0t0
#305641
1t0
#306899
0t0
#307551
1t0
#308199
0t0
#308844
1t0
#309562
0t0
#313478
1t0
#314809
0t0
#316482
1t0
#317217
0t0
#320822
1t0
#322781
0t0
#326438
1t0
#328032
0t0
#329378
1t0
#330676
0t0
#331453
1t0
#332090
0t0
#332928
1t0
#333585
0t0
#335126
1t0
#336104
0t0
#337743
1t0
#338813
0t0
#342197
1t0
#343547
0t0
#345565
1t0
#347150
0t0
#348417
1t0
#349024
0t0
#352941
1t0
#355097
0t0
#357601
1t0
#358692
0t0
#359418
1t0
#360074
0t0
#361653
1t0
#363603
0t0
#364572
1t0
#365298
0t0
#368577
1t0
#369325
0t0
#372865
1t0
#373773
0t0
#378621
1t0
#380844
0t0
#381645
1t0
#382946
0t0
#384504
1t0
#385276
0t0
#389507
1t0
#391165
0t0
#393422
1t0
#395294
0t0
#396327
1t0
#397172
0t0
#399275
1t0
#400617
0t0
#405587
1t0
#407346
0t0
#410196
1t0
#411562
0t0
#415443
1t0
#417111
0t0
#420477
1t0
#421953
0t0
#423849
1t0
#424632
0t0
#425509
1t0
#426586
0t0
#427761
1t0
#428764
0t0
#430147
1t0
#431186
0t0
#432093
1t0
#432750
0t0
#434069
1t0
#435100
0t0
#437264
1t0
#437895
0t0
#440600
1t0
#441253
0t0
#442590
1t0
#443750
0t0
#445519
1t0
#446539
0t0
#449716
1t0
#450976
0t0
#452335
1t0
#453082
0t0
#455390
1t0
#457419
0t0
#458721
1t0
#459634
0t0
#461258
1t0
#461947
0t0
#463878
1t0
#464656
0t0
#465834
1t0
#467025
0t0
#469601
1t0
#470805
0t0
#474075
1t0
#475555
0t0
#476311
1t0
#476968
0t0
#477687
1t0
#478755
0t0
#481979
1t0
#483269
0t0
#485062
1t0
#485866
0t0
#487982
1t0
#488640
0t0
#489330
1t0
#490440
0t0
#492694
1t0
#493361
0t0
#494963
1t0
#495691
0t0
#497902
1t0
#498974
0t0
#501584
1t0
#502752
0t0
#505108
1t0
#505890
0t0
#507063
1t0
#507729
0t0
#510202
1t0
#511481
0t0
#513162
1t0
#514105
0t0
#516095
1t0
#516874
0t0
#518082
1t0
#519350
0t0
#520304
1t0
#521407
0t0
#522668
1t0
#523304
0t0
#525633
1t0
#526745
0t0
#527627
1t0
#528295
0t0
#529599
1t0
#530624
0t0
#531238
1t0
#531855
0t0
#532497
1t0
#533145
0t0
#537635
1t0
#539161
0t0
#540596
1t0
#541346
0t0
#542589
1t0
#543279
0t0
#544555
1t0
#545255
0t0
#547497
1t0
#549766
0t0
#551328
1t0
#552373
0t0
#553805
1t0
#554927
0t0
#557180
1t0
#558045
0t0
#561489
1t0
#562875
0t0
#564417
1t0
#565063
0t0
#569694
1t0
#571245
0t0
#572328
1t0
#573166
0t0
#574262
1t0
#575477
0t0
#578651
1t0
#580748
0t0
#581572
1t0
#582958
0t0
#584681
1t0
#585340
0t0
#590280
1t0
#592286
0t0
#592971
1t0
#593584
0t0
#594836
1t0
#595494
0t0
#596168
1t0
#596822
0t0
#597440
1t0
#598505
0t0
#600642
1t0
#601250
0t0
#603759
1t0
#604966
0t0
#607486
1t0
#608676
0t0
#610385
1t0
#612905
0t0
#613938
1t0
#615317
0t0
#616182
1t0
#616798
0t0
#618047
1t0
#619167
0t0
#621715
1t0
#622840
0t0
#624428
1t0
#625079
0t0
#626761
1t0
#627972
0t0
#629693
1t0
#630769
0t0
#631478
1t0
#632056
0t0
#634554
1t0
#635631
0t0
#636536
1t0
#637136
0t0
#638147
1t0
#639171
0t0
#641163
1t0
#641840
0t0
#644110
1t0
#645009
0t0
#645763
1t0
#646925
0t0
#649715
1t0
#650921
0t0
#651825
1t0
#652462
0t0
#653813
1t0
#654854
0t0
#656763
1t0
#657362
0t0
#662127
1t0
#663774
0t0
#664777
1t0
#665484
0t0
#666718
1t0
#667364
0t0
#669657
1t0
#670684
0t0
#671610
1t0
#672204
0t0
#673224
1t0
#673861
0t0
#675375
1t0
#676145
0t0
#677503
1t0
#678665
0t0
#681585
1t0
#682857
0t0
#686356
1t0
#688182
0t0
#692237
1t0
#694218
0t0
#695863
1t0
#696776
0t0
#697797
1t0
#698997
0t0
#701601
1t0
#702751
0t0
#703801
1t0
#704510
0t0
#705689
1t0
#706976
0t0
#707749
1t0
#708393
0t0
#709721
1t0
#710785
0t0
#712687
1t0
#713336
0t0
#716418
1t0
#717156
0t0
#718429
1t0
#719784
0t0
#723362
1t0
#724652
0t0
#727845
1t0
#729245
0t0
#733107
1t0
#734020
0t0
#736027
1t0
#736724
0t0
#738065
1t0
#739386
0t0
#742111
1t0
#743282
0t0
#747883
1t0
#749573
0t0
#752850
1t0
#753683
0t0
#758175
1t0
#759856
0t0
#763463
1t0
#764741
0t0
#768864
1t0
#771274
0t0
#772226
1t0
#772941
0t0
#774506
1t0
#775571
0t0
#777601
1t0
#778722
0t0
#779845
1t0
#780493
0t0
#781819
1t0
#782844
0t0
#784773
1t0
#785454
0t0
#789745
1t0
#791218
0t0
#793706
1t0
#795176
0t0
#797618
1t0
#799708
0t0
#801115
1t0
#801907
0t0
#804606
1t0
#805356
0t0
#808233
1t0
#808968
0t0
#810191
1t0
#811432
0t0
#816148
1t0
#817806
0t0
#821113
1t0
#821985
0t0
#825087
1t0
#825888
0t0
#829630
1t0
#831306
0t0
#832724
1t0
#833453
0t0
#836291
1t0
#836982
0t0
#841271
1t0
#843387
0t0
#845553
1t0
#846647
0t0
#849467
1t0
#850678
0t0
#852477
1t0
#853218
0t0
#855880
1t0
#856956
0t0
#858861
1t0
#860646
0t0
#864175
1t0
#865865
0t0
#870721
1t0
#872490
0t0
#875411
1t0
#876720
0t0
#881519
1t0
#883477
0t0
#886181
1t0
#887579
0t0
#889091
1t0
#890372
0t0
#896621
1t0
#898235
0t0
#902049
1t0
#903827
0t0
#907020
1t0
#908467
0t0
#909172
1t0
#909925
0t0
#911909
1t0
#912685
0t0
#916968
1t0
#918440
0t0
#919922
1t0
#920661
0t0
#921899
1t0
#923468
0t0
#925601
1t0
#926782
0t0
#927901
1t0
#928671
0t0
#931805
1t0
#933138
0t0
#934750
1t0
#935849
0t0
#936705
1t0
#937339
0t0
#938674
1t0
#939335
0t0
#941607
1t0
#942632
0t0
#945522
1t0
#946700
0t0
#947491
1t0
#948244
0t0
#949021
1t0
#949687
0t0
#951335
1t0
#952140
0t0
#952872
1t0
#953465
0t0
#957211
1t0
#957900
0t0
#959658
1t0
#960433
0t0
#961967
1t0
#963210
0t0
#966923
1t0
#968420
0t0
#971379
1t0
#972523
0t0
#976667
1t0
#978328
0t0
#979416
1t0
#980058
0t0
#981371
1t0
#982892
0t0
#983682
1t0
#984419
0t0
#985447
1t0
#986470
0t0
#987413
1t0
#988055
0t0
#989636
1t0
#990711
0t0
#992405
1t0
#993066
0t0
#993704
1t0
#994827
0t0
#998162
1t0
#999557
0t0
#1003163
1t0
#1004751
0t0
#1008988
1t0
#1010401
0t0
#1011923
1t0
#1012791
0t0
#1013861
1t0
#1015317
0t0
#1017798
1t0
#1019036
0t0
#1021612
1t0
#1022851
0t0
#1024732
1t0
#1025435
0t0
#1029035
1t0
#1029867
0t0
#1035047
1t0
#1036865
0t0
#1039951
1t0
#1041327
0t0
#1042880
1t0
#1043719
0t0
#1044858
1t0
#1045819
0t0
#1046932
1t0
#1047569
0t0
#1049748
1t0
#1050811
0t0
#1052898
1t0
#1053534
0t0
#1054868
1t0
#1055525
0t0
#1056823
1t0
#1057465
0t0
#1059755
1t0
#1060429
0t0
#1061743
1t0
#1062754
0t0
#1064678
1t0
#1065365
0t0
#1066599
1t0
#1067253
0t0
#1069561
1t0
#1070606
0t0
#1071514
1t0
#1072198
0t0
#1073484
1t0
#1074784
0t0
#1075792
1t0
#1076434
0t0
#1077263
1t0
#1078567
0t0
#1079212
1t0
#1079816
0t0
#1080726
1t0
#1081318
0t0
#1084655
1t0
#1085518
0t0
#1087620
1t0
#1095378
0t0
#1098398
1t0
#1099627
0t0
#1101314
1t0
#1103194
0t0
#1104825
1t0
#1105566
0t0
#1108717
1t0
#1109386
0t0
#1113799
1t0
#1115168
0t0
#1119745
1t0
#1121397
0t0
#1124771
1t0
#1125570
0t0
#1129753
1t0
#1131300
0t0
#1132717
1t0
#1133513
0t0
#1135707
1t0
#1136652
0t0
#1137613
1t0
#1138835
0t0
#1139692
1t0
#1140339
0t0
#1141045
1t0
#1141680
0t0
#1145646
1t0
#1146911
0t0
#1150727
1t0
#1152571
0t0
#1155729
1t0
#1157201
0t0
#1160521
1t0
#1163049
0t0
#1164180
1t0
#1164938
0t0
#1165700
1t0
#1166946
0t0
#1167795
1t0
#1168476
0t0
#1170060
1t0
#1171123
0t0
#1172031
1t0
#1172651
0t0
#1173245
1t0
#1173860
0t0
#1175846
1t0
#1176458
0t0
#1177379
1t0
#1178341
0t0
#1180959
1t0
#1181651
0t0
#1185195
1t0
#1186789
0t0
#1191878
1t0
#1193958
0t0
#1195626
1t0
#1196330
0t0
#1197704
1t0
#1199161
0t0
#1202400
1t0
#1203841
0t0
#1205737
1t0
#1207174
0t0
#1211443
1t0
#1213251
0t0
#1218288
1t0
#1219953
0t0
#1223305
1t0
#1224793
0t0
#1226190
1t0
#1227613
0t0
#1233214
1t0
#1235021
0t0
#1237646
1t0
#1239205
0t0
#1244369
1t0
#1246435
0t0
#1248248
1t0
#1249049
0t0
#1253838
1t0
#1255672
0t0
#1256432
1t0
#1257184
0t0
#1258565
1t0
#1260228
0t0
#1262116
1t0
#1263409
0t0
#1264156
1t0
#1264840
0t0
#1265579
1t0
#1266580
0t0
#1269505
1t0
#1270909
0t0
#1273587
1t0
#1275032
0t0
#1280511
1t0
#1282571
0t0
#1285882
1t0
#1287345
0t0
#1288823
1t0
#1289591
0t0
#1291791
1t0
#1292893
0t0
#1295922
1t0
#1297119
0t0
#1300979
1t0
#1303002
0t0
#1305878
1t0
#1307385
0t0
#1310011
1t0
#1311347
0t0
#1312288
1t0
#1313010
0t0
#1313644
1t0
#1314622
0t0
#1315887
1t0
#1316487
0t0
#1317510
1t0
#1318570
0t0
#1319627
1t0
#1320474
0t0
#1321194
1t0
#1321797
0t0
#1325923
1t0
#1327474
0t0
#1331395
1t0
#1333391
0t0
#1336337
1t0
#1337252
0t0
#1338710
1t0
#1339944
0t0
#1340853
1t0
#1341601
0t0
#1342797
1t0
#1343441
0t0
#1346311
1t0
#1347383
0t0
#1348291
1t0
#1348966
0t0
#1350087
1t0
#1351312
0t0
#1352205
1t0
#1352853
0t0
#1354163
1t0
#1355118
0t0
#1356363
1t0
#1356961
0t0
#1361665
1t0
#1363812
0t0
#1366596
1t0
#1368643
0t0
#1371894
1t0
#1373402
0t0
#1376867
1t0
#1377806
0t0
#1379802
1t0
#1380768
0t0
#1381589
1t0
#1382769
0t0
#1383735
1t0
#1384398
0t0
#1385682
1t0
#1386836
0t0
#1388984
1t0
#1389529
0t0
#1391831
1t0
#1392567
0t0
#1393504
1t0
#1394505
0t0
#1396428
1t0
#1397063
0t0
#1401669
1t0
#1403634
0t0
#1404597
1t0
#1405532
0t0
#1407506
1t0
#1408181
0t0
#1408997
1t0
#1409673
0t0
#1411122
1t0
#1411940
0t0
#1412553
1t0
#1413161
0t0
#1414092
1t0
#1415095
0t0
#1417026
1t0
#1417681
0t0
#1422037
1t0
#1423842
0t0
#1424949
1t0
#1425801
0t0
#1427863
1t0
#1428690
0t0
#1432858
1t0
#1434539
0t0
#1436089
1t0
#1436818
0t0
#1437724
1t0
#1438912
0t0
#1440189
1t0
#1440952
0t0
#1441799
1t0
#1443122
0t0
#1445605
1t0
#1446874
0t0
#1448571
1t0
#1449212
0t0
#1454466
1t0
#1456194
0t0
#1459325
1t0
#1460915
0t0
#1464436
1t0
#1466875
0t0
#1469359
1t0
#1470572
0t0
#1472305
1t0
#1473390
0t0
#1476999
1t0
#1478077
0t0
#1479944
1t0
#1480674
0t0
#1481912
1t0
#1483089
0t0
#1485700
1t0
#1487071
0t0
#1488763
1t0
#1489441
0t0
#1491366
1t0
#1492739
0t0
#1493371
1t0
#1494504
0t0
#1496772
1t0
#1497402
0t0
#1498727
1t0
#1499326
0t0
#1500683
1t0
#1501300
0t0
#1502044
1t0
#1503034
0t0
#1504167
1t0
#1505014
0t0
#1506763
1t0
#1507890
0t0
#1508721
1t0
#1509323
0t0
#1512778
1t0
#1514599
0t0
#1516761
1t0
#1517467
0t0
#1519717
1t0
#1520525
0t0
#1522640
1t0
#1523747
0t0
#1527029
1t0
#1528300
0t0
#1529198
1t0
#1529927
0t0
#1531144
1t0
#1531868
0t0
#1533102
1t0
#1533796
0t0
#1535034
1t0
#1535757
0t0
#1537601
1t0
#1538606
0t0
#1539548
1t0
#1540183
0t0
#1541546
1t0
#1542548
0t0
#1544802
1t0
#1545418
0t0
#1547976
1t0
#1548686
0t0
#1549996
1t0
#1550999
0t0
#1552926
1t0
#1553567
0t0
#1557334
1t0
#1558560
0t0
#1561494
1t0
#1563198
0t0
#1564423
1t0
#1565281
0t0
#1567841
1t0
#1568671
0t0
#1571989
1t0
#1573706
0t0
#1578806
1t0
#1580626
0t0
#1583730
1t0
#1585095
0t0
#1588968
1t0
#1591017
0t0
#1592971
1t0
#1593767
0t0
#1595880
1t0
#1596728
0t0
#1599860
1t0
#1601789
0t0
#1604851
1t0
#1605573
0t0
#1606785
1t0
#1607545
0t0
#1609600
1t0
#1610765
0t0
#1615059
1t0
#1616820
0t0
#1617981
1t0
#1619165
0t0
#1619929
1t0
#1620625
0t0
#1621910
1t0
#1622915
0t0
#1623883
1t0
#1624476
0t0
#1625354
1t0
#1626423
0t0
#1627515
1t0
#1628361
0t0
#1629931
1t0
#1631008
0t0
#1633834
1t0
#1635110
0t0
#1636785
1t0
#1637508
0t0
#1639217
1t0
#1639812
0t0
#1640799
1t0
#1641428
0t0
#1644089
1t0
#1644779
0t0
#1646068
1t0
#1647073
0t0
#1648320
1t0
#1648948
0t0
#1650487
1t0
#1651452
0t0
#1653750
1t0
#1654766
0t0
#1655663
1t0
#1656290
0t0
#1657618
1t0
#1658938
0t0
#1661246
1t0
#1661878
0t0
#1665599
1t0
#1667005
0t0
#1669602
1t0
#1671154
0t0
#1676311
1t0
#1679091
0t0
#1680129
1t0
#1681010
0t0
#1685064
1t0
#1687049
0t0
#1687991
1t0
#1688795
0t0
#1689974
1t0
#1691874
0t0
#1694843
1t0
#1696489
0t0
#1700653
1t0
#1702340
0t0
#1707633
1t0
#1709587
0t0
#1711466
1t0
#1712289
0t0
#1715768
1t0
#1717308
0t0
#1718686
1t0
#1719366
0t0
#1720287
1t0
#1721306
0t0
#1722606
1t0
#1723243
0t0
#1725556
1t0
#1726489
0t0
#1727513
1t0
#1728082
0t0
#1729619
1t0
#1730747
0t0
#1731556
1t0
#1732170
0t0
#1737679
1t0
#1739521
0t0
#1742350
1t0
#1744013
0t0
#1744919
1t0
#1745748
0t0
#1747695
1t0
#1748503
0t0
#1749795
1t0
#1751514
0t0
#1752411
1t0
#1753157
0t0
#1757202
1t0
#1759171
0t0
#1761588
1t0
#1762754
0t0
#1765132
1t0
#1765719
0t0
#1768122
1t0
#1768954
0t0
#1770830
1t0
#1772033
0t0
#1772707
1t0
#1773405
0t0
#1776859
1t0
#1777620
0t0
#1779011
1t0
#1779812
0t0
#1780786
1t0
#1781665
0t0
#1783097
1t0
#1783797
0t0
#1786050
1t0
#1787112
0t0
#1788054
1t0
#1788728
0t0
#1792387
1t0
#1794105
0t0
#1796305
1t0
#1797169
0t0
#1798275
1t0
#1799281
0t0
#1801601
1t0
#1802624
0t0
#1803860
1t0
#1804521
0t0
#1805817
1t0
#1806823
0t0
#1808427
1t0
#1809102
0t0
#1809783
1t0
#1810786
0t0
#1811844
1t0
#1812573
0t0
#1813313
1t0
#1814372
0t0
#1815102
1t0
#1815793
0t0
#1818210
1t0
#1819218
0t0
#1821472
1t0
#1822491
0t0
#1824388
1t0
#1825087
0t0
#1828937
1t0
#1830936
0t0
#1834442
1t0
#1836063
0t0
#1838739
1t0
#1840019
0t0
#1841686
1t0
#1843253
0t0
#1844144
1t0
#1844938
0t0
#1847132
1t0
#1848421
0t0
#1849349
1t0
#1852700
0t0
#1854390
1t0
#1855342
0t0
#1857069
1t0
#1857680
0t0
#1860024
1t0
#1860654
0t0
#1861499
1t0
#1862564
0t0
#1864477
1t0
#1865158
0t0
#1865871
1t0
#1866857
0t0
#1870043
1t0
#1871288
0t0
#1872751
1t0
#1873678
0t0
#1875956
1t0
#1876705
0t0
#1879873
1t0
#1881172
0t0
#1885139
1t0
#1887285
0t0
#1890872
1t0
#1893464
0t0
#1895471
1t0
#1896441
0t0
#1897381
1t0
#1898418
0t0
#1900330
1t0
#1901095
0t0
#1902274
1t0
#1903359
0t0
#1906277
1t0
#1907782
0t0
#1911194
1t0
#1912632
0t0
#1916338
1t0
#1918044
0t0
#1921311
1t0
#1922459
0t0
#1924826
1t0
#1925479
0t0
#1927779
1t0
#1928652
0t0
#1929969
1t0
#1931105
0t0
#1932927
1t0
#1933865
0t0
#1936447
1t0
#1937176
0t0
#1938680
1t0
#1939779
0t0
#1941645
1t0
#1942723
0t0
#1946586
1t0
#1947859
0t0
#1949139
1t0
#1949816
0t0
#1951436
1t0
#1952259
0t0
#1953881
1t0
#1954982
0t0
#1955817
1t0
#1956456
0t0
#1957774
1t0
#1958803
0t0
#1959756
1t0
#1960428
0t0
#1961712
1t0
#1962948
0t0
#1963637
1t0
#1964292
0t0
#1965268
1t0
#1966578
0t0
#1969532
1t0
#1970778
0t0
#1971629
1t0
#1972376
0t0
#1976753
1t0
#1978283
0t0
#1980628
1t0
#1981458
0t0
#1987583
1t0
#1989368
0t0
#1990709
1t0
#1991742
0t0
#1992569
1t0
#1993245
0t0
#1994070
1t0
#1995157
0t0
#1996172
1t0
#1997044
0t0
#1998538
1t0
#1999589
0t0
#2001180
1t0
#2001854
0t0
#2005090
1t0
#2005858
0t0
#2007524
1t0
#2008286
0t0
#2011577
1t0
#2013044
0t0
#2018497
1t0
#2020165
0t0
#2021498
1t0
#2022470
0t0
#2023433
1t0
#2024109
0t0
#2024778
1t0
#2025336
0t0
#2026380
1t0
#2027620
0t0
#2029330
1t0
#2030488
0t0
#2032260
1t0
#2032982
0t0
#2033593
1t0
#2034574
0t0
#2037370
1t0
#2038443
0t0
#2039066
1t0
#2039717
0t0
#2042039
1t0
#2043216
0t0
#2043971
1t0
#2044633
0t0
#2045948
1t0
#2046965
0t0
#2048217
1t0
#2048852
0t0
#2050200
1t0
#2051162
0t0
#2052150
1t0
#2052773
0t0
#2053449
1t0
#2054400
0t0
#2055084
1t0
#2055690
0t0
#2057047
1t0
#2057848
0t0
#2059268
1t0
#2059866
0t0
#2062236
1t0
#2063212
0t0
#2064170
1t0
#2064743
0t0
#2066132
1t0
#2067085
0t0
#2069065
1t0
#2069707
0t0
#2074474
1t0
#2076828
0t0
#2079844
1t0
#2081397
0t0
#2084720
1t0
#2094130
0t0
#2097416
1t0
#2099051
0t0
#2100333
1t0
#2101666
0t0
#2105600
1t0
#2107291
0t0
#2110595
1t0
#2112326
0t0
#2115224
1t0
#2116789
0t0
#2118048
1t0
#2119297
0t0
#2121105
1t0
#2122100
0t0
#2125605
1t0
#2126689
0t0
#2128593
1t0
#2129469
0t0
#2131523
1t0
#2132205
0t0
#2133771
1t0
#2134808
0t0
#2136717
1t0
#2137409
0t0
#2139126
1t0
#2139785
0t0
#2141111
1t0
#2141787
0t0
#2145686
1t0
#2146931
0t0
#2147989
1t0
#2148689
0t0
#2149554
1t0
#2150874
0t0
#2151652
1t0
#2152326
0t0
#2153908
1t0
#2154941
0t0
#2156828
1t0
#2157504
0t0
#2160214
1t0
#2160874
0t0
#2162246
1t0
#2163429
0t0
#2165686
1t0
#2166700
0t0
#2170338
1t0
#2171721
0t0
#2176086
1t0
#2177934
0t0
#2180004
1t0
#2180988
0t0
#2181963
1t0
#2183430
0t0
#2186941
1t0
#2188359
0t0
#2192694
1t0
#2194411
0t0
#2197686
1t0
#2199421
0t0
#2202444
1t0
#2203828
0t0
#2207616
1t0
#2209216
0t0
#2210269
1t0
#2211407
0t0
#2212495
1t0
#2213299
0t0
#2217667
1t0
#2219290
0t0
#2221171
1t0
#2221886
0t0
#2223092
1t0
#2223733
0t0
#2226047
1t0
#2227220
0t0
#2227987
1t0
#2228807
0t0
#2233168
1t0
#2234902
0t0
#2238062
1t0
#2239288
0t0
#2240039
1t0
#2240806
0t0
#2241993
1t0
#2243404
0t0
#2244912
1t0
#2245592
0t0
#2247853
1t0
#2248563
0t0
#2252578
1t0
#2254151
0t0
#2255191
1t0
#2255963
0t0
#2258048
1t0
#2259464
0t0
#2262802
1t0
#2264179
0t0
#2265289
1t0
#2266354
0t0
#2268222
1t0
#2268871
0t0
#2270207
1t0
#2271295
0t0
#2271991
1t0
#2272655
0t0
#2273795
1t0
#2275050
0t0
#2276101
1t0
#2276753
0t0
#2278040
1t0
#2279243
0t0
#2281599
1t0
#2282595
0t0
#2283708
1t0
#2284381
0t0
#2285982
1t0
#2287095
0t0
#2288927
1t0
#2289691
0t0
#2293315
1t0
#2296086
0t0
#2297610
1t0
#2298969
0t0
#2300928
1t0
#2301632
0t0
#2302881
1t0
#2303598
0t0
#2304360
1t0
#2305120
0t0
#2306099
1t0
#2307357
0t0
#2308091
1t0
#2308756
0t0
#2309723
1t0
#2311880
0t0
#2314682
1t0
#2316776
0t0
#2317970
1t0
#2320221
0t0
#2324047
1t0
#2326318
0t0
#2328284
1t0
#2328989
0t0
#2330241
1t0
#2331432
0t0
#2332605
1t0
#2333356
0t0
#2334711
1t0
#2335441
0t0
#2336179
1t0
#2336835
0t0
#2337664
1t0
#2338975
0t0
#2339836
1t0
#2340658
0t0
#2341580
1t0
#2342586
0t0
#2345190
1t0
#2346026
0t0
#2349713
1t0
#2351109
0t0
#2354665
1t0
#2356339
0t0
#2359645
1t0
#2360967
0t0
#2362585
1t0
#2363832
0t0
#2365502
1t0
#2366989
0t0
#2369609
1t0
#2370775
0t0
#2373612
1t0
#2374752
0t0
#2375461
1t0
#2376135
0t0
#2376839
1t0
#2377440
0t0
#2380561
1t0
#2381322
0t0
#2382656
1t0
#2383434
0t0
#2385536
1t0
#2386640
0t0
#2389510
1t0
#2390819
0t0
#2392433
1t0
#2393083
0t0
#2394192
1t0
#2395325
0t0
#2396367
1t0
#2397152
0t0
#2400572
1t0
#2402125
0t0
#2405612
1t0
#2406770
0t0
#2411497
1t0
#2413374
0t0
#2416181
1t0
#2416988
0t0
#2421479
1t0
#2423880
0t0
#2424988
1t0
#2425800
0t0
#2427417
1t0
#2428486
0t0
#2430437
1t0
#2431644
0t0
#2432534
1t0
#2433190
0t0
#2436354
1t0
#2437454
0t0
#2442294
1t0
#2443686
0t0
#2446191
1t0
#2447343
0t0
#2449111
1t0
#2449769
0t0
#2452344
1t0
#2453003
0t0
#2454300
1t0
#2455314
0t0
#2456003
1t0
#2456682
0t0
#2457834
1t0
#2459079
0t0
#2462549
1t0
#2463859
0t0
#2468171
1t0
#2469798
0t0
#2473023
1t0
#2473852
0t0
#2478591
1t0
#2480504
0t0
#2482048
1t0
#2483365
0t0
#2485363
1t0
#2486623
0t0
#2487304
1t0
#2487966
0t0
#2488946
1t0
#2489787
0t0
#2493522
1t0
#2494756
0t0
#2498551
1t0
#2500112
0t0
#2503694
1t0
#2505351
0t0
#2506760
1t0
#2507583
0t0
#2508705
1t0
#2509334
0t0
#2513660
1t0
#2515298
0t0
#2517146
1t0
#2517954
0t0
#2520065
1t0
#2521480
0t0
#2524034
1t0
#2525023
0t0
#2529273
1t0
#2531194
0t0
#2532253
1t0
#2532943
0t0
#2533620
1t0
#2534627
0t0
#2535341
1t0
#2535987
0t0
#2538539
1t0
#2539674
0t0
#2540479
1t0
#2541115
0t0
#2542454
1t0
#2544172
0t0
#2545410
1t0
#2546491
0t0
#2547355
1t0
#2548018
0t0
#2548802
1t0
#2549424
0t0
#2550902
1t0
#2551752
0t0
#2553624
1t0
#2554612
0t0
#2555602
1t0
#2556223
0t0
#2557555
1t0
#2558505
0t0
#2559530
1t0
#2560136
0t0
#2561287
1t0
#2561908
0t0
#2564811
1t0
#2565514
0t0
#2569473
1t0
#2571009
0t0
#2574339
1t0
#2576040
0t0
#2578266
1t0
#2579703
0t0
#2581190
1t0
#2581937
0t0
#2584940
1t0
#2585752
0t0
#2590095
1t0
#2591973
0t0
#2594562
1t0
#2595839
0t0
#2597499
1t0
#2598666
0t0
#2599452
1t0
#2600096
0t0
#2601413
1t0
#2602397
0t0
#2605009
1t0
#2605691
0t0
#2607304
1t0
#2608099
0t0
#2609280
1t0
#2610480
0t0
#2612213
1t0
#2613130
0t0
#2615608
1t0
#2616754
0t0
#2617557
1t0
#2618642
0t0
#2620516
1t0
#2621282
0t0
#2625647
1t0
#2627352
0t0
#2628577
1t0
#2629468
0t0
#2630663
1t0
#2631352
0t0
#2633485
1t0
#2634531
0t0
#2635441
1t0
#2636141
0t0
#2637406
1t0
#2638379
0t0
#2639643
1t0
#2640249
0t0
#2641151
1t0
#2641830
0t0
#2643325
1t0
#2644042
0t0
#2644766
1t0
#2645525
0t0
#2649599
1t0
#2650946
0t0
#2653927
1t0
#2655508
0t0
#2658483
1t0
#2660209
0t0
#2661461
1t0
#2662714
0t0
#2663407
1t0
#2664007
0t0
#2666526
1t0
#2667535
0t0
#2669455
1t0
#2670517
0t0
#2671613
1t0
#2672287
0t0
#2673547
1t0
#2674914
0t0
#2676595
1t0
#2677268
0t0
#2681572
1t0
#2683719
0t0
#2684838
1t0
#2685596
0t0
#2686784
1t0
#2687484
0t0
#2689600
1t0
#2690627
0t0
#2694702
1t0
#2696025
0t0
#2697676
1t0
#2698771
0t0
#2700766
1t0
#2701417
0t0
#2702500
1t0
#2703173
0t0
#2704441
1t0
#2705272
0t0
#2707868
1t0
#2709151
0t0
#2713727
1t0
#2715467
0t0
#2717603
1t0
#2718672
0t0
#2721542
1t0
#2722759
0t0
#2723622
1t0
#2724231
0t0
#2725777
1t0
#2726811
0t0
#2728745
1t0
#2729378
0t0
#2731417
1t0
#2732041
0t0
#2732906
1t0
#2733533
0t0
#2734595
1t0
#2735258
0t0
#2736351
1t0
#2737125
0t0
#2739272
1t0
#2740275
0t0
#2741503
1t0
#2742455
0t0
#2744324
1t0
#2744965
0t0
#2745898
1t0
#2747112
0t0
#2750195
1t0
#2751497
0t0
#2753601
1t0
#2754767
0t0
#2756964
1t0
#2757659
0t0
#2758951
1t0
#2759758
0t0
#2762221
1t0
#2763677
0t0
#2765169
1t0
#2765965
0t0
#2767806
1t0
#2768495
0t0
#2769419
1t0
#2770375
0t0
#2773329
1t0
